EESchema Schematic File Version 4
LIBS:vfe_CATIA_LiteDTU-cache
EELAYER 26 0
EELAYER END
$Descr A4 11693 8268
encoding utf-8
Sheet 2 6
Title ""
Date ""
Rev ""
Comp ""
Comment1 ""
Comment2 ""
Comment3 ""
Comment4 ""
$EndDescr
Text HLabel 700  2550 0    39   Input ~ 0
In
$Comp
L Device:R R204
U 1 1 5CCDFEE8
P 1750 5125
AR Path="/59140D2B/5CCDFEE8" Ref="R204"  Part="1" 
AR Path="/5E0256B5/5CCDFEE8" Ref="R304"  Part="1" 
AR Path="/5E108C88/5CCDFEE8" Ref="R404"  Part="1" 
AR Path="/5E130590/5CCDFEE8" Ref="R504"  Part="1" 
AR Path="/5E1C420C/5CCDFEE8" Ref="R604"  Part="1" 
F 0 "R204" V 1830 5125 50  0000 C CNN
F 1 "1.5k" V 1750 5125 50  0000 C CNN
F 2 "Resistor_SMD:R_0402_1005Metric" V 1680 5125 50  0001 C CNN
F 3 "" H 1750 5125 50  0000 C CNN
	1    1750 5125
	-1   0    0    1   
$EndComp
$Comp
L Device:R R202
U 1 1 5914D344
P 1150 2550
AR Path="/59140D2B/5914D344" Ref="R202"  Part="1" 
AR Path="/5E0256B5/5914D344" Ref="R302"  Part="1" 
AR Path="/5E108C88/5914D344" Ref="R402"  Part="1" 
AR Path="/5E130590/5914D344" Ref="R502"  Part="1" 
AR Path="/5E1C420C/5914D344" Ref="R602"  Part="1" 
F 0 "R202" V 1230 2550 50  0000 C CNN
F 1 "20" V 1150 2550 50  0000 C CNN
F 2 "Resistor_SMD:R_0402_1005Metric" V 1080 2550 50  0001 C CNN
F 3 "" H 1150 2550 50  0000 C CNN
	1    1150 2550
	0    1    1    0   
$EndComp
$Comp
L Device:C C201
U 1 1 5CCDFEEB
P 850 2550
AR Path="/59140D2B/5CCDFEEB" Ref="C201"  Part="1" 
AR Path="/5E0256B5/5CCDFEEB" Ref="C301"  Part="1" 
AR Path="/5E108C88/5CCDFEEB" Ref="C401"  Part="1" 
AR Path="/5E130590/5CCDFEEB" Ref="C501"  Part="1" 
AR Path="/5E1C420C/5CCDFEEB" Ref="C601"  Part="1" 
F 0 "C201" H 875 2650 50  0000 L CNN
F 1 "100n" V 700 2450 50  0000 L CNN
F 2 "MDJ_mod:C_1808" H 888 2400 50  0001 C CNN
F 3 "" H 850 2550 50  0000 C CNN
	1    850  2550
	0    1    1    0   
$EndComp
$Comp
L Device:R R217
U 1 1 59152C37
P 6825 2325
AR Path="/59140D2B/59152C37" Ref="R217"  Part="1" 
AR Path="/5E0256B5/59152C37" Ref="R317"  Part="1" 
AR Path="/5E108C88/59152C37" Ref="R417"  Part="1" 
AR Path="/5E130590/59152C37" Ref="R517"  Part="1" 
AR Path="/5E1C420C/59152C37" Ref="R617"  Part="1" 
F 0 "R217" V 6900 2325 50  0000 C CNN
F 1 "47" V 6825 2325 50  0000 C CNN
F 2 "Resistor_SMD:R_0402_1005Metric" V 6755 2325 50  0001 C CNN
F 3 "" H 6825 2325 50  0000 C CNN
	1    6825 2325
	0    1    1    0   
$EndComp
$Comp
L Device:R R218
U 1 1 5CCDFEED
P 6825 2625
AR Path="/59140D2B/5CCDFEED" Ref="R218"  Part="1" 
AR Path="/5E0256B5/5CCDFEED" Ref="R318"  Part="1" 
AR Path="/5E108C88/5CCDFEED" Ref="R418"  Part="1" 
AR Path="/5E130590/5CCDFEED" Ref="R518"  Part="1" 
AR Path="/5E1C420C/5CCDFEED" Ref="R618"  Part="1" 
F 0 "R218" V 6925 2625 50  0000 C CNN
F 1 "47" V 6825 2625 50  0000 C CNN
F 2 "Resistor_SMD:R_0402_1005Metric" V 6755 2625 50  0001 C CNN
F 3 "" H 6825 2625 50  0000 C CNN
	1    6825 2625
	0    1    1    0   
$EndComp
$Comp
L Device:C C242
U 1 1 591530B0
P 7325 2475
AR Path="/59140D2B/591530B0" Ref="C242"  Part="1" 
AR Path="/5E0256B5/591530B0" Ref="C342"  Part="1" 
AR Path="/5E108C88/591530B0" Ref="C442"  Part="1" 
AR Path="/5E130590/591530B0" Ref="C542"  Part="1" 
AR Path="/5E1C420C/591530B0" Ref="C642"  Part="1" 
F 0 "C242" H 7275 2575 50  0000 L CNN
F 1 "27p" H 7350 2375 50  0000 L CNN
F 2 "Capacitor_SMD:C_0402_1005Metric" H 7363 2325 50  0001 C CNN
F 3 "" H 7325 2475 50  0000 C CNN
	1    7325 2475
	1    0    0    -1  
$EndComp
Text HLabel 800  4975 0    39   Input ~ 0
Leak
$Comp
L Device:C C203
U 1 1 5CCDFEEF
P 1200 5125
AR Path="/59140D2B/5CCDFEEF" Ref="C203"  Part="1" 
AR Path="/5E0256B5/5CCDFEEF" Ref="C303"  Part="1" 
AR Path="/5E108C88/5CCDFEEF" Ref="C403"  Part="1" 
AR Path="/5E130590/5CCDFEEF" Ref="C503"  Part="1" 
AR Path="/5E1C420C/5CCDFEEF" Ref="C603"  Part="1" 
F 0 "C203" H 1225 5225 50  0000 L CNN
F 1 "100n" H 1225 5025 50  0000 L CNN
F 2 "Capacitor_SMD:C_0402_1005Metric" H 1238 4975 50  0001 C CNN
F 3 "" H 1200 5125 50  0000 C CNN
	1    1200 5125
	1    0    0    -1  
$EndComp
$Comp
L Device:C C204
U 1 1 5CCDFEF0
P 1450 5125
AR Path="/59140D2B/5CCDFEF0" Ref="C204"  Part="1" 
AR Path="/5E0256B5/5CCDFEF0" Ref="C304"  Part="1" 
AR Path="/5E108C88/5CCDFEF0" Ref="C404"  Part="1" 
AR Path="/5E130590/5CCDFEF0" Ref="C504"  Part="1" 
AR Path="/5E1C420C/5CCDFEF0" Ref="C604"  Part="1" 
F 0 "C204" H 1475 5225 50  0000 L CNN
F 1 "10u" H 1475 5025 50  0000 L CNN
F 2 "Capacitor_SMD:C_0402_1005Metric" H 1488 4975 50  0001 C CNN
F 3 "" H 1450 5125 50  0000 C CNN
	1    1450 5125
	1    0    0    -1  
$EndComp
$Comp
L power:GNDA #PWR0206
U 1 1 5CCDFEF1
P 1750 5325
AR Path="/59140D2B/5CCDFEF1" Ref="#PWR0206"  Part="1" 
AR Path="/5E0256B5/5CCDFEF1" Ref="#PWR0306"  Part="1" 
AR Path="/5E108C88/5CCDFEF1" Ref="#PWR0406"  Part="1" 
AR Path="/5E130590/5CCDFEF1" Ref="#PWR0506"  Part="1" 
AR Path="/5E1C420C/5CCDFEF1" Ref="#PWR0606"  Part="1" 
F 0 "#PWR0206" H 1750 5075 50  0001 C CNN
F 1 "GNDA" H 1750 5175 50  0000 C CNN
F 2 "" H 1750 5325 50  0000 C CNN
F 3 "" H 1750 5325 50  0000 C CNN
	1    1750 5325
	1    0    0    -1  
$EndComp
Text Notes 7450 7500 0    60   ~ 0
VFE_test_CATIA _v1
Text Notes 8200 7650 0    60   ~ 0
2018/07/17
Text Notes 10600 7650 0    60   ~ 0
1
$Comp
L MDJ_compo:CATIA-v1 U201
U 1 1 5CCDFF03
P 4150 3050
AR Path="/59140D2B/5CCDFF03" Ref="U201"  Part="1" 
AR Path="/5E0256B5/5CCDFF03" Ref="U301"  Part="1" 
AR Path="/5E108C88/5CCDFF03" Ref="U401"  Part="1" 
AR Path="/5E130590/5CCDFF03" Ref="U501"  Part="1" 
AR Path="/5E1C420C/5CCDFF03" Ref="U601"  Part="1" 
F 0 "U201" H 3850 3400 60  0000 C CNN
F 1 "CATIA-v1" H 4000 3550 60  0000 C CNN
F 2 "Package_QFP:LQFP-100_14x14mm_P0.5mm" H 3200 4400 60  0001 C CNN
F 3 "" H 3200 4400 60  0001 C CNN
	1    4150 3050
	1    0    0    -1  
$EndComp
$Comp
L power:GNDA #PWR0211
U 1 1 5B4C54AD
P 2550 4850
AR Path="/59140D2B/5B4C54AD" Ref="#PWR0211"  Part="1" 
AR Path="/5E0256B5/5B4C54AD" Ref="#PWR0311"  Part="1" 
AR Path="/5E108C88/5B4C54AD" Ref="#PWR0411"  Part="1" 
AR Path="/5E130590/5B4C54AD" Ref="#PWR0511"  Part="1" 
AR Path="/5E1C420C/5B4C54AD" Ref="#PWR0611"  Part="1" 
F 0 "#PWR0211" H 2550 4600 50  0001 C CNN
F 1 "GNDA" H 2550 4700 50  0000 C CNN
F 2 "" H 2550 4850 50  0000 C CNN
F 3 "" H 2550 4850 50  0000 C CNN
	1    2550 4850
	1    0    0    -1  
$EndComp
$Comp
L Device:R R215
U 1 1 5B4C7A21
P 6825 1875
AR Path="/59140D2B/5B4C7A21" Ref="R215"  Part="1" 
AR Path="/5E0256B5/5B4C7A21" Ref="R315"  Part="1" 
AR Path="/5E108C88/5B4C7A21" Ref="R415"  Part="1" 
AR Path="/5E130590/5B4C7A21" Ref="R515"  Part="1" 
AR Path="/5E1C420C/5B4C7A21" Ref="R615"  Part="1" 
F 0 "R215" V 6725 1875 50  0000 C CNN
F 1 "47" V 6825 1875 50  0000 C CNN
F 2 "Resistor_SMD:R_0402_1005Metric" V 6755 1875 50  0001 C CNN
F 3 "" H 6825 1875 50  0000 C CNN
	1    6825 1875
	0    1    1    0   
$EndComp
$Comp
L Device:R R216
U 1 1 5CCDFF06
P 6825 2175
AR Path="/59140D2B/5CCDFF06" Ref="R216"  Part="1" 
AR Path="/5E0256B5/5CCDFF06" Ref="R316"  Part="1" 
AR Path="/5E108C88/5CCDFF06" Ref="R416"  Part="1" 
AR Path="/5E130590/5CCDFF06" Ref="R516"  Part="1" 
AR Path="/5E1C420C/5CCDFF06" Ref="R616"  Part="1" 
F 0 "R216" V 6750 2175 50  0000 C CNN
F 1 "47" V 6825 2175 50  0000 C CNN
F 2 "Resistor_SMD:R_0402_1005Metric" V 6755 2175 50  0001 C CNN
F 3 "" H 6825 2175 50  0000 C CNN
	1    6825 2175
	0    1    1    0   
$EndComp
Text HLabel 7550 1075 0    39   Input ~ 0
Clk+
Text HLabel 7550 1200 0    39   Input ~ 0
Clk-
Text HLabel 9950 1500 2    39   Output ~ 0
Dout0-
Text HLabel 9950 1450 2    39   Output ~ 0
Dout0+
$Comp
L Device:C C246
U 1 1 5CCDFF08
P 8550 900
AR Path="/59140D2B/5CCDFF08" Ref="C246"  Part="1" 
AR Path="/5E0256B5/5CCDFF08" Ref="C346"  Part="1" 
AR Path="/5E108C88/5CCDFF08" Ref="C446"  Part="1" 
AR Path="/5E130590/5CCDFF08" Ref="C546"  Part="1" 
AR Path="/5E1C420C/5CCDFF08" Ref="C646"  Part="1" 
F 0 "C246" H 8500 1000 50  0000 L CNN
F 1 "10u" H 8575 800 50  0000 L CNN
F 2 "Capacitor_SMD:C_0603_1608Metric" H 8588 750 50  0001 C CNN
F 3 "" H 8550 900 50  0000 C CNN
	1    8550 900 
	1    0    0    -1  
$EndComp
$Comp
L Device:C C244
U 1 1 5CCDFF09
P 8325 900
AR Path="/59140D2B/5CCDFF09" Ref="C244"  Part="1" 
AR Path="/5E0256B5/5CCDFF09" Ref="C344"  Part="1" 
AR Path="/5E108C88/5CCDFF09" Ref="C444"  Part="1" 
AR Path="/5E130590/5CCDFF09" Ref="C544"  Part="1" 
AR Path="/5E1C420C/5CCDFF09" Ref="C644"  Part="1" 
F 0 "C244" H 8275 1000 50  0000 L CNN
F 1 "10u" H 8350 800 50  0000 L CNN
F 2 "Capacitor_SMD:C_0603_1608Metric" H 8363 750 50  0001 C CNN
F 3 "" H 8325 900 50  0000 C CNN
	1    8325 900 
	1    0    0    -1  
$EndComp
$Comp
L Device:C C249
U 1 1 5CCDFF0A
P 10350 1000
AR Path="/59140D2B/5CCDFF0A" Ref="C249"  Part="1" 
AR Path="/5E0256B5/5CCDFF0A" Ref="C349"  Part="1" 
AR Path="/5E108C88/5CCDFF0A" Ref="C449"  Part="1" 
AR Path="/5E130590/5CCDFF0A" Ref="C549"  Part="1" 
AR Path="/5E1C420C/5CCDFF0A" Ref="C649"  Part="1" 
F 0 "C249" H 10300 1100 50  0000 L CNN
F 1 "10u" H 10375 900 50  0000 L CNN
F 2 "Capacitor_SMD:C_0402_1005Metric" H 10388 850 50  0001 C CNN
F 3 "" H 10350 1000 50  0000 C CNN
	1    10350 1000
	1    0    0    -1  
$EndComp
$Comp
L Device:C C248
U 1 1 5CCDFF0B
P 9125 850
AR Path="/59140D2B/5CCDFF0B" Ref="C248"  Part="1" 
AR Path="/5E0256B5/5CCDFF0B" Ref="C348"  Part="1" 
AR Path="/5E108C88/5CCDFF0B" Ref="C448"  Part="1" 
AR Path="/5E130590/5CCDFF0B" Ref="C548"  Part="1" 
AR Path="/5E1C420C/5CCDFF0B" Ref="C648"  Part="1" 
F 0 "C248" H 9075 950 50  0000 L CNN
F 1 "10u" H 9150 750 50  0000 L CNN
F 2 "Capacitor_SMD:C_0402_1005Metric" H 9163 700 50  0001 C CNN
F 3 "" H 9125 850 50  0000 C CNN
	1    9125 850 
	1    0    0    -1  
$EndComp
$Comp
L power:GNDA #PWR0221
U 1 1 5B4C7A82
P 8550 1050
AR Path="/59140D2B/5B4C7A82" Ref="#PWR0221"  Part="1" 
AR Path="/5E0256B5/5B4C7A82" Ref="#PWR0321"  Part="1" 
AR Path="/5E108C88/5B4C7A82" Ref="#PWR0421"  Part="1" 
AR Path="/5E130590/5B4C7A82" Ref="#PWR0521"  Part="1" 
AR Path="/5E1C420C/5B4C7A82" Ref="#PWR0621"  Part="1" 
F 0 "#PWR0221" H 8550 800 50  0001 C CNN
F 1 "GNDA" H 8550 900 50  0000 C CNN
F 2 "" H 8550 1050 50  0000 C CNN
F 3 "" H 8550 1050 50  0000 C CNN
	1    8550 1050
	1    0    0    -1  
$EndComp
Text HLabel 6250 3950 2    39   Input ~ 0
I2C_Add_0
Text HLabel 6250 4050 2    39   Input ~ 0
I2C_Add_1
Text HLabel 6250 4150 2    39   Input ~ 0
I2C_Add_2
Text HLabel 6200 5875 2    39   Input ~ 0
I2C_SDA
Text HLabel 6200 3550 2    39   Input ~ 0
Calib_trigger
Text HLabel 6200 5650 2    39   Input ~ 0
PwpRstb
$Comp
L MDJ_compo:V2P5A #PWR0209
U 1 1 5B4CCA79
P 2350 1350
AR Path="/59140D2B/5B4CCA79" Ref="#PWR0209"  Part="1" 
AR Path="/5E0256B5/5B4CCA79" Ref="#PWR0309"  Part="1" 
AR Path="/5E108C88/5B4CCA79" Ref="#PWR0409"  Part="1" 
AR Path="/5E130590/5B4CCA79" Ref="#PWR0509"  Part="1" 
AR Path="/5E1C420C/5B4CCA79" Ref="#PWR0609"  Part="1" 
F 0 "#PWR0209" H 2350 1200 50  0001 C CNN
F 1 "V2P5A" H 2350 1490 50  0000 C CNN
F 2 "" H 2350 1350 50  0000 C CNN
F 3 "" H 2350 1350 50  0000 C CNN
	1    2350 1350
	1    0    0    -1  
$EndComp
$Comp
L Device:R R206
U 1 1 5B4CCC14
P 2400 2000
AR Path="/59140D2B/5B4CCC14" Ref="R206"  Part="1" 
AR Path="/5E0256B5/5B4CCC14" Ref="R306"  Part="1" 
AR Path="/5E108C88/5B4CCC14" Ref="R406"  Part="1" 
AR Path="/5E130590/5B4CCC14" Ref="R506"  Part="1" 
AR Path="/5E1C420C/5B4CCC14" Ref="R606"  Part="1" 
F 0 "R206" V 2480 2000 50  0000 C CNN
F 1 "1" V 2400 2000 50  0000 C CNN
F 2 "Resistor_SMD:R_0402_1005Metric" V 2330 2000 50  0001 C CNN
F 3 "" H 2400 2000 50  0000 C CNN
	1    2400 2000
	-1   0    0    1   
$EndComp
$Comp
L Device:C C209
U 1 1 5B4CCE95
P 1875 2900
AR Path="/59140D2B/5B4CCE95" Ref="C209"  Part="1" 
AR Path="/5E0256B5/5B4CCE95" Ref="C309"  Part="1" 
AR Path="/5E108C88/5B4CCE95" Ref="C409"  Part="1" 
AR Path="/5E130590/5B4CCE95" Ref="C509"  Part="1" 
AR Path="/5E1C420C/5B4CCE95" Ref="C609"  Part="1" 
F 0 "C209" H 1825 3000 50  0000 L CNN
F 1 "10u" H 1900 2800 50  0000 L CNN
F 2 "Capacitor_SMD:C_0402_1005Metric" H 1913 2750 50  0001 C CNN
F 3 "" H 1875 2900 50  0000 C CNN
	1    1875 2900
	1    0    0    -1  
$EndComp
$Comp
L Device:C C221
U 1 1 5B4CF996
P 3550 1050
AR Path="/59140D2B/5B4CF996" Ref="C221"  Part="1" 
AR Path="/5E0256B5/5B4CF996" Ref="C321"  Part="1" 
AR Path="/5E108C88/5B4CF996" Ref="C421"  Part="1" 
AR Path="/5E130590/5B4CF996" Ref="C521"  Part="1" 
AR Path="/5E1C420C/5B4CF996" Ref="C621"  Part="1" 
F 0 "C221" H 3500 1150 50  0000 L CNN
F 1 "10u" H 3575 950 50  0000 L CNN
F 2 "Capacitor_SMD:C_0402_1005Metric" H 3588 900 50  0001 C CNN
F 3 "" H 3550 1050 50  0000 C CNN
	1    3550 1050
	1    0    0    -1  
$EndComp
$Comp
L Device:C C223
U 1 1 5B4CFA61
P 3750 1050
AR Path="/59140D2B/5B4CFA61" Ref="C223"  Part="1" 
AR Path="/5E0256B5/5B4CFA61" Ref="C323"  Part="1" 
AR Path="/5E108C88/5B4CFA61" Ref="C423"  Part="1" 
AR Path="/5E130590/5B4CFA61" Ref="C523"  Part="1" 
AR Path="/5E1C420C/5B4CFA61" Ref="C623"  Part="1" 
F 0 "C223" H 3700 1150 50  0000 L CNN
F 1 "10u" H 3775 950 50  0000 L CNN
F 2 "Capacitor_SMD:C_0402_1005Metric" H 3788 900 50  0001 C CNN
F 3 "" H 3750 1050 50  0000 C CNN
	1    3750 1050
	1    0    0    -1  
$EndComp
$Comp
L Device:C C226
U 1 1 5B4CFB17
P 4250 1050
AR Path="/59140D2B/5B4CFB17" Ref="C226"  Part="1" 
AR Path="/5E0256B5/5B4CFB17" Ref="C326"  Part="1" 
AR Path="/5E108C88/5B4CFB17" Ref="C426"  Part="1" 
AR Path="/5E130590/5B4CFB17" Ref="C526"  Part="1" 
AR Path="/5E1C420C/5B4CFB17" Ref="C626"  Part="1" 
F 0 "C226" H 4200 1150 50  0000 L CNN
F 1 "10u" H 4275 950 50  0000 L CNN
F 2 "Capacitor_SMD:C_0402_1005Metric" H 4288 900 50  0001 C CNN
F 3 "" H 4250 1050 50  0000 C CNN
	1    4250 1050
	1    0    0    -1  
$EndComp
$Comp
L Device:C C228
U 1 1 5CCDFF13
P 4750 1050
AR Path="/59140D2B/5CCDFF13" Ref="C228"  Part="1" 
AR Path="/5E0256B5/5CCDFF13" Ref="C328"  Part="1" 
AR Path="/5E108C88/5CCDFF13" Ref="C428"  Part="1" 
AR Path="/5E130590/5CCDFF13" Ref="C528"  Part="1" 
AR Path="/5E1C420C/5CCDFF13" Ref="C628"  Part="1" 
F 0 "C228" H 4700 1150 50  0000 L CNN
F 1 "10u" H 4775 950 50  0000 L CNN
F 2 "Capacitor_SMD:C_0402_1005Metric" H 4788 900 50  0001 C CNN
F 3 "" H 4750 1050 50  0000 C CNN
	1    4750 1050
	1    0    0    -1  
$EndComp
$Comp
L Device:C C231
U 1 1 5CCDFF14
P 5150 1050
AR Path="/59140D2B/5CCDFF14" Ref="C231"  Part="1" 
AR Path="/5E0256B5/5CCDFF14" Ref="C331"  Part="1" 
AR Path="/5E108C88/5CCDFF14" Ref="C431"  Part="1" 
AR Path="/5E130590/5CCDFF14" Ref="C531"  Part="1" 
AR Path="/5E1C420C/5CCDFF14" Ref="C631"  Part="1" 
F 0 "C231" H 5100 1150 50  0000 L CNN
F 1 "10u" H 5175 950 50  0000 L CNN
F 2 "Capacitor_SMD:C_0402_1005Metric" H 5188 900 50  0001 C CNN
F 3 "" H 5150 1050 50  0000 C CNN
	1    5150 1050
	1    0    0    -1  
$EndComp
$Comp
L Device:C C216
U 1 1 5B4D1009
P 2150 2000
AR Path="/59140D2B/5B4D1009" Ref="C216"  Part="1" 
AR Path="/5E0256B5/5B4D1009" Ref="C316"  Part="1" 
AR Path="/5E108C88/5B4D1009" Ref="C416"  Part="1" 
AR Path="/5E130590/5B4D1009" Ref="C516"  Part="1" 
AR Path="/5E1C420C/5B4D1009" Ref="C616"  Part="1" 
F 0 "C216" H 2100 2100 50  0000 L CNN
F 1 "10u" H 2175 1900 50  0000 L CNN
F 2 "Capacitor_SMD:C_0402_1005Metric" H 2188 1850 50  0001 C CNN
F 3 "" H 2150 2000 50  0000 C CNN
	1    2150 2000
	1    0    0    -1  
$EndComp
$Comp
L Device:C C214
U 1 1 5B4D10AB
P 2075 3600
AR Path="/59140D2B/5B4D10AB" Ref="C214"  Part="1" 
AR Path="/5E0256B5/5B4D10AB" Ref="C314"  Part="1" 
AR Path="/5E108C88/5B4D10AB" Ref="C414"  Part="1" 
AR Path="/5E130590/5B4D10AB" Ref="C514"  Part="1" 
AR Path="/5E1C420C/5B4D10AB" Ref="C614"  Part="1" 
F 0 "C214" H 2025 3700 50  0000 L CNN
F 1 "10u" H 2100 3500 50  0000 L CNN
F 2 "Capacitor_SMD:C_0402_1005Metric" H 2113 3450 50  0001 C CNN
F 3 "" H 2075 3600 50  0000 C CNN
	1    2075 3600
	1    0    0    -1  
$EndComp
$Comp
L Device:C C210
U 1 1 5B4D11CE
P 1875 3600
AR Path="/59140D2B/5B4D11CE" Ref="C210"  Part="1" 
AR Path="/5E0256B5/5B4D11CE" Ref="C310"  Part="1" 
AR Path="/5E108C88/5B4D11CE" Ref="C410"  Part="1" 
AR Path="/5E130590/5B4D11CE" Ref="C510"  Part="1" 
AR Path="/5E1C420C/5B4D11CE" Ref="C610"  Part="1" 
F 0 "C210" H 1825 3700 50  0000 L CNN
F 1 "10u" H 1900 3500 50  0000 L CNN
F 2 "Capacitor_SMD:C_0402_1005Metric" H 1913 3450 50  0001 C CNN
F 3 "" H 1875 3600 50  0000 C CNN
	1    1875 3600
	1    0    0    -1  
$EndComp
$Comp
L Device:C C208
U 1 1 5CCDFF18
P 1750 2000
AR Path="/59140D2B/5CCDFF18" Ref="C208"  Part="1" 
AR Path="/5E0256B5/5CCDFF18" Ref="C308"  Part="1" 
AR Path="/5E108C88/5CCDFF18" Ref="C408"  Part="1" 
AR Path="/5E130590/5CCDFF18" Ref="C508"  Part="1" 
AR Path="/5E1C420C/5CCDFF18" Ref="C608"  Part="1" 
F 0 "C208" H 1700 2100 50  0000 L CNN
F 1 "10u" H 1775 1900 50  0000 L CNN
F 2 "Capacitor_SMD:C_0402_1005Metric" H 1788 1850 50  0001 C CNN
F 3 "" H 1750 2000 50  0000 C CNN
	1    1750 2000
	1    0    0    -1  
$EndComp
$Comp
L Device:R R207
U 1 1 5CCDFF19
P 2400 2900
AR Path="/59140D2B/5CCDFF19" Ref="R207"  Part="1" 
AR Path="/5E0256B5/5CCDFF19" Ref="R307"  Part="1" 
AR Path="/5E108C88/5CCDFF19" Ref="R407"  Part="1" 
AR Path="/5E130590/5CCDFF19" Ref="R507"  Part="1" 
AR Path="/5E1C420C/5CCDFF19" Ref="R607"  Part="1" 
F 0 "R207" V 2325 2900 50  0000 C CNN
F 1 "4k" V 2400 2900 50  0000 C CNN
F 2 "Resistor_SMD:R_0402_1005Metric" V 2330 2900 50  0001 C CNN
F 3 "" H 2400 2900 50  0000 C CNN
	1    2400 2900
	-1   0    0    1   
$EndComp
$Comp
L Device:R R205
U 1 1 5CCDFF1A
P 2300 2900
AR Path="/59140D2B/5CCDFF1A" Ref="R205"  Part="1" 
AR Path="/5E0256B5/5CCDFF1A" Ref="R305"  Part="1" 
AR Path="/5E108C88/5CCDFF1A" Ref="R405"  Part="1" 
AR Path="/5E130590/5CCDFF1A" Ref="R505"  Part="1" 
AR Path="/5E1C420C/5CCDFF1A" Ref="R605"  Part="1" 
F 0 "R205" V 2375 2900 50  0000 C CNN
F 1 "1k" V 2300 2900 50  0000 C CNN
F 2 "Resistor_SMD:R_0402_1005Metric" V 2230 2900 50  0001 C CNN
F 3 "" H 2300 2900 50  0000 C CNN
	1    2300 2900
	-1   0    0    1   
$EndComp
$Comp
L Device:C C237
U 1 1 5B4D8137
P 6275 2200
AR Path="/59140D2B/5B4D8137" Ref="C237"  Part="1" 
AR Path="/5E0256B5/5B4D8137" Ref="C337"  Part="1" 
AR Path="/5E108C88/5B4D8137" Ref="C437"  Part="1" 
AR Path="/5E130590/5B4D8137" Ref="C537"  Part="1" 
AR Path="/5E1C420C/5B4D8137" Ref="C637"  Part="1" 
F 0 "C237" H 6225 2300 50  0000 L CNN
F 1 "10u" H 6300 2100 50  0000 L CNN
F 2 "Capacitor_SMD:C_0402_1005Metric" H 6313 2050 50  0001 C CNN
F 3 "" H 6275 2200 50  0000 C CNN
	1    6275 2200
	1    0    0    -1  
$EndComp
$Comp
L Device:C C238
U 1 1 5B4D9350
P 6275 2800
AR Path="/59140D2B/5B4D9350" Ref="C238"  Part="1" 
AR Path="/5E0256B5/5B4D9350" Ref="C338"  Part="1" 
AR Path="/5E108C88/5B4D9350" Ref="C438"  Part="1" 
AR Path="/5E130590/5B4D9350" Ref="C538"  Part="1" 
AR Path="/5E1C420C/5B4D9350" Ref="C638"  Part="1" 
F 0 "C238" H 6225 2900 50  0000 L CNN
F 1 "10u" H 6300 2700 50  0000 L CNN
F 2 "Capacitor_SMD:C_0402_1005Metric" H 6313 2650 50  0001 C CNN
F 3 "" H 6275 2800 50  0000 C CNN
	1    6275 2800
	1    0    0    -1  
$EndComp
$Comp
L Device:C C222
U 1 1 5B4DB817
P 3550 4950
AR Path="/59140D2B/5B4DB817" Ref="C222"  Part="1" 
AR Path="/5E0256B5/5B4DB817" Ref="C322"  Part="1" 
AR Path="/5E108C88/5B4DB817" Ref="C422"  Part="1" 
AR Path="/5E130590/5B4DB817" Ref="C522"  Part="1" 
AR Path="/5E1C420C/5B4DB817" Ref="C622"  Part="1" 
F 0 "C222" H 3500 5050 50  0000 L CNN
F 1 "10u" H 3575 4850 50  0000 L CNN
F 2 "Capacitor_SMD:C_0402_1005Metric" H 3588 4800 50  0001 C CNN
F 3 "" H 3550 4950 50  0000 C CNN
	1    3550 4950
	1    0    0    -1  
$EndComp
$Comp
L Device:C C230
U 1 1 5B4DB9D7
P 4950 4950
AR Path="/59140D2B/5B4DB9D7" Ref="C230"  Part="1" 
AR Path="/5E0256B5/5B4DB9D7" Ref="C330"  Part="1" 
AR Path="/5E108C88/5B4DB9D7" Ref="C430"  Part="1" 
AR Path="/5E130590/5B4DB9D7" Ref="C530"  Part="1" 
AR Path="/5E1C420C/5B4DB9D7" Ref="C630"  Part="1" 
F 0 "C230" H 4900 5050 50  0000 L CNN
F 1 "10u" H 4975 4850 50  0000 L CNN
F 2 "Capacitor_SMD:C_0402_1005Metric" H 4988 4800 50  0001 C CNN
F 3 "" H 4950 4950 50  0000 C CNN
	1    4950 4950
	1    0    0    -1  
$EndComp
$Comp
L power:GNDD #PWR0225
U 1 1 5B4DC038
P 9125 1000
AR Path="/59140D2B/5B4DC038" Ref="#PWR0225"  Part="1" 
AR Path="/5E0256B5/5B4DC038" Ref="#PWR0325"  Part="1" 
AR Path="/5E108C88/5B4DC038" Ref="#PWR0425"  Part="1" 
AR Path="/5E130590/5B4DC038" Ref="#PWR0525"  Part="1" 
AR Path="/5E1C420C/5B4DC038" Ref="#PWR0625"  Part="1" 
F 0 "#PWR0225" H 9125 750 50  0001 C CNN
F 1 "GNDD" H 9125 875 50  0000 C CNN
F 2 "" H 9125 1000 50  0001 C CNN
F 3 "" H 9125 1000 50  0001 C CNN
	1    9125 1000
	1    0    0    -1  
$EndComp
$Comp
L power:GNDD #PWR0227
U 1 1 5B4DC1DA
P 10350 1150
AR Path="/59140D2B/5B4DC1DA" Ref="#PWR0227"  Part="1" 
AR Path="/5E0256B5/5B4DC1DA" Ref="#PWR0327"  Part="1" 
AR Path="/5E108C88/5B4DC1DA" Ref="#PWR0427"  Part="1" 
AR Path="/5E130590/5B4DC1DA" Ref="#PWR0527"  Part="1" 
AR Path="/5E1C420C/5B4DC1DA" Ref="#PWR0627"  Part="1" 
F 0 "#PWR0227" H 10350 900 50  0001 C CNN
F 1 "GNDD" H 10350 1025 50  0000 C CNN
F 2 "" H 10350 1150 50  0001 C CNN
F 3 "" H 10350 1150 50  0001 C CNN
	1    10350 1150
	1    0    0    -1  
$EndComp
$Comp
L power:GNDD #PWR0214
U 1 1 5CCDFF22
P 4950 5150
AR Path="/59140D2B/5CCDFF22" Ref="#PWR0214"  Part="1" 
AR Path="/5E0256B5/5CCDFF22" Ref="#PWR0314"  Part="1" 
AR Path="/5E108C88/5CCDFF22" Ref="#PWR0414"  Part="1" 
AR Path="/5E130590/5CCDFF22" Ref="#PWR0514"  Part="1" 
AR Path="/5E1C420C/5CCDFF22" Ref="#PWR0614"  Part="1" 
F 0 "#PWR0214" H 4950 4900 50  0001 C CNN
F 1 "GNDD" H 4950 5025 50  0000 C CNN
F 2 "" H 4950 5150 50  0001 C CNN
F 3 "" H 4950 5150 50  0001 C CNN
	1    4950 5150
	1    0    0    -1  
$EndComp
$Comp
L power:GNDD #PWR0213
U 1 1 5CCDFF23
P 3550 5100
AR Path="/59140D2B/5CCDFF23" Ref="#PWR0213"  Part="1" 
AR Path="/5E0256B5/5CCDFF23" Ref="#PWR0313"  Part="1" 
AR Path="/5E108C88/5CCDFF23" Ref="#PWR0413"  Part="1" 
AR Path="/5E130590/5CCDFF23" Ref="#PWR0513"  Part="1" 
AR Path="/5E1C420C/5CCDFF23" Ref="#PWR0613"  Part="1" 
F 0 "#PWR0213" H 3550 4850 50  0001 C CNN
F 1 "GNDD" H 3550 4975 50  0000 C CNN
F 2 "" H 3550 5100 50  0001 C CNN
F 3 "" H 3550 5100 50  0001 C CNN
	1    3550 5100
	1    0    0    -1  
$EndComp
$Comp
L Device:C C219
U 1 1 5CCDFF24
P 3150 4950
AR Path="/59140D2B/5CCDFF24" Ref="C219"  Part="1" 
AR Path="/5E0256B5/5CCDFF24" Ref="C319"  Part="1" 
AR Path="/5E108C88/5CCDFF24" Ref="C419"  Part="1" 
AR Path="/5E130590/5CCDFF24" Ref="C519"  Part="1" 
AR Path="/5E1C420C/5CCDFF24" Ref="C619"  Part="1" 
F 0 "C219" H 3100 5050 50  0000 L CNN
F 1 "10u" H 3175 4850 50  0000 L CNN
F 2 "Capacitor_SMD:C_0402_1005Metric" H 3188 4800 50  0001 C CNN
F 3 "" H 3150 4950 50  0000 C CNN
	1    3150 4950
	1    0    0    -1  
$EndComp
$Comp
L Device:C C234
U 1 1 5CCDFF25
P 5350 4950
AR Path="/59140D2B/5CCDFF25" Ref="C234"  Part="1" 
AR Path="/5E0256B5/5CCDFF25" Ref="C334"  Part="1" 
AR Path="/5E108C88/5CCDFF25" Ref="C434"  Part="1" 
AR Path="/5E130590/5CCDFF25" Ref="C534"  Part="1" 
AR Path="/5E1C420C/5CCDFF25" Ref="C634"  Part="1" 
F 0 "C234" H 5300 5050 50  0000 L CNN
F 1 "10u" H 5375 4850 50  0000 L CNN
F 2 "Capacitor_SMD:C_0402_1005Metric" H 5388 4800 50  0001 C CNN
F 3 "" H 5350 4950 50  0000 C CNN
	1    5350 4950
	1    0    0    -1  
$EndComp
$Comp
L power:GNDD #PWR0212
U 1 1 5CCDFF26
P 3150 5100
AR Path="/59140D2B/5CCDFF26" Ref="#PWR0212"  Part="1" 
AR Path="/5E0256B5/5CCDFF26" Ref="#PWR0312"  Part="1" 
AR Path="/5E108C88/5CCDFF26" Ref="#PWR0412"  Part="1" 
AR Path="/5E130590/5CCDFF26" Ref="#PWR0512"  Part="1" 
AR Path="/5E1C420C/5CCDFF26" Ref="#PWR0612"  Part="1" 
F 0 "#PWR0212" H 3150 4850 50  0001 C CNN
F 1 "GNDD" H 3150 4975 50  0000 C CNN
F 2 "" H 3150 5100 50  0001 C CNN
F 3 "" H 3150 5100 50  0001 C CNN
	1    3150 5100
	1    0    0    -1  
$EndComp
$Comp
L power:GNDD #PWR0215
U 1 1 5B4DDF71
P 5350 5150
AR Path="/59140D2B/5B4DDF71" Ref="#PWR0215"  Part="1" 
AR Path="/5E0256B5/5B4DDF71" Ref="#PWR0315"  Part="1" 
AR Path="/5E108C88/5B4DDF71" Ref="#PWR0415"  Part="1" 
AR Path="/5E130590/5B4DDF71" Ref="#PWR0515"  Part="1" 
AR Path="/5E1C420C/5B4DDF71" Ref="#PWR0615"  Part="1" 
F 0 "#PWR0215" H 5350 4900 50  0001 C CNN
F 1 "GNDD" H 5350 5025 50  0000 C CNN
F 2 "" H 5350 5150 50  0001 C CNN
F 3 "" H 5350 5150 50  0001 C CNN
	1    5350 5150
	1    0    0    -1  
$EndComp
Text HLabel 6200 5975 2    39   Input ~ 0
Tsensor
$Comp
L MDJ_compo:V1P2A #PWR0210
U 1 1 5CCDFF28
P 2350 4600
AR Path="/59140D2B/5CCDFF28" Ref="#PWR0210"  Part="1" 
AR Path="/5E0256B5/5CCDFF28" Ref="#PWR0310"  Part="1" 
AR Path="/5E108C88/5CCDFF28" Ref="#PWR0410"  Part="1" 
AR Path="/5E130590/5CCDFF28" Ref="#PWR0510"  Part="1" 
AR Path="/5E1C420C/5CCDFF28" Ref="#PWR0610"  Part="1" 
F 0 "#PWR0210" H 2350 4450 50  0001 C CNN
F 1 "V1P2A" H 2350 4740 50  0000 C CNN
F 2 "" H 2350 4600 50  0000 C CNN
F 3 "" H 2350 4600 50  0000 C CNN
	1    2350 4600
	1    0    0    -1  
$EndComp
$Comp
L Device:C C239
U 1 1 5CCDFF29
P 6475 2200
AR Path="/59140D2B/5CCDFF29" Ref="C239"  Part="1" 
AR Path="/5E0256B5/5CCDFF29" Ref="C339"  Part="1" 
AR Path="/5E108C88/5CCDFF29" Ref="C439"  Part="1" 
AR Path="/5E130590/5CCDFF29" Ref="C539"  Part="1" 
AR Path="/5E1C420C/5CCDFF29" Ref="C639"  Part="1" 
F 0 "C239" H 6425 2300 50  0000 L CNN
F 1 "100n" H 6500 2100 50  0000 L CNN
F 2 "Capacitor_SMD:C_0402_1005Metric" H 6513 2050 50  0001 C CNN
F 3 "" H 6475 2200 50  0000 C CNN
	1    6475 2200
	1    0    0    -1  
$EndComp
$Comp
L Device:C C240
U 1 1 5B4E8E7F
P 6475 2800
AR Path="/59140D2B/5B4E8E7F" Ref="C240"  Part="1" 
AR Path="/5E0256B5/5B4E8E7F" Ref="C340"  Part="1" 
AR Path="/5E108C88/5B4E8E7F" Ref="C440"  Part="1" 
AR Path="/5E130590/5B4E8E7F" Ref="C540"  Part="1" 
AR Path="/5E1C420C/5B4E8E7F" Ref="C640"  Part="1" 
F 0 "C240" H 6425 2900 50  0000 L CNN
F 1 "100n" H 6500 2700 50  0000 L CNN
F 2 "Capacitor_SMD:C_0402_1005Metric" H 6513 2650 50  0001 C CNN
F 3 "" H 6475 2800 50  0000 C CNN
	1    6475 2800
	1    0    0    -1  
$EndComp
$Comp
L Device:C C232
U 1 1 5CCDFF2B
P 5150 4950
AR Path="/59140D2B/5CCDFF2B" Ref="C232"  Part="1" 
AR Path="/5E0256B5/5CCDFF2B" Ref="C332"  Part="1" 
AR Path="/5E108C88/5CCDFF2B" Ref="C432"  Part="1" 
AR Path="/5E130590/5CCDFF2B" Ref="C532"  Part="1" 
AR Path="/5E1C420C/5CCDFF2B" Ref="C632"  Part="1" 
F 0 "C232" H 5100 5050 50  0000 L CNN
F 1 "100n" H 5175 4850 50  0000 L CNN
F 2 "Capacitor_SMD:C_0402_1005Metric" H 5188 4800 50  0001 C CNN
F 3 "" H 5150 4950 50  0000 C CNN
	1    5150 4950
	1    0    0    -1  
$EndComp
$Comp
L Device:C C235
U 1 1 5CCDFF2C
P 5550 4950
AR Path="/59140D2B/5CCDFF2C" Ref="C235"  Part="1" 
AR Path="/5E0256B5/5CCDFF2C" Ref="C335"  Part="1" 
AR Path="/5E108C88/5CCDFF2C" Ref="C435"  Part="1" 
AR Path="/5E130590/5CCDFF2C" Ref="C535"  Part="1" 
AR Path="/5E1C420C/5CCDFF2C" Ref="C635"  Part="1" 
F 0 "C235" H 5500 5050 50  0000 L CNN
F 1 "100n" H 5575 4850 50  0000 L CNN
F 2 "Capacitor_SMD:C_0402_1005Metric" H 5588 4800 50  0001 C CNN
F 3 "" H 5550 4950 50  0000 C CNN
	1    5550 4950
	1    0    0    -1  
$EndComp
$Comp
L Device:C C217
U 1 1 5B4EAC69
P 2275 3600
AR Path="/59140D2B/5B4EAC69" Ref="C217"  Part="1" 
AR Path="/5E0256B5/5B4EAC69" Ref="C317"  Part="1" 
AR Path="/5E108C88/5B4EAC69" Ref="C417"  Part="1" 
AR Path="/5E130590/5B4EAC69" Ref="C517"  Part="1" 
AR Path="/5E1C420C/5B4EAC69" Ref="C617"  Part="1" 
F 0 "C217" H 2225 3700 50  0000 L CNN
F 1 "100n" H 2300 3500 50  0000 L CNN
F 2 "Capacitor_SMD:C_0402_1005Metric" H 2313 3450 50  0001 C CNN
F 3 "" H 2275 3600 50  0000 C CNN
	1    2275 3600
	1    0    0    -1  
$EndComp
$Comp
L Device:C C206
U 1 1 5CCDFF2E
P 1675 3600
AR Path="/59140D2B/5CCDFF2E" Ref="C206"  Part="1" 
AR Path="/5E0256B5/5CCDFF2E" Ref="C306"  Part="1" 
AR Path="/5E108C88/5CCDFF2E" Ref="C406"  Part="1" 
AR Path="/5E130590/5CCDFF2E" Ref="C506"  Part="1" 
AR Path="/5E1C420C/5CCDFF2E" Ref="C606"  Part="1" 
F 0 "C206" H 1625 3700 50  0000 L CNN
F 1 "100n" H 1700 3500 50  0000 L CNN
F 2 "Capacitor_SMD:C_0402_1005Metric" H 1713 3450 50  0001 C CNN
F 3 "" H 1675 3600 50  0000 C CNN
	1    1675 3600
	1    0    0    -1  
$EndComp
$Comp
L Device:C C218
U 1 1 5B4EBD59
P 2950 4950
AR Path="/59140D2B/5B4EBD59" Ref="C218"  Part="1" 
AR Path="/5E0256B5/5B4EBD59" Ref="C318"  Part="1" 
AR Path="/5E108C88/5B4EBD59" Ref="C418"  Part="1" 
AR Path="/5E130590/5B4EBD59" Ref="C518"  Part="1" 
AR Path="/5E1C420C/5B4EBD59" Ref="C618"  Part="1" 
F 0 "C218" H 2900 5050 50  0000 L CNN
F 1 "100n" H 2975 4850 50  0000 L CNN
F 2 "Capacitor_SMD:C_0402_1005Metric" H 2988 4800 50  0001 C CNN
F 3 "" H 2950 4950 50  0000 C CNN
	1    2950 4950
	1    0    0    -1  
$EndComp
$Comp
L Device:C C224
U 1 1 5B4EC392
P 3800 4950
AR Path="/59140D2B/5B4EC392" Ref="C224"  Part="1" 
AR Path="/5E0256B5/5B4EC392" Ref="C324"  Part="1" 
AR Path="/5E108C88/5B4EC392" Ref="C424"  Part="1" 
AR Path="/5E130590/5B4EC392" Ref="C524"  Part="1" 
AR Path="/5E1C420C/5B4EC392" Ref="C624"  Part="1" 
F 0 "C224" H 3750 5050 50  0000 L CNN
F 1 "100n" H 3825 4850 50  0000 L CNN
F 2 "Capacitor_SMD:C_0402_1005Metric" H 3838 4800 50  0001 C CNN
F 3 "" H 3800 4950 50  0000 C CNN
	1    3800 4950
	1    0    0    -1  
$EndComp
$Comp
L Device:C C220
U 1 1 5B4ECE0C
P 3350 1050
AR Path="/59140D2B/5B4ECE0C" Ref="C220"  Part="1" 
AR Path="/5E0256B5/5B4ECE0C" Ref="C320"  Part="1" 
AR Path="/5E108C88/5B4ECE0C" Ref="C420"  Part="1" 
AR Path="/5E130590/5B4ECE0C" Ref="C520"  Part="1" 
AR Path="/5E1C420C/5B4ECE0C" Ref="C620"  Part="1" 
F 0 "C220" H 3300 1150 50  0000 L CNN
F 1 "100n" H 3375 950 50  0000 L CNN
F 2 "Capacitor_SMD:C_0402_1005Metric" H 3388 900 50  0001 C CNN
F 3 "" H 3350 1050 50  0000 C CNN
	1    3350 1050
	1    0    0    -1  
$EndComp
$Comp
L Device:C C225
U 1 1 5B4ED2EF
P 3950 1050
AR Path="/59140D2B/5B4ED2EF" Ref="C225"  Part="1" 
AR Path="/5E0256B5/5B4ED2EF" Ref="C325"  Part="1" 
AR Path="/5E108C88/5B4ED2EF" Ref="C425"  Part="1" 
AR Path="/5E130590/5B4ED2EF" Ref="C525"  Part="1" 
AR Path="/5E1C420C/5B4ED2EF" Ref="C625"  Part="1" 
F 0 "C225" H 3900 1150 50  0000 L CNN
F 1 "100n" H 3975 950 50  0000 L CNN
F 2 "Capacitor_SMD:C_0402_1005Metric" H 3988 900 50  0001 C CNN
F 3 "" H 3950 1050 50  0000 C CNN
	1    3950 1050
	1    0    0    -1  
$EndComp
$Comp
L Device:C C227
U 1 1 5B4ED848
P 4450 1050
AR Path="/59140D2B/5B4ED848" Ref="C227"  Part="1" 
AR Path="/5E0256B5/5B4ED848" Ref="C327"  Part="1" 
AR Path="/5E108C88/5B4ED848" Ref="C427"  Part="1" 
AR Path="/5E130590/5B4ED848" Ref="C527"  Part="1" 
AR Path="/5E1C420C/5B4ED848" Ref="C627"  Part="1" 
F 0 "C227" H 4400 1150 50  0000 L CNN
F 1 "100n" H 4475 950 50  0000 L CNN
F 2 "Capacitor_SMD:C_0402_1005Metric" H 4488 900 50  0001 C CNN
F 3 "" H 4450 1050 50  0000 C CNN
	1    4450 1050
	1    0    0    -1  
$EndComp
$Comp
L Device:C C229
U 1 1 5B4EDD39
P 4950 1050
AR Path="/59140D2B/5B4EDD39" Ref="C229"  Part="1" 
AR Path="/5E0256B5/5B4EDD39" Ref="C329"  Part="1" 
AR Path="/5E108C88/5B4EDD39" Ref="C429"  Part="1" 
AR Path="/5E130590/5B4EDD39" Ref="C529"  Part="1" 
AR Path="/5E1C420C/5B4EDD39" Ref="C629"  Part="1" 
F 0 "C229" H 4900 1150 50  0000 L CNN
F 1 "100n" H 4975 950 50  0000 L CNN
F 2 "Capacitor_SMD:C_0402_1005Metric" H 4988 900 50  0001 C CNN
F 3 "" H 4950 1050 50  0000 C CNN
	1    4950 1050
	1    0    0    -1  
$EndComp
$Comp
L Device:C C233
U 1 1 5CCDFF36
P 5350 1050
AR Path="/59140D2B/5CCDFF36" Ref="C233"  Part="1" 
AR Path="/5E0256B5/5CCDFF36" Ref="C333"  Part="1" 
AR Path="/5E108C88/5CCDFF36" Ref="C433"  Part="1" 
AR Path="/5E130590/5CCDFF36" Ref="C533"  Part="1" 
AR Path="/5E1C420C/5CCDFF36" Ref="C633"  Part="1" 
F 0 "C233" H 5300 1150 50  0000 L CNN
F 1 "10u" H 5375 950 50  0000 L CNN
F 2 "Capacitor_SMD:C_0402_1005Metric" H 5388 900 50  0001 C CNN
F 3 "" H 5350 1050 50  0000 C CNN
	1    5350 1050
	1    0    0    -1  
$EndComp
$Comp
L Device:C C212
U 1 1 5B4EF54A
P 1950 2000
AR Path="/59140D2B/5B4EF54A" Ref="C212"  Part="1" 
AR Path="/5E0256B5/5B4EF54A" Ref="C312"  Part="1" 
AR Path="/5E108C88/5B4EF54A" Ref="C412"  Part="1" 
AR Path="/5E130590/5B4EF54A" Ref="C512"  Part="1" 
AR Path="/5E1C420C/5B4EF54A" Ref="C612"  Part="1" 
F 0 "C212" H 1900 2100 50  0000 L CNN
F 1 "100n" H 1975 1900 50  0000 L CNN
F 2 "Capacitor_SMD:C_0402_1005Metric" H 1988 1850 50  0001 C CNN
F 3 "" H 1950 2000 50  0000 C CNN
	1    1950 2000
	1    0    0    -1  
$EndComp
$Comp
L power:PWR_FLAG #FLG0201
U 1 1 5B5305A5
P 2150 2150
AR Path="/59140D2B/5B5305A5" Ref="#FLG0201"  Part="1" 
AR Path="/5E0256B5/5B5305A5" Ref="#FLG0301"  Part="1" 
AR Path="/5E108C88/5B5305A5" Ref="#FLG0401"  Part="1" 
AR Path="/5E130590/5B5305A5" Ref="#FLG0501"  Part="1" 
AR Path="/5E1C420C/5B5305A5" Ref="#FLG0601"  Part="1" 
F 0 "#FLG0201" H 2150 2225 50  0001 C CNN
F 1 "PWR_FLAG" H 2150 2300 50  0000 C CNN
F 2 "" H 2150 2150 50  0001 C CNN
F 3 "" H 2150 2150 50  0001 C CNN
	1    2150 2150
	-1   0    0    1   
$EndComp
$Comp
L Device:C C213
U 1 1 5B4D6C4B
P 2075 2900
AR Path="/59140D2B/5B4D6C4B" Ref="C213"  Part="1" 
AR Path="/5E0256B5/5B4D6C4B" Ref="C313"  Part="1" 
AR Path="/5E108C88/5B4D6C4B" Ref="C413"  Part="1" 
AR Path="/5E130590/5B4D6C4B" Ref="C513"  Part="1" 
AR Path="/5E1C420C/5B4D6C4B" Ref="C613"  Part="1" 
F 0 "C213" H 2025 3000 50  0000 L CNN
F 1 "10u" H 2100 2800 50  0000 L CNN
F 2 "Capacitor_SMD:C_0402_1005Metric" H 2113 2750 50  0001 C CNN
F 3 "" H 2075 2900 50  0000 C CNN
	1    2075 2900
	1    0    0    -1  
$EndComp
Wire Wire Line
	1750 5275 1750 5325
Connection ~ 1450 5275
Wire Wire Line
	1200 5275 1450 5275
Connection ~ 1450 4975
Connection ~ 1200 4975
Wire Wire Line
	800  4975 1200 4975
Wire Wire Line
	7900 2350 8450 2350
Wire Wire Line
	7900 2625 7900 2350
Wire Wire Line
	7825 2300 8450 2300
Wire Wire Line
	7825 2325 7825 2300
Wire Wire Line
	2550 1950 2600 1950
Wire Wire Line
	2550 1450 2550 1775
Wire Wire Line
	2950 4600 2950 4650
Wire Wire Line
	5750 4650 5350 4650
Connection ~ 2550 4650
Wire Wire Line
	3250 4650 3250 4600
Connection ~ 2950 4650
Wire Wire Line
	5350 4650 5350 4600
Connection ~ 3250 4650
Wire Wire Line
	5250 4650 5250 4600
Connection ~ 5250 4650
Wire Wire Line
	5150 4600 5150 4650
Connection ~ 5150 4650
Wire Wire Line
	2600 3550 2550 3550
Connection ~ 2550 3550
Wire Wire Line
	2600 2050 2550 2050
Connection ~ 2550 2050
Wire Wire Line
	2600 2450 2550 2450
Connection ~ 2550 2450
Connection ~ 2550 3050
Connection ~ 2550 3150
Wire Wire Line
	5350 1450 5350 1500
Wire Wire Line
	2550 1450 2950 1450
Connection ~ 2550 1950
Wire Wire Line
	2950 1500 2950 1450
Connection ~ 2950 1450
Wire Wire Line
	3050 1500 3050 1450
Connection ~ 3050 1450
Wire Wire Line
	3150 1500 3150 1450
Connection ~ 3150 1450
Connection ~ 3450 1450
Wire Wire Line
	3750 1200 3750 1450
Connection ~ 3750 1450
Wire Wire Line
	3850 1500 3850 1450
Connection ~ 3850 1450
Wire Wire Line
	3950 1500 3950 1450
Connection ~ 3950 1450
Connection ~ 4250 1450
Wire Wire Line
	4350 1500 4350 1450
Connection ~ 4350 1450
Wire Wire Line
	4450 1500 4450 1450
Connection ~ 4450 1450
Wire Wire Line
	4750 1200 4750 1450
Connection ~ 4750 1450
Wire Wire Line
	4850 1500 4850 1450
Connection ~ 4850 1450
Wire Wire Line
	5750 1450 5750 1850
Connection ~ 5350 4650
Connection ~ 5350 1450
Wire Wire Line
	5700 3450 5750 3450
Connection ~ 5750 3450
Wire Wire Line
	5700 3050 5750 3050
Connection ~ 5750 3050
Wire Wire Line
	5700 2950 5750 2950
Connection ~ 5750 2950
Wire Wire Line
	5700 2450 5750 2450
Connection ~ 5750 2450
Wire Wire Line
	5700 2350 5750 2350
Connection ~ 5750 2350
Wire Wire Line
	5700 1850 5750 1850
Connection ~ 5750 1850
Wire Wire Line
	9850 1450 9950 1450
Wire Wire Line
	9850 1500 9950 1500
Wire Wire Line
	8350 1500 8450 1500
Wire Wire Line
	8325 1550 8450 1550
Wire Wire Line
	7900 2150 8450 2150
Wire Wire Line
	7900 1875 7900 2150
Wire Wire Line
	6675 1975 6675 2175
Wire Wire Line
	5250 1500 5250 1250
Wire Wire Line
	4550 5775 6200 5775
Wire Wire Line
	4450 5875 6200 5875
Wire Wire Line
	6200 3550 5700 3550
Wire Wire Line
	4650 4600 4650 5650
Wire Wire Line
	4650 5650 6200 5650
Wire Wire Line
	4550 4600 4550 5200
Wire Wire Line
	4450 4600 4450 5275
Wire Wire Line
	5050 900  5050 1400
Connection ~ 4950 1400
Wire Wire Line
	4650 900  4650 1400
Connection ~ 4650 1400
Wire Wire Line
	4550 1400 4550 1500
Connection ~ 4550 1400
Wire Wire Line
	4150 900  4150 1400
Connection ~ 4150 1400
Wire Wire Line
	4050 1400 4050 1500
Connection ~ 4050 1400
Wire Wire Line
	3650 900  3650 1400
Connection ~ 3650 1400
Wire Wire Line
	3550 1400 3550 1500
Connection ~ 3550 1400
Connection ~ 3250 1400
Wire Wire Line
	3650 900  3750 900 
Wire Wire Line
	4150 900  4250 900 
Wire Wire Line
	4650 900  4750 900 
Wire Wire Line
	3250 900  3250 1400
Wire Wire Line
	5700 2250 6025 2250
Wire Wire Line
	5050 900  5150 900 
Connection ~ 5050 1400
Wire Wire Line
	5150 1200 5150 1450
Connection ~ 5150 1450
Wire Wire Line
	4950 1400 4950 1500
Wire Wire Line
	4250 1200 4250 1450
Wire Wire Line
	5700 2050 5850 2050
Wire Wire Line
	5700 1950 5850 1950
Connection ~ 5850 2050
Wire Wire Line
	5850 2550 5700 2550
Wire Wire Line
	5700 2650 5850 2650
Connection ~ 5850 2550
Connection ~ 5850 2650
Wire Wire Line
	5700 2850 6025 2850
Wire Wire Line
	5700 2750 5925 2750
Wire Wire Line
	2350 4750 2950 4750
Wire Wire Line
	3150 4600 3150 4750
Wire Wire Line
	5050 4750 5050 4600
Connection ~ 3150 4750
Connection ~ 5050 4750
Wire Wire Line
	3050 4600 3050 5975
Wire Wire Line
	3050 5975 6200 5975
Wire Wire Line
	2350 4750 2350 4600
Connection ~ 6275 2050
Connection ~ 6275 2350
Connection ~ 6275 2650
Connection ~ 6275 2950
Wire Wire Line
	4950 5100 4950 5125
Wire Wire Line
	5150 5100 5150 5125
Wire Wire Line
	5150 5125 4950 5125
Connection ~ 4950 5125
Wire Wire Line
	5350 4750 5350 4800
Wire Wire Line
	5350 5100 5350 5125
Wire Wire Line
	5550 4750 5550 4800
Connection ~ 5350 4750
Wire Wire Line
	5550 5100 5550 5125
Wire Wire Line
	5550 5125 5350 5125
Connection ~ 5350 5125
Wire Wire Line
	2950 4800 2950 4750
Connection ~ 2950 4750
Wire Wire Line
	2950 5100 3150 5100
Connection ~ 3150 5100
Wire Wire Line
	3800 5100 3550 5100
Connection ~ 3550 5100
Connection ~ 3750 900 
Wire Wire Line
	3950 1200 3750 1200
Connection ~ 4250 900 
Wire Wire Line
	4450 1200 4250 1200
Connection ~ 4750 900 
Wire Wire Line
	4750 1200 4950 1200
Connection ~ 5150 900 
Wire Wire Line
	5350 1200 5150 1200
Wire Wire Line
	2550 3050 2600 3050
Wire Wire Line
	2500 1400 2500 1850
Wire Wire Line
	2500 3650 2600 3650
Connection ~ 2500 1400
Wire Wire Line
	2075 3450 2275 3450
Connection ~ 2500 3450
Wire Wire Line
	1675 3350 1875 3350
Connection ~ 2500 3350
Wire Wire Line
	2600 3250 2500 3250
Connection ~ 2500 3250
Wire Wire Line
	2350 1400 2500 1400
Wire Wire Line
	2350 1350 2350 1400
Wire Wire Line
	1750 2350 1950 2350
Connection ~ 2500 2350
Wire Wire Line
	2600 2950 2550 2950
Connection ~ 2550 2950
Wire Wire Line
	2600 2850 2500 2850
Connection ~ 2500 2850
Wire Wire Line
	2500 1850 2400 1850
Connection ~ 2500 1850
Wire Wire Line
	2150 2150 2400 2150
Connection ~ 2400 2150
Wire Wire Line
	2400 2250 2600 2250
Wire Wire Line
	2400 2150 2400 2250
Wire Wire Line
	2150 1775 2150 1850
Wire Wire Line
	1750 1775 1950 1775
Connection ~ 2550 1775
Wire Wire Line
	2075 2750 2300 2750
Connection ~ 2300 2750
Wire Wire Line
	1950 1850 1950 1775
Connection ~ 2150 1775
Wire Wire Line
	1750 1850 1750 1775
Connection ~ 1950 1775
Wire Wire Line
	1750 2150 1750 2350
Wire Wire Line
	1950 2150 1950 2350
Connection ~ 1950 2350
Wire Wire Line
	2600 2650 1875 2650
Wire Wire Line
	1875 2650 1875 2750
Connection ~ 2075 3050
Wire Wire Line
	2600 2550 1300 2550
Wire Wire Line
	2300 3150 2550 3150
Wire Wire Line
	1675 3750 1875 3750
Connection ~ 2550 3750
Wire Wire Line
	1675 3450 1675 3350
Wire Wire Line
	1875 3450 1875 3350
Connection ~ 1875 3350
Connection ~ 2275 3450
Connection ~ 1875 3750
Connection ~ 2075 3750
Connection ~ 2275 3750
Wire Wire Line
	5700 3350 5850 3350
Wire Wire Line
	5850 3350 5850 4750
Connection ~ 5550 4750
Wire Wire Line
	5700 3250 6200 3250
Connection ~ 2150 2150
Connection ~ 2400 2750
Wire Wire Line
	2400 3050 2500 3050
Connection ~ 2500 3050
Wire Wire Line
	2300 3050 2300 3150
Wire Wire Line
	1875 3050 2075 3050
Connection ~ 2300 3050
$Comp
L Device:C C215
U 1 1 5CCDFF35
P 2075 4400
AR Path="/59140D2B/5CCDFF35" Ref="C215"  Part="1" 
AR Path="/5E0256B5/5CCDFF35" Ref="C315"  Part="1" 
AR Path="/5E108C88/5CCDFF35" Ref="C415"  Part="1" 
AR Path="/5E130590/5CCDFF35" Ref="C515"  Part="1" 
AR Path="/5E1C420C/5CCDFF35" Ref="C615"  Part="1" 
F 0 "C215" H 2025 4500 50  0000 L CNN
F 1 "100n" H 2100 4300 50  0000 L CNN
F 2 "Capacitor_SMD:C_0402_1005Metric" H 2113 4250 50  0001 C CNN
F 3 "" H 2075 4400 50  0000 C CNN
	1    2075 4400
	1    0    0    -1  
$EndComp
$Comp
L power:GNDA #PWR0208
U 1 1 5B4EE512
P 2075 4550
AR Path="/59140D2B/5B4EE512" Ref="#PWR0208"  Part="1" 
AR Path="/5E0256B5/5B4EE512" Ref="#PWR0308"  Part="1" 
AR Path="/5E108C88/5B4EE512" Ref="#PWR0408"  Part="1" 
AR Path="/5E130590/5B4EE512" Ref="#PWR0508"  Part="1" 
AR Path="/5E1C420C/5B4EE512" Ref="#PWR0608"  Part="1" 
F 0 "#PWR0208" H 2075 4300 50  0001 C CNN
F 1 "GNDA" H 2075 4400 50  0000 C CNN
F 2 "" H 2075 4550 50  0000 C CNN
F 3 "" H 2075 4550 50  0000 C CNN
	1    2075 4550
	1    0    0    -1  
$EndComp
Wire Wire Line
	2600 4250 2075 4250
$Comp
L Device:C C211
U 1 1 5B4EE9E0
P 1875 4400
AR Path="/59140D2B/5B4EE9E0" Ref="C211"  Part="1" 
AR Path="/5E0256B5/5B4EE9E0" Ref="C311"  Part="1" 
AR Path="/5E108C88/5B4EE9E0" Ref="C411"  Part="1" 
AR Path="/5E130590/5B4EE9E0" Ref="C511"  Part="1" 
AR Path="/5E1C420C/5B4EE9E0" Ref="C611"  Part="1" 
F 0 "C211" H 1825 4500 50  0000 L CNN
F 1 "100n" H 1900 4300 50  0000 L CNN
F 2 "Capacitor_SMD:C_0402_1005Metric" H 1913 4250 50  0001 C CNN
F 3 "" H 1875 4400 50  0000 C CNN
	1    1875 4400
	1    0    0    -1  
$EndComp
Wire Wire Line
	2600 4150 1875 4150
Wire Wire Line
	1875 4150 1875 4250
$Comp
L power:GNDA #PWR0207
U 1 1 5B4EED10
P 1875 4550
AR Path="/59140D2B/5B4EED10" Ref="#PWR0207"  Part="1" 
AR Path="/5E0256B5/5B4EED10" Ref="#PWR0307"  Part="1" 
AR Path="/5E108C88/5B4EED10" Ref="#PWR0407"  Part="1" 
AR Path="/5E130590/5B4EED10" Ref="#PWR0507"  Part="1" 
AR Path="/5E1C420C/5B4EED10" Ref="#PWR0607"  Part="1" 
F 0 "#PWR0207" H 1875 4300 50  0001 C CNN
F 1 "GNDA" H 1875 4400 50  0000 C CNN
F 2 "" H 1875 4550 50  0000 C CNN
F 3 "" H 1875 4550 50  0000 C CNN
	1    1875 4550
	1    0    0    -1  
$EndComp
$Comp
L Device:C C236
U 1 1 5B4FDCBE
P 6150 1400
AR Path="/59140D2B/5B4FDCBE" Ref="C236"  Part="1" 
AR Path="/5E0256B5/5B4FDCBE" Ref="C336"  Part="1" 
AR Path="/5E108C88/5B4FDCBE" Ref="C436"  Part="1" 
AR Path="/5E130590/5B4FDCBE" Ref="C536"  Part="1" 
AR Path="/5E1C420C/5B4FDCBE" Ref="C636"  Part="1" 
F 0 "C236" H 6100 1500 50  0000 L CNN
F 1 "10u" H 6175 1300 50  0000 L CNN
F 2 "Capacitor_SMD:C_0402_1005Metric" H 6188 1250 50  0001 C CNN
F 3 "" H 6150 1400 50  0000 C CNN
	1    6150 1400
	1    0    0    -1  
$EndComp
$Comp
L power:GNDA #PWR0216
U 1 1 5B4FDE35
P 6150 1550
AR Path="/59140D2B/5B4FDE35" Ref="#PWR0216"  Part="1" 
AR Path="/5E0256B5/5B4FDE35" Ref="#PWR0316"  Part="1" 
AR Path="/5E108C88/5B4FDE35" Ref="#PWR0416"  Part="1" 
AR Path="/5E130590/5B4FDE35" Ref="#PWR0516"  Part="1" 
AR Path="/5E1C420C/5B4FDE35" Ref="#PWR0616"  Part="1" 
F 0 "#PWR0216" H 6150 1300 50  0001 C CNN
F 1 "GNDA" H 6150 1400 50  0000 C CNN
F 2 "" H 6150 1550 50  0000 C CNN
F 3 "" H 6150 1550 50  0000 C CNN
	1    6150 1550
	1    0    0    -1  
$EndComp
$Comp
L Device:C C207
U 1 1 5CCDFF3C
P 1675 4400
AR Path="/59140D2B/5CCDFF3C" Ref="C207"  Part="1" 
AR Path="/5E0256B5/5CCDFF3C" Ref="C307"  Part="1" 
AR Path="/5E108C88/5CCDFF3C" Ref="C407"  Part="1" 
AR Path="/5E130590/5CCDFF3C" Ref="C507"  Part="1" 
AR Path="/5E1C420C/5CCDFF3C" Ref="C607"  Part="1" 
F 0 "C207" H 1625 4500 50  0000 L CNN
F 1 "100n" H 1700 4300 50  0000 L CNN
F 2 "Capacitor_SMD:C_0402_1005Metric" H 1713 4250 50  0001 C CNN
F 3 "" H 1675 4400 50  0000 C CNN
	1    1675 4400
	1    0    0    -1  
$EndComp
$Comp
L Device:C C205
U 1 1 5CCDFF3D
P 1475 4400
AR Path="/59140D2B/5CCDFF3D" Ref="C205"  Part="1" 
AR Path="/5E0256B5/5CCDFF3D" Ref="C305"  Part="1" 
AR Path="/5E108C88/5CCDFF3D" Ref="C405"  Part="1" 
AR Path="/5E130590/5CCDFF3D" Ref="C505"  Part="1" 
AR Path="/5E1C420C/5CCDFF3D" Ref="C605"  Part="1" 
F 0 "C205" H 1425 4500 50  0000 L CNN
F 1 "100n" H 1500 4300 50  0000 L CNN
F 2 "Capacitor_SMD:C_0402_1005Metric" H 1513 4250 50  0001 C CNN
F 3 "" H 1475 4400 50  0000 C CNN
	1    1475 4400
	1    0    0    -1  
$EndComp
$Comp
L power:GNDA #PWR0205
U 1 1 5CCDFF3E
P 1675 4550
AR Path="/59140D2B/5CCDFF3E" Ref="#PWR0205"  Part="1" 
AR Path="/5E0256B5/5CCDFF3E" Ref="#PWR0305"  Part="1" 
AR Path="/5E108C88/5CCDFF3E" Ref="#PWR0405"  Part="1" 
AR Path="/5E130590/5CCDFF3E" Ref="#PWR0505"  Part="1" 
AR Path="/5E1C420C/5CCDFF3E" Ref="#PWR0605"  Part="1" 
F 0 "#PWR0205" H 1675 4300 50  0001 C CNN
F 1 "GNDA" H 1675 4400 50  0000 C CNN
F 2 "" H 1675 4550 50  0000 C CNN
F 3 "" H 1675 4550 50  0000 C CNN
	1    1675 4550
	1    0    0    -1  
$EndComp
$Comp
L power:GNDA #PWR0204
U 1 1 5B4F5B1E
P 1475 4550
AR Path="/59140D2B/5B4F5B1E" Ref="#PWR0204"  Part="1" 
AR Path="/5E0256B5/5B4F5B1E" Ref="#PWR0304"  Part="1" 
AR Path="/5E108C88/5B4F5B1E" Ref="#PWR0404"  Part="1" 
AR Path="/5E130590/5B4F5B1E" Ref="#PWR0504"  Part="1" 
AR Path="/5E1C420C/5B4F5B1E" Ref="#PWR0604"  Part="1" 
F 0 "#PWR0204" H 1475 4300 50  0001 C CNN
F 1 "GNDA" H 1475 4400 50  0000 C CNN
F 2 "" H 1475 4550 50  0000 C CNN
F 3 "" H 1475 4550 50  0000 C CNN
	1    1475 4550
	1    0    0    -1  
$EndComp
Wire Wire Line
	1475 3950 2600 3950
$Comp
L Device:R R203
U 1 1 5CCDFF40
P 1325 4225
AR Path="/59140D2B/5CCDFF40" Ref="R203"  Part="1" 
AR Path="/5E0256B5/5CCDFF40" Ref="R303"  Part="1" 
AR Path="/5E108C88/5CCDFF40" Ref="R403"  Part="1" 
AR Path="/5E130590/5CCDFF40" Ref="R503"  Part="1" 
AR Path="/5E1C420C/5CCDFF40" Ref="R603"  Part="1" 
F 0 "R203" V 1405 4225 50  0000 C CNN
F 1 "10k" V 1325 4225 50  0000 C CNN
F 2 "Resistor_SMD:R_0402_1005Metric" V 1255 4225 50  0001 C CNN
F 3 "" H 1325 4225 50  0000 C CNN
	1    1325 4225
	-1   0    0    1   
$EndComp
Connection ~ 1325 4050
$Comp
L MDJ_compo:V1P2A #PWR0201
U 1 1 5B4F69CE
P 900 4375
AR Path="/59140D2B/5B4F69CE" Ref="#PWR0201"  Part="1" 
AR Path="/5E0256B5/5B4F69CE" Ref="#PWR0301"  Part="1" 
AR Path="/5E108C88/5B4F69CE" Ref="#PWR0401"  Part="1" 
AR Path="/5E130590/5B4F69CE" Ref="#PWR0501"  Part="1" 
AR Path="/5E1C420C/5B4F69CE" Ref="#PWR0601"  Part="1" 
F 0 "#PWR0201" H 900 4225 50  0001 C CNN
F 1 "V1P2A" H 900 4515 50  0000 C CNN
F 2 "" H 900 4375 50  0000 C CNN
F 3 "" H 900 4375 50  0000 C CNN
	1    900  4375
	-1   0    0    1   
$EndComp
$Comp
L Device:C C202
U 1 1 5B4F6AC6
P 1125 4225
AR Path="/59140D2B/5B4F6AC6" Ref="C202"  Part="1" 
AR Path="/5E0256B5/5B4F6AC6" Ref="C302"  Part="1" 
AR Path="/5E108C88/5B4F6AC6" Ref="C402"  Part="1" 
AR Path="/5E130590/5B4F6AC6" Ref="C502"  Part="1" 
AR Path="/5E1C420C/5B4F6AC6" Ref="C602"  Part="1" 
F 0 "C202" H 1075 4325 50  0000 L CNN
F 1 "100n" H 1150 4125 50  0000 L CNN
F 2 "Capacitor_SMD:C_0402_1005Metric" H 1163 4075 50  0001 C CNN
F 3 "" H 1125 4225 50  0000 C CNN
	1    1125 4225
	1    0    0    -1  
$EndComp
Wire Wire Line
	1125 4050 1125 4075
$Comp
L power:GNDA #PWR0203
U 1 1 5B4F6E32
P 1325 4375
AR Path="/59140D2B/5B4F6E32" Ref="#PWR0203"  Part="1" 
AR Path="/5E0256B5/5B4F6E32" Ref="#PWR0303"  Part="1" 
AR Path="/5E108C88/5B4F6E32" Ref="#PWR0403"  Part="1" 
AR Path="/5E130590/5B4F6E32" Ref="#PWR0503"  Part="1" 
AR Path="/5E1C420C/5B4F6E32" Ref="#PWR0603"  Part="1" 
F 0 "#PWR0203" H 1325 4125 50  0001 C CNN
F 1 "GNDA" H 1325 4225 50  0000 C CNN
F 2 "" H 1325 4375 50  0000 C CNN
F 3 "" H 1325 4375 50  0000 C CNN
	1    1325 4375
	1    0    0    -1  
$EndComp
$Comp
L power:GNDA #PWR0202
U 1 1 5B4F6F2D
P 1125 4375
AR Path="/59140D2B/5B4F6F2D" Ref="#PWR0202"  Part="1" 
AR Path="/5E0256B5/5B4F6F2D" Ref="#PWR0302"  Part="1" 
AR Path="/5E108C88/5B4F6F2D" Ref="#PWR0402"  Part="1" 
AR Path="/5E130590/5B4F6F2D" Ref="#PWR0502"  Part="1" 
AR Path="/5E1C420C/5B4F6F2D" Ref="#PWR0602"  Part="1" 
F 0 "#PWR0202" H 1125 4125 50  0001 C CNN
F 1 "GNDA" H 1125 4225 50  0000 C CNN
F 2 "" H 1125 4375 50  0000 C CNN
F 3 "" H 1125 4375 50  0000 C CNN
	1    1125 4375
	1    0    0    -1  
$EndComp
Wire Wire Line
	1325 4050 1325 4075
Wire Wire Line
	900  4075 900  4050
Connection ~ 1125 4050
Wire Wire Line
	2600 3850 1675 3850
Wire Wire Line
	1675 3850 1675 4250
Wire Wire Line
	3450 1200 3450 1450
Wire Wire Line
	3250 900  3350 900 
Connection ~ 3350 900 
Wire Wire Line
	3550 1200 3450 1200
Wire Wire Line
	3350 1500 3350 1400
Connection ~ 3350 1400
Connection ~ 3450 1200
Wire Wire Line
	1450 5275 1750 5275
Wire Wire Line
	1450 4975 1750 4975
Wire Wire Line
	1200 4975 1450 4975
Wire Wire Line
	2550 4650 2550 4850
Wire Wire Line
	2950 4650 2550 4650
Wire Wire Line
	3250 4650 2950 4650
Wire Wire Line
	5250 4650 5150 4650
Wire Wire Line
	5150 4650 3250 4650
Wire Wire Line
	2550 3550 2550 3750
Wire Wire Line
	2550 2050 2550 2450
Wire Wire Line
	2550 2450 2550 2950
Wire Wire Line
	2550 3050 2550 3150
Wire Wire Line
	2550 3150 2600 3150
Wire Wire Line
	2550 3150 2550 3550
Wire Wire Line
	2550 1950 2550 2050
Wire Wire Line
	2950 1450 3050 1450
Wire Wire Line
	3050 1450 3150 1450
Wire Wire Line
	3150 1450 3450 1450
Wire Wire Line
	3450 1450 3450 1500
Wire Wire Line
	3450 1450 3750 1450
Wire Wire Line
	3750 1450 3750 1500
Wire Wire Line
	3750 1450 3850 1450
Wire Wire Line
	3850 1450 3950 1450
Wire Wire Line
	3950 1450 4250 1450
Wire Wire Line
	4250 1450 4250 1500
Wire Wire Line
	4250 1450 4350 1450
Wire Wire Line
	4350 1450 4450 1450
Wire Wire Line
	4450 1450 4750 1450
Wire Wire Line
	4750 1450 4750 1500
Wire Wire Line
	4750 1450 4850 1450
Wire Wire Line
	4850 1450 5150 1450
Wire Wire Line
	5350 4650 5250 4650
Wire Wire Line
	5350 1450 5750 1450
Wire Wire Line
	5750 3050 5750 3450
Wire Wire Line
	5750 2950 5750 3050
Wire Wire Line
	5750 2950 6275 2950
Wire Wire Line
	5750 2450 5750 2950
Wire Wire Line
	5750 2350 5750 2450
Wire Wire Line
	5750 2350 6275 2350
Wire Wire Line
	5750 1850 5750 2350
Wire Wire Line
	4950 1400 5050 1400
Wire Wire Line
	4650 1400 4650 1500
Wire Wire Line
	4650 1400 4950 1400
Wire Wire Line
	4550 1400 4650 1400
Wire Wire Line
	4150 1400 4150 1500
Wire Wire Line
	4150 1400 4550 1400
Wire Wire Line
	4050 1400 4150 1400
Wire Wire Line
	3650 1400 3650 1500
Wire Wire Line
	3650 1400 4050 1400
Wire Wire Line
	3550 1400 3650 1400
Wire Wire Line
	3250 1400 3250 1500
Wire Wire Line
	3250 1400 3350 1400
Wire Wire Line
	5050 1400 5050 1500
Wire Wire Line
	5150 1450 5350 1450
Wire Wire Line
	5850 1950 5850 2050
Wire Wire Line
	5850 2050 6275 2050
Wire Wire Line
	5850 2050 5850 2550
Wire Wire Line
	5850 2550 5850 2650
Wire Wire Line
	5850 2650 6275 2650
Wire Wire Line
	3150 4750 3550 4750
Wire Wire Line
	3150 4750 3150 4800
Wire Wire Line
	5050 4750 5150 4750
Wire Wire Line
	6275 2050 6475 2050
Wire Wire Line
	6275 2350 6475 2350
Wire Wire Line
	6275 2650 6475 2650
Wire Wire Line
	6275 2950 6475 2950
Wire Wire Line
	4950 5125 4950 5150
Wire Wire Line
	5350 4750 5550 4750
Wire Wire Line
	5350 5125 5350 5150
Wire Wire Line
	2950 4750 3150 4750
Wire Wire Line
	3750 900  3950 900 
Wire Wire Line
	4250 900  4450 900 
Wire Wire Line
	4750 900  4950 900 
Wire Wire Line
	5150 900  5350 900 
Wire Wire Line
	2500 1400 3250 1400
Wire Wire Line
	2500 3450 2500 3650
Wire Wire Line
	2500 3450 2600 3450
Wire Wire Line
	2500 3350 2500 3450
Wire Wire Line
	2500 3350 2600 3350
Wire Wire Line
	2500 3250 2500 3350
Wire Wire Line
	2500 2350 2500 2850
Wire Wire Line
	2500 2350 2600 2350
Wire Wire Line
	2550 2950 2550 3050
Wire Wire Line
	2500 2850 2500 3050
Wire Wire Line
	2400 2150 2600 2150
Wire Wire Line
	2550 1775 2550 1950
Wire Wire Line
	2300 2750 2400 2750
Wire Wire Line
	2150 1775 2550 1775
Wire Wire Line
	1950 1775 2150 1775
Wire Wire Line
	1950 2350 2500 2350
Wire Wire Line
	2075 3050 2300 3050
Wire Wire Line
	2550 3750 2600 3750
Wire Wire Line
	2550 3750 2550 4650
Wire Wire Line
	1875 3350 2500 3350
Wire Wire Line
	2275 3450 2500 3450
Wire Wire Line
	1875 3750 2075 3750
Wire Wire Line
	2075 3750 2275 3750
Wire Wire Line
	2275 3750 2550 3750
Wire Wire Line
	5550 4750 5850 4750
Wire Wire Line
	2400 2750 2600 2750
Wire Wire Line
	2500 3050 2500 3250
Wire Wire Line
	1325 4050 2600 4050
Wire Wire Line
	1125 4050 1325 4050
Wire Wire Line
	900  4050 1125 4050
Wire Wire Line
	1475 3950 1475 4250
Wire Wire Line
	3350 900  3550 900 
Wire Wire Line
	3350 1400 3550 1400
Wire Wire Line
	3450 1200 3350 1200
Wire Wire Line
	2500 1850 2500 2350
Wire Wire Line
	5750 3450 5750 4650
$Comp
L Device:R R208
U 1 1 5CCDFF4D
P 6100 3650
AR Path="/59140D2B/5CCDFF4D" Ref="R208"  Part="1" 
AR Path="/5E0256B5/5CCDFF4D" Ref="R308"  Part="1" 
AR Path="/5E108C88/5CCDFF4D" Ref="R408"  Part="1" 
AR Path="/5E130590/5CCDFF4D" Ref="R508"  Part="1" 
AR Path="/5E1C420C/5CCDFF4D" Ref="R608"  Part="1" 
F 0 "R208" V 6075 3475 39  0000 C CNN
F 1 "1k" V 6100 3650 50  0000 C CNN
F 2 "Resistor_SMD:R_0402_1005Metric" V 6030 3650 50  0001 C CNN
F 3 "" H 6100 3650 50  0000 C CNN
	1    6100 3650
	0    1    1    0   
$EndComp
$Comp
L Device:R R209
U 1 1 5B6B8A80
P 6100 3750
AR Path="/59140D2B/5B6B8A80" Ref="R209"  Part="1" 
AR Path="/5E0256B5/5B6B8A80" Ref="R309"  Part="1" 
AR Path="/5E108C88/5B6B8A80" Ref="R409"  Part="1" 
AR Path="/5E130590/5B6B8A80" Ref="R509"  Part="1" 
AR Path="/5E1C420C/5B6B8A80" Ref="R609"  Part="1" 
F 0 "R209" V 6075 3575 39  0000 C CNN
F 1 "1k" V 6100 3750 50  0000 C CNN
F 2 "Resistor_SMD:R_0402_1005Metric" V 6030 3750 50  0001 C CNN
F 3 "" H 6100 3750 50  0000 C CNN
	1    6100 3750
	0    1    1    0   
$EndComp
$Comp
L Device:R R210
U 1 1 5B6B8F2E
P 6100 3850
AR Path="/59140D2B/5B6B8F2E" Ref="R210"  Part="1" 
AR Path="/5E0256B5/5B6B8F2E" Ref="R310"  Part="1" 
AR Path="/5E108C88/5B6B8F2E" Ref="R410"  Part="1" 
AR Path="/5E130590/5B6B8F2E" Ref="R510"  Part="1" 
AR Path="/5E1C420C/5B6B8F2E" Ref="R610"  Part="1" 
F 0 "R210" V 6075 3675 39  0000 C CNN
F 1 "1k" V 6100 3850 50  0000 C CNN
F 2 "Resistor_SMD:R_0402_1005Metric" V 6030 3850 50  0001 C CNN
F 3 "" H 6100 3850 50  0000 C CNN
	1    6100 3850
	0    1    1    0   
$EndComp
$Comp
L Device:R R214
U 1 1 5CCDFF50
P 6100 4250
AR Path="/59140D2B/5CCDFF50" Ref="R214"  Part="1" 
AR Path="/5E0256B5/5CCDFF50" Ref="R314"  Part="1" 
AR Path="/5E108C88/5CCDFF50" Ref="R414"  Part="1" 
AR Path="/5E130590/5CCDFF50" Ref="R514"  Part="1" 
AR Path="/5E1C420C/5CCDFF50" Ref="R614"  Part="1" 
F 0 "R214" V 6075 4075 39  0000 C CNN
F 1 "1k" V 6100 4250 50  0000 C CNN
F 2 "Resistor_SMD:R_0402_1005Metric" V 6030 4250 50  0001 C CNN
F 3 "" H 6100 4250 50  0000 C CNN
	1    6100 4250
	0    1    1    0   
$EndComp
Wire Wire Line
	5700 3650 5950 3650
Wire Wire Line
	5700 3750 5950 3750
Wire Wire Line
	5700 3850 5950 3850
Wire Wire Line
	5700 4250 5950 4250
$Comp
L Device:R R211
U 1 1 5B7F836D
P 6100 3950
AR Path="/59140D2B/5B7F836D" Ref="R211"  Part="1" 
AR Path="/5E0256B5/5B7F836D" Ref="R311"  Part="1" 
AR Path="/5E108C88/5B7F836D" Ref="R411"  Part="1" 
AR Path="/5E130590/5B7F836D" Ref="R511"  Part="1" 
AR Path="/5E1C420C/5B7F836D" Ref="R611"  Part="1" 
F 0 "R211" V 6075 3775 39  0000 C CNN
F 1 "1k" V 6100 3950 50  0000 C CNN
F 2 "Resistor_SMD:R_0402_1005Metric" V 6030 3950 50  0001 C CNN
F 3 "" H 6100 3950 50  0000 C CNN
	1    6100 3950
	0    1    1    0   
$EndComp
$Comp
L Device:R R212
U 1 1 5B7F8443
P 6100 4050
AR Path="/59140D2B/5B7F8443" Ref="R212"  Part="1" 
AR Path="/5E0256B5/5B7F8443" Ref="R312"  Part="1" 
AR Path="/5E108C88/5B7F8443" Ref="R412"  Part="1" 
AR Path="/5E130590/5B7F8443" Ref="R512"  Part="1" 
AR Path="/5E1C420C/5B7F8443" Ref="R612"  Part="1" 
F 0 "R212" V 6075 3875 39  0000 C CNN
F 1 "1k" V 6100 4050 50  0000 C CNN
F 2 "Resistor_SMD:R_0402_1005Metric" V 6030 4050 50  0001 C CNN
F 3 "" H 6100 4050 50  0000 C CNN
	1    6100 4050
	0    1    1    0   
$EndComp
$Comp
L Device:R R213
U 1 1 5B7F850F
P 6100 4150
AR Path="/59140D2B/5B7F850F" Ref="R213"  Part="1" 
AR Path="/5E0256B5/5B7F850F" Ref="R313"  Part="1" 
AR Path="/5E108C88/5B7F850F" Ref="R413"  Part="1" 
AR Path="/5E130590/5B7F850F" Ref="R513"  Part="1" 
AR Path="/5E1C420C/5B7F850F" Ref="R613"  Part="1" 
F 0 "R213" V 6075 3975 39  0000 C CNN
F 1 "1k" V 6100 4150 50  0000 C CNN
F 2 "Resistor_SMD:R_0402_1005Metric" V 6030 4150 50  0001 C CNN
F 3 "" H 6100 4150 50  0000 C CNN
	1    6100 4150
	0    1    1    0   
$EndComp
Wire Wire Line
	5700 3950 5950 3950
Wire Wire Line
	5700 4050 5950 4050
Wire Wire Line
	5700 4150 5950 4150
Wire Wire Line
	6250 3650 6350 3650
Wire Wire Line
	6350 3650 6350 3750
Wire Wire Line
	6250 4250 6350 4250
Connection ~ 6350 4250
Wire Wire Line
	6350 4250 6350 4300
Wire Wire Line
	6250 3850 6350 3850
Connection ~ 6350 3850
Wire Wire Line
	6350 3850 6350 4250
Wire Wire Line
	6250 3750 6350 3750
Connection ~ 6350 3750
Wire Wire Line
	6350 3750 6350 3850
$Comp
L power:GNDD #PWR0217
U 1 1 5B9F9F0C
P 6350 4300
AR Path="/59140D2B/5B9F9F0C" Ref="#PWR0217"  Part="1" 
AR Path="/5E0256B5/5B9F9F0C" Ref="#PWR0317"  Part="1" 
AR Path="/5E108C88/5B9F9F0C" Ref="#PWR0417"  Part="1" 
AR Path="/5E130590/5B9F9F0C" Ref="#PWR0517"  Part="1" 
AR Path="/5E1C420C/5B9F9F0C" Ref="#PWR0617"  Part="1" 
F 0 "#PWR0217" H 6350 4050 50  0001 C CNN
F 1 "GNDD" H 6350 4175 50  0000 C CNN
F 2 "" H 6350 4300 50  0001 C CNN
F 3 "" H 6350 4300 50  0001 C CNN
	1    6350 4300
	1    0    0    -1  
$EndComp
$Comp
L MDJ_compo:LiTE-DTU-v1 U202
U 1 1 5C6B4E9D
P 9100 2250
AR Path="/59140D2B/5C6B4E9D" Ref="U202"  Part="1" 
AR Path="/5E0256B5/5C6B4E9D" Ref="U302"  Part="1" 
AR Path="/5E108C88/5C6B4E9D" Ref="U402"  Part="1" 
AR Path="/5E130590/5C6B4E9D" Ref="U502"  Part="1" 
AR Path="/5E1C420C/5C6B4E9D" Ref="U602"  Part="1" 
AR Path="/5C6B4E9D" Ref="U602"  Part="1" 
F 0 "U202" H 9100 2475 50  0000 C CNN
F 1 "LiTE-DTU-v1" H 9100 2250 50  0000 C CNN
F 2 "MDJ_mod:QFN-72_1EP_10x10mm_P0.5mm" H 9100 2500 50  0001 C CNN
F 3 "h" H 9100 2375 50  0001 C CNN
	1    9100 2250
	1    0    0    -1  
$EndComp
Wire Wire Line
	5250 1250 5950 1250
NoConn ~ 5700 3150
NoConn ~ 3350 4600
NoConn ~ 3450 4600
NoConn ~ 3750 4600
NoConn ~ 3650 4600
NoConn ~ 3850 4600
NoConn ~ 3950 4600
NoConn ~ 4050 4600
NoConn ~ 4150 4600
NoConn ~ 4250 4600
NoConn ~ 4350 4600
$Comp
L Device:C C241
U 1 1 5B4C7A2D
P 7325 2025
AR Path="/59140D2B/5B4C7A2D" Ref="C241"  Part="1" 
AR Path="/5E0256B5/5B4C7A2D" Ref="C341"  Part="1" 
AR Path="/5E108C88/5B4C7A2D" Ref="C441"  Part="1" 
AR Path="/5E130590/5B4C7A2D" Ref="C541"  Part="1" 
AR Path="/5E1C420C/5B4C7A2D" Ref="C641"  Part="1" 
F 0 "C241" H 7275 2125 50  0000 L CNN
F 1 "27p" H 7350 1925 50  0000 L CNN
F 2 "Capacitor_SMD:C_0402_1005Metric" H 7363 1875 50  0001 C CNN
F 3 "" H 7325 2025 50  0000 C CNN
	1    7325 2025
	1    0    0    -1  
$EndComp
Wire Wire Line
	7825 2175 7825 2200
Wire Wire Line
	7825 2200 8450 2200
Wire Wire Line
	5700 2150 5925 2150
Wire Wire Line
	5925 2150 5925 1875
Wire Wire Line
	6025 2250 6025 1975
Wire Wire Line
	5925 2750 5925 2450
Wire Wire Line
	6675 2450 6675 2325
Wire Wire Line
	6025 2850 6025 2550
Wire Wire Line
	6675 2550 6675 2625
$Comp
L Device:R R201
U 1 1 5CB42AFB
P 900 4225
AR Path="/59140D2B/5CB42AFB" Ref="R201"  Part="1" 
AR Path="/5E0256B5/5CB42AFB" Ref="R301"  Part="1" 
AR Path="/5E108C88/5CB42AFB" Ref="R401"  Part="1" 
AR Path="/5E130590/5CB42AFB" Ref="R501"  Part="1" 
AR Path="/5E1C420C/5CB42AFB" Ref="R601"  Part="1" 
F 0 "R201" V 980 4225 50  0000 C CNN
F 1 "10k" V 900 4225 50  0000 C CNN
F 2 "Resistor_SMD:R_0402_1005Metric" V 830 4225 50  0001 C CNN
F 3 "" H 900 4225 50  0000 C CNN
	1    900  4225
	-1   0    0    1   
$EndComp
$Comp
L MDJ_compo:V1P2A #PWR0218
U 1 1 5CB42BBB
P 7800 700
AR Path="/59140D2B/5CB42BBB" Ref="#PWR0218"  Part="1" 
AR Path="/5E0256B5/5CB42BBB" Ref="#PWR0318"  Part="1" 
AR Path="/5E108C88/5CB42BBB" Ref="#PWR0418"  Part="1" 
AR Path="/5E130590/5CB42BBB" Ref="#PWR0518"  Part="1" 
AR Path="/5E1C420C/5CB42BBB" Ref="#PWR0618"  Part="1" 
F 0 "#PWR0218" H 7800 550 50  0001 C CNN
F 1 "V1P2A" H 7800 840 50  0000 C CNN
F 2 "" H 7800 700 50  0000 C CNN
F 3 "" H 7800 700 50  0000 C CNN
	1    7800 700 
	1    0    0    -1  
$EndComp
Wire Wire Line
	8950 1250 8950 1200
Wire Wire Line
	8950 1200 9000 1200
Wire Wire Line
	9300 1200 9300 1250
Wire Wire Line
	9250 1250 9250 1200
Wire Wire Line
	9250 1200 9300 1200
Wire Wire Line
	9150 1250 9150 1200
Wire Wire Line
	9100 1250 9100 1200
Connection ~ 9100 1200
Wire Wire Line
	9100 1200 9150 1200
Wire Wire Line
	9050 1250 9050 1200
Connection ~ 9050 1200
Wire Wire Line
	9050 1200 9100 1200
Wire Wire Line
	9000 1250 9000 1200
Connection ~ 9000 1200
Wire Wire Line
	9000 1200 9050 1200
NoConn ~ 8450 1650
NoConn ~ 8450 1700
Text HLabel 7600 2950 0    39   Input ~ 0
I2C_SCL
Text HLabel 7600 3000 0    39   Input ~ 0
I2C_SDA
Wire Wire Line
	8450 2950 7600 2950
$Comp
L power:GNDD #PWR0226
U 1 1 5CCDFF6B
P 9500 3350
AR Path="/59140D2B/5CCDFF6B" Ref="#PWR0226"  Part="1" 
AR Path="/5E0256B5/5CCDFF6B" Ref="#PWR0326"  Part="1" 
AR Path="/5E108C88/5CCDFF6B" Ref="#PWR0426"  Part="1" 
AR Path="/5E130590/5CCDFF6B" Ref="#PWR0526"  Part="1" 
AR Path="/5E1C420C/5CCDFF6B" Ref="#PWR0626"  Part="1" 
F 0 "#PWR0226" H 9500 3100 50  0001 C CNN
F 1 "GNDD" H 9500 3225 50  0000 C CNN
F 2 "" H 9500 3350 50  0001 C CNN
F 3 "" H 9500 3350 50  0001 C CNN
	1    9500 3350
	1    0    0    -1  
$EndComp
Wire Wire Line
	9050 3250 9050 3300
Wire Wire Line
	9050 3300 9100 3300
Wire Wire Line
	9500 3300 9500 3250
Wire Wire Line
	9500 3350 9500 3300
Connection ~ 9500 3300
Wire Wire Line
	9400 3300 9400 3250
Connection ~ 9400 3300
Wire Wire Line
	9400 3300 9500 3300
Wire Wire Line
	9350 3300 9350 3250
Connection ~ 9350 3300
Wire Wire Line
	9350 3300 9400 3300
Wire Wire Line
	9250 3300 9250 3250
Connection ~ 9250 3300
Wire Wire Line
	9250 3300 9350 3300
Wire Wire Line
	9200 3250 9200 3300
Connection ~ 9200 3300
Wire Wire Line
	9200 3300 9250 3300
Wire Wire Line
	9150 3250 9150 3300
Connection ~ 9150 3300
Wire Wire Line
	9150 3300 9200 3300
Wire Wire Line
	9100 3250 9100 3300
Connection ~ 9100 3300
Wire Wire Line
	9100 3300 9150 3300
$Comp
L power:GNDA #PWR0223
U 1 1 5CCDFF6D
P 8750 3350
AR Path="/59140D2B/5CCDFF6D" Ref="#PWR0223"  Part="1" 
AR Path="/5E0256B5/5CCDFF6D" Ref="#PWR0323"  Part="1" 
AR Path="/5E108C88/5CCDFF6D" Ref="#PWR0423"  Part="1" 
AR Path="/5E130590/5CCDFF6D" Ref="#PWR0523"  Part="1" 
AR Path="/5E1C420C/5CCDFF6D" Ref="#PWR0623"  Part="1" 
F 0 "#PWR0223" H 8750 3100 50  0001 C CNN
F 1 "GNDA" H 8750 3200 50  0000 C CNN
F 2 "" H 8750 3350 50  0000 C CNN
F 3 "" H 8750 3350 50  0000 C CNN
	1    8750 3350
	1    0    0    -1  
$EndComp
Wire Wire Line
	8750 3350 8750 3300
Wire Wire Line
	8900 3250 8900 3300
Wire Wire Line
	8900 3300 8850 3300
Connection ~ 8750 3300
Wire Wire Line
	8750 3300 8750 3250
Wire Wire Line
	8800 3250 8800 3300
Connection ~ 8800 3300
Wire Wire Line
	8800 3300 8750 3300
Wire Wire Line
	8850 3250 8850 3300
Connection ~ 8850 3300
Wire Wire Line
	8850 3300 8800 3300
Text HLabel 7550 1350 0    39   Input ~ 0
ReSync+
Text HLabel 7550 1475 0    39   Input ~ 0
ReSync-
Wire Wire Line
	8275 1800 8450 1800
Wire Wire Line
	8250 1850 8450 1850
Wire Wire Line
	7600 3000 8450 3000
Text HLabel 9950 2350 2    39   Output ~ 0
OVF
Text HLabel 9950 2300 2    39   Output ~ 0
CalBusy
Wire Wire Line
	9850 2300 9950 2300
Wire Wire Line
	9850 2350 9950 2350
Text HLabel 9950 2450 2    39   Output ~ 0
SEUD
Text HLabel 9950 2400 2    39   Output ~ 0
SEUA
Wire Wire Line
	9850 2400 9950 2400
Wire Wire Line
	9850 2450 9950 2450
Text HLabel 9950 2550 2    39   Output ~ 0
PllLock
Wire Wire Line
	9850 2550 9950 2550
NoConn ~ 9850 2600
NoConn ~ 9850 2650
NoConn ~ 9850 2700
Text HLabel 10275 2850 2    39   Input ~ 0
I2C_Add_0
Text HLabel 10275 2950 2    39   Input ~ 0
I2C_Add_1
Text HLabel 10275 3050 2    39   Input ~ 0
I2C_Add_2
$Comp
L Device:R R219
U 1 1 5CCDFF6E
P 10125 2750
AR Path="/59140D2B/5CCDFF6E" Ref="R219"  Part="1" 
AR Path="/5E0256B5/5CCDFF6E" Ref="R319"  Part="1" 
AR Path="/5E108C88/5CCDFF6E" Ref="R419"  Part="1" 
AR Path="/5E130590/5CCDFF6E" Ref="R519"  Part="1" 
AR Path="/5E1C420C/5CCDFF6E" Ref="R619"  Part="1" 
F 0 "R219" V 10100 2575 39  0000 C CNN
F 1 "1k" V 10125 2750 50  0000 C CNN
F 2 "Resistor_SMD:R_0402_1005Metric" V 10055 2750 50  0001 C CNN
F 3 "" H 10125 2750 50  0000 C CNN
	1    10125 2750
	0    1    1    0   
$EndComp
$Comp
L Device:R R223
U 1 1 5CCDFF6F
P 10125 3150
AR Path="/59140D2B/5CCDFF6F" Ref="R223"  Part="1" 
AR Path="/5E0256B5/5CCDFF6F" Ref="R323"  Part="1" 
AR Path="/5E108C88/5CCDFF6F" Ref="R423"  Part="1" 
AR Path="/5E130590/5CCDFF6F" Ref="R523"  Part="1" 
AR Path="/5E1C420C/5CCDFF6F" Ref="R623"  Part="1" 
F 0 "R223" V 10100 2975 39  0000 C CNN
F 1 "1k" V 10125 3150 50  0000 C CNN
F 2 "Resistor_SMD:R_0402_1005Metric" V 10055 3150 50  0001 C CNN
F 3 "" H 10125 3150 50  0000 C CNN
	1    10125 3150
	0    1    1    0   
$EndComp
$Comp
L Device:R R220
U 1 1 5CCDFF70
P 10125 2850
AR Path="/59140D2B/5CCDFF70" Ref="R220"  Part="1" 
AR Path="/5E0256B5/5CCDFF70" Ref="R320"  Part="1" 
AR Path="/5E108C88/5CCDFF70" Ref="R420"  Part="1" 
AR Path="/5E130590/5CCDFF70" Ref="R520"  Part="1" 
AR Path="/5E1C420C/5CCDFF70" Ref="R620"  Part="1" 
F 0 "R220" V 10100 2675 39  0000 C CNN
F 1 "1k" V 10125 2850 50  0000 C CNN
F 2 "Resistor_SMD:R_0402_1005Metric" V 10055 2850 50  0001 C CNN
F 3 "" H 10125 2850 50  0000 C CNN
	1    10125 2850
	0    1    1    0   
$EndComp
$Comp
L Device:R R221
U 1 1 5CCDFF71
P 10125 2950
AR Path="/59140D2B/5CCDFF71" Ref="R221"  Part="1" 
AR Path="/5E0256B5/5CCDFF71" Ref="R321"  Part="1" 
AR Path="/5E108C88/5CCDFF71" Ref="R421"  Part="1" 
AR Path="/5E130590/5CCDFF71" Ref="R521"  Part="1" 
AR Path="/5E1C420C/5CCDFF71" Ref="R621"  Part="1" 
F 0 "R221" V 10100 2775 39  0000 C CNN
F 1 "1k" V 10125 2950 50  0000 C CNN
F 2 "Resistor_SMD:R_0402_1005Metric" V 10055 2950 50  0001 C CNN
F 3 "" H 10125 2950 50  0000 C CNN
	1    10125 2950
	0    1    1    0   
$EndComp
$Comp
L Device:R R222
U 1 1 5CCDFF72
P 10125 3050
AR Path="/59140D2B/5CCDFF72" Ref="R222"  Part="1" 
AR Path="/5E0256B5/5CCDFF72" Ref="R322"  Part="1" 
AR Path="/5E108C88/5CCDFF72" Ref="R422"  Part="1" 
AR Path="/5E130590/5CCDFF72" Ref="R522"  Part="1" 
AR Path="/5E1C420C/5CCDFF72" Ref="R622"  Part="1" 
F 0 "R222" V 10100 2875 39  0000 C CNN
F 1 "1k" V 10125 3050 50  0000 C CNN
F 2 "Resistor_SMD:R_0402_1005Metric" V 10055 3050 50  0001 C CNN
F 3 "" H 10125 3050 50  0000 C CNN
	1    10125 3050
	0    1    1    0   
$EndComp
Wire Wire Line
	10275 2750 10550 2750
$Comp
L power:GNDD #PWR0229
U 1 1 5CCDFF73
P 10550 3200
AR Path="/59140D2B/5CCDFF73" Ref="#PWR0229"  Part="1" 
AR Path="/5E0256B5/5CCDFF73" Ref="#PWR0329"  Part="1" 
AR Path="/5E108C88/5CCDFF73" Ref="#PWR0429"  Part="1" 
AR Path="/5E130590/5CCDFF73" Ref="#PWR0529"  Part="1" 
AR Path="/5E1C420C/5CCDFF73" Ref="#PWR0629"  Part="1" 
F 0 "#PWR0229" H 10550 2950 50  0001 C CNN
F 1 "GNDD" H 10550 3075 50  0000 C CNN
F 2 "" H 10550 3200 50  0001 C CNN
F 3 "" H 10550 3200 50  0001 C CNN
	1    10550 3200
	1    0    0    -1  
$EndComp
Wire Wire Line
	9850 2800 9850 2750
Wire Wire Line
	9850 2750 9975 2750
Wire Wire Line
	9850 2850 9975 2850
Wire Wire Line
	9850 2900 9900 2900
Wire Wire Line
	9900 2900 9900 2950
Wire Wire Line
	9850 2950 9875 2950
Wire Wire Line
	9875 2950 9875 3050
Wire Wire Line
	9875 3050 9975 3050
Wire Wire Line
	9850 3000 9850 3150
Wire Wire Line
	9850 3150 9975 3150
Wire Wire Line
	9900 2950 9975 2950
Wire Wire Line
	10550 2750 10550 3200
Text HLabel 6200 3250 2    39   Input ~ 0
CalIbMode
Text HLabel 7600 2800 0    39   Input ~ 0
TestMode
Wire Wire Line
	7600 2800 8450 2800
Text HLabel 7600 2750 0    39   Input ~ 0
PwpRstb
Wire Wire Line
	7600 2750 8450 2750
$Comp
L Device:C C247
U 1 1 5D75F721
P 8325 3200
AR Path="/59140D2B/5D75F721" Ref="C247"  Part="1" 
AR Path="/5E0256B5/5D75F721" Ref="C347"  Part="1" 
AR Path="/5E108C88/5D75F721" Ref="C447"  Part="1" 
AR Path="/5E130590/5D75F721" Ref="C547"  Part="1" 
AR Path="/5E1C420C/5D75F721" Ref="C647"  Part="1" 
F 0 "C247" H 8275 3300 50  0000 L CNN
F 1 "10u" H 8350 3100 50  0000 L CNN
F 2 "Capacitor_SMD:C_0402_1005Metric" H 8363 3050 50  0001 C CNN
F 3 "" H 8325 3200 50  0000 C CNN
	1    8325 3200
	1    0    0    -1  
$EndComp
$Comp
L power:GNDA #PWR0222
U 1 1 5D75F873
P 8075 2000
AR Path="/59140D2B/5D75F873" Ref="#PWR0222"  Part="1" 
AR Path="/5E0256B5/5D75F873" Ref="#PWR0322"  Part="1" 
AR Path="/5E108C88/5D75F873" Ref="#PWR0422"  Part="1" 
AR Path="/5E130590/5D75F873" Ref="#PWR0522"  Part="1" 
AR Path="/5E1C420C/5D75F873" Ref="#PWR0622"  Part="1" 
F 0 "#PWR0222" H 8075 1750 50  0001 C CNN
F 1 "GNDA" H 8075 1850 50  0000 C CNN
F 2 "" H 8075 2000 50  0000 C CNN
F 3 "" H 8075 2000 50  0000 C CNN
	1    8075 2000
	1    0    0    -1  
$EndComp
Wire Wire Line
	8325 3050 8325 2850
Wire Wire Line
	8325 2850 8450 2850
$Comp
L MDJ_compo:V1P2A #PWR0220
U 1 1 5CCDFF76
P 7000 1700
AR Path="/59140D2B/5CCDFF76" Ref="#PWR0220"  Part="1" 
AR Path="/5E0256B5/5CCDFF76" Ref="#PWR0320"  Part="1" 
AR Path="/5E108C88/5CCDFF76" Ref="#PWR0420"  Part="1" 
AR Path="/5E130590/5CCDFF76" Ref="#PWR0520"  Part="1" 
AR Path="/5E1C420C/5CCDFF76" Ref="#PWR0620"  Part="1" 
F 0 "#PWR0220" H 7000 1550 50  0001 C CNN
F 1 "V1P2A" H 7000 1840 50  0000 C CNN
F 2 "" H 7000 1700 50  0000 C CNN
F 3 "" H 7000 1700 50  0000 C CNN
	1    7000 1700
	1    0    0    -1  
$EndComp
$Comp
L Device:C C245
U 1 1 5D832FFD
P 8075 3200
AR Path="/59140D2B/5D832FFD" Ref="C245"  Part="1" 
AR Path="/5E0256B5/5D832FFD" Ref="C345"  Part="1" 
AR Path="/5E108C88/5D832FFD" Ref="C445"  Part="1" 
AR Path="/5E130590/5D832FFD" Ref="C545"  Part="1" 
AR Path="/5E1C420C/5D832FFD" Ref="C645"  Part="1" 
F 0 "C245" H 8025 3300 50  0000 L CNN
F 1 "10u" H 8100 3100 50  0000 L CNN
F 2 "Capacitor_SMD:C_0603_1608Metric" H 8113 3050 50  0001 C CNN
F 3 "" H 8075 3200 50  0000 C CNN
	1    8075 3200
	1    0    0    -1  
$EndComp
$Comp
L Device:C C243
U 1 1 5D888F69
P 8075 1850
AR Path="/59140D2B/5D888F69" Ref="C243"  Part="1" 
AR Path="/5E0256B5/5D888F69" Ref="C343"  Part="1" 
AR Path="/5E108C88/5D888F69" Ref="C443"  Part="1" 
AR Path="/5E130590/5D888F69" Ref="C543"  Part="1" 
AR Path="/5E1C420C/5D888F69" Ref="C643"  Part="1" 
F 0 "C243" H 8025 1950 50  0000 L CNN
F 1 "10u" H 8100 1750 50  0000 L CNN
F 2 "Capacitor_SMD:C_0603_1608Metric" H 8113 1700 50  0001 C CNN
F 3 "" H 8075 1850 50  0000 C CNN
	1    8075 1850
	1    0    0    -1  
$EndComp
Wire Wire Line
	8075 3350 8325 3350
$Comp
L MDJ_compo:V1P2D #PWR0224
U 1 1 5D96738A
P 9125 700
AR Path="/59140D2B/5D96738A" Ref="#PWR0224"  Part="1" 
AR Path="/5E0256B5/5D96738A" Ref="#PWR0324"  Part="1" 
AR Path="/5E108C88/5D96738A" Ref="#PWR0424"  Part="1" 
AR Path="/5E130590/5D96738A" Ref="#PWR0524"  Part="1" 
AR Path="/5E1C420C/5D96738A" Ref="#PWR0624"  Part="1" 
F 0 "#PWR0224" H 9125 550 50  0001 C CNN
F 1 "V1P2D" H 9140 873 50  0000 C CNN
F 2 "" H 9125 700 50  0000 C CNN
F 3 "" H 9125 700 50  0000 C CNN
	1    9125 700 
	1    0    0    -1  
$EndComp
$Comp
L MDJ_compo:V1P2D #PWR0228
U 1 1 5D96766A
P 10450 2700
AR Path="/59140D2B/5D96766A" Ref="#PWR0228"  Part="1" 
AR Path="/5E0256B5/5D96766A" Ref="#PWR0328"  Part="1" 
AR Path="/5E108C88/5D96766A" Ref="#PWR0428"  Part="1" 
AR Path="/5E130590/5D96766A" Ref="#PWR0528"  Part="1" 
AR Path="/5E1C420C/5D96766A" Ref="#PWR0628"  Part="1" 
F 0 "#PWR0228" H 10450 2550 50  0001 C CNN
F 1 "V1P2D" H 10465 2873 50  0000 C CNN
F 2 "" H 10450 2700 50  0000 C CNN
F 3 "" H 10450 2700 50  0000 C CNN
	1    10450 2700
	1    0    0    -1  
$EndComp
Wire Wire Line
	10450 3150 10450 2700
Wire Wire Line
	10275 3150 10450 3150
NoConn ~ 4750 4600
NoConn ~ 4850 4600
Wire Wire Line
	3550 4600 3550 4750
Connection ~ 3550 4750
Wire Wire Line
	3550 4750 3800 4750
Wire Wire Line
	3550 4750 3550 4800
Connection ~ 3800 4750
Wire Wire Line
	3800 4750 3800 4800
Wire Wire Line
	3800 4750 4950 4750
Wire Wire Line
	4950 4600 4950 4750
Connection ~ 4950 4750
Wire Wire Line
	4950 4750 5050 4750
Wire Wire Line
	4950 4750 4950 4800
Wire Wire Line
	5150 4750 5150 4800
Connection ~ 5150 4750
Wire Wire Line
	5150 4750 5350 4750
Wire Wire Line
	5850 3350 5850 2650
Connection ~ 5850 3350
$Comp
L Device:R R224
U 1 1 5F3CFA49
P 5950 1050
AR Path="/59140D2B/5F3CFA49" Ref="R224"  Part="1" 
AR Path="/5E0256B5/5F3CFA49" Ref="R324"  Part="1" 
AR Path="/5E108C88/5F3CFA49" Ref="R424"  Part="1" 
AR Path="/5E130590/5F3CFA49" Ref="R524"  Part="1" 
AR Path="/5E1C420C/5F3CFA49" Ref="R624"  Part="1" 
F 0 "R224" V 5850 1050 50  0000 C CNN
F 1 "1k" V 5950 1050 50  0000 C CNN
F 2 "Resistor_SMD:R_0402_1005Metric" V 5880 1050 50  0001 C CNN
F 3 "" H 5950 1050 50  0000 C CNN
	1    5950 1050
	-1   0    0    1   
$EndComp
$Comp
L Device:R R225
U 1 1 5F3CFE10
P 5950 1450
AR Path="/59140D2B/5F3CFE10" Ref="R225"  Part="1" 
AR Path="/5E0256B5/5F3CFE10" Ref="R325"  Part="1" 
AR Path="/5E108C88/5F3CFE10" Ref="R425"  Part="1" 
AR Path="/5E130590/5F3CFE10" Ref="R525"  Part="1" 
AR Path="/5E1C420C/5F3CFE10" Ref="R625"  Part="1" 
F 0 "R225" V 5850 1450 50  0000 C CNN
F 1 "1k" V 5950 1450 50  0000 C CNN
F 2 "Resistor_SMD:R_0402_1005Metric" V 5880 1450 50  0001 C CNN
F 3 "" H 5950 1450 50  0000 C CNN
	1    5950 1450
	-1   0    0    1   
$EndComp
Wire Wire Line
	5950 1300 5950 1250
$Comp
L power:GNDA #PWR0127
U 1 1 5F3FAF04
P 5950 1600
AR Path="/59140D2B/5F3FAF04" Ref="#PWR0127"  Part="1" 
AR Path="/5E0256B5/5F3FAF04" Ref="#PWR0129"  Part="1" 
AR Path="/5E108C88/5F3FAF04" Ref="#PWR0159"  Part="1" 
AR Path="/5E130590/5F3FAF04" Ref="#PWR0133"  Part="1" 
AR Path="/5E1C420C/5F3FAF04" Ref="#PWR0135"  Part="1" 
F 0 "#PWR0127" H 5950 1350 50  0001 C CNN
F 1 "GNDA" H 5950 1450 50  0000 C CNN
F 2 "" H 5950 1600 50  0000 C CNN
F 3 "" H 5950 1600 50  0000 C CNN
	1    5950 1600
	1    0    0    -1  
$EndComp
$Comp
L MDJ_compo:V1P2A #PWR0128
U 1 1 5F3FB09F
P 5950 900
AR Path="/59140D2B/5F3FB09F" Ref="#PWR0128"  Part="1" 
AR Path="/5E0256B5/5F3FB09F" Ref="#PWR0130"  Part="1" 
AR Path="/5E108C88/5F3FB09F" Ref="#PWR0160"  Part="1" 
AR Path="/5E130590/5F3FB09F" Ref="#PWR0134"  Part="1" 
AR Path="/5E1C420C/5F3FB09F" Ref="#PWR0136"  Part="1" 
F 0 "#PWR0128" H 5950 750 50  0001 C CNN
F 1 "V1P2A" H 5950 1040 50  0000 C CNN
F 2 "" H 5950 900 50  0000 C CNN
F 3 "" H 5950 900 50  0000 C CNN
	1    5950 900 
	1    0    0    -1  
$EndComp
Connection ~ 5950 1250
Wire Wire Line
	5950 1250 6150 1250
Wire Wire Line
	5950 1250 5950 1200
NoConn ~ 8450 2700
NoConn ~ 9850 1600
NoConn ~ 9850 1650
NoConn ~ 9850 1750
NoConn ~ 9850 1800
NoConn ~ 9850 1900
NoConn ~ 9850 1950
$Comp
L Device:R R229
U 1 1 5C9861A5
P 7650 2625
AR Path="/59140D2B/5C9861A5" Ref="R229"  Part="1" 
AR Path="/5E0256B5/5C9861A5" Ref="R329"  Part="1" 
AR Path="/5E108C88/5C9861A5" Ref="R429"  Part="1" 
AR Path="/5E130590/5C9861A5" Ref="R529"  Part="1" 
AR Path="/5E1C420C/5C9861A5" Ref="R629"  Part="1" 
F 0 "R229" V 7575 2625 50  0000 C CNN
F 1 "10" V 7650 2625 50  0000 C CNN
F 2 "Resistor_SMD:R_0402_1005Metric" V 7580 2625 50  0001 C CNN
F 3 "" H 7650 2625 50  0000 C CNN
	1    7650 2625
	0    1    1    0   
$EndComp
$Comp
L Device:R R228
U 1 1 5C986291
P 7650 2325
AR Path="/59140D2B/5C986291" Ref="R228"  Part="1" 
AR Path="/5E0256B5/5C986291" Ref="R328"  Part="1" 
AR Path="/5E108C88/5C986291" Ref="R428"  Part="1" 
AR Path="/5E130590/5C986291" Ref="R528"  Part="1" 
AR Path="/5E1C420C/5C986291" Ref="R628"  Part="1" 
F 0 "R228" V 7750 2325 50  0000 C CNN
F 1 "10" V 7650 2325 50  0000 C CNN
F 2 "Resistor_SMD:R_0402_1005Metric" V 7580 2325 50  0001 C CNN
F 3 "" H 7650 2325 50  0000 C CNN
	1    7650 2325
	0    1    1    0   
$EndComp
$Comp
L Device:R R227
U 1 1 5C98635D
P 7650 2175
AR Path="/59140D2B/5C98635D" Ref="R227"  Part="1" 
AR Path="/5E0256B5/5C98635D" Ref="R327"  Part="1" 
AR Path="/5E108C88/5C98635D" Ref="R427"  Part="1" 
AR Path="/5E130590/5C98635D" Ref="R527"  Part="1" 
AR Path="/5E1C420C/5C98635D" Ref="R627"  Part="1" 
F 0 "R227" V 7575 2175 50  0000 C CNN
F 1 "10" V 7650 2175 50  0000 C CNN
F 2 "Resistor_SMD:R_0402_1005Metric" V 7580 2175 50  0001 C CNN
F 3 "" H 7650 2175 50  0000 C CNN
	1    7650 2175
	0    1    1    0   
$EndComp
$Comp
L Device:R R226
U 1 1 5CCDFF5A
P 7650 1875
AR Path="/59140D2B/5CCDFF5A" Ref="R226"  Part="1" 
AR Path="/5E0256B5/5CCDFF5A" Ref="R326"  Part="1" 
AR Path="/5E108C88/5CCDFF5A" Ref="R426"  Part="1" 
AR Path="/5E130590/5CCDFF5A" Ref="R526"  Part="1" 
AR Path="/5E1C420C/5CCDFF5A" Ref="R626"  Part="1" 
F 0 "R226" V 7750 1875 50  0000 C CNN
F 1 "10" V 7650 1875 50  0000 C CNN
F 2 "Resistor_SMD:R_0402_1005Metric" V 7580 1875 50  0001 C CNN
F 3 "" H 7650 1875 50  0000 C CNN
	1    7650 1875
	0    1    1    0   
$EndComp
Wire Wire Line
	7325 1875 7500 1875
Connection ~ 7325 1875
Wire Wire Line
	7800 1875 7900 1875
Wire Wire Line
	7325 2175 7500 2175
Connection ~ 7325 2175
Wire Wire Line
	7325 2325 7500 2325
Connection ~ 7325 2325
Wire Wire Line
	7325 2625 7500 2625
Connection ~ 7325 2625
Wire Wire Line
	7800 2625 7900 2625
Wire Wire Line
	7800 2325 7825 2325
Wire Wire Line
	7800 2175 7825 2175
$Comp
L Device:C C252
U 1 1 5CCDFF5D
P 7925 1200
AR Path="/59140D2B/5CCDFF5D" Ref="C252"  Part="1" 
AR Path="/5E0256B5/5CCDFF5D" Ref="C352"  Part="1" 
AR Path="/5E108C88/5CCDFF5D" Ref="C452"  Part="1" 
AR Path="/5E130590/5CCDFF5D" Ref="C552"  Part="1" 
AR Path="/5E1C420C/5CCDFF5D" Ref="C652"  Part="1" 
F 0 "C252" V 7875 1250 50  0000 L CNN
F 1 "100n" V 7900 850 50  0000 L CNN
F 2 "Capacitor_SMD:C_0402_1005Metric" H 7963 1050 50  0001 C CNN
F 3 "" H 7925 1200 50  0000 C CNN
	1    7925 1200
	0    1    1    0   
$EndComp
$Comp
L Device:C C250
U 1 1 5CCDFF5E
P 7800 1075
AR Path="/59140D2B/5CCDFF5E" Ref="C250"  Part="1" 
AR Path="/5E0256B5/5CCDFF5E" Ref="C350"  Part="1" 
AR Path="/5E108C88/5CCDFF5E" Ref="C450"  Part="1" 
AR Path="/5E130590/5CCDFF5E" Ref="C550"  Part="1" 
AR Path="/5E1C420C/5CCDFF5E" Ref="C650"  Part="1" 
F 0 "C250" V 7750 1125 50  0000 L CNN
F 1 "100n" V 7775 850 50  0000 L CNN
F 2 "Capacitor_SMD:C_0402_1005Metric" H 7838 925 50  0001 C CNN
F 3 "" H 7800 1075 50  0000 C CNN
	1    7800 1075
	0    1    1    0   
$EndComp
Wire Wire Line
	7950 1075 8350 1075
Wire Wire Line
	8075 1200 8325 1200
Wire Wire Line
	7650 1075 7550 1075
Wire Wire Line
	7775 1200 7550 1200
Wire Wire Line
	8275 700  8325 700 
Wire Wire Line
	8800 700  8800 1250
Wire Wire Line
	8850 600  8850 1250
Wire Wire Line
	8550 750  8550 600 
Connection ~ 8550 600 
Wire Wire Line
	8550 600  8675 600 
Wire Wire Line
	8325 750  8325 700 
Connection ~ 8325 700 
Wire Wire Line
	8325 700  8750 700 
Wire Wire Line
	8325 1050 8550 1050
Connection ~ 8550 1050
Wire Wire Line
	7800 700  7975 700 
Wire Wire Line
	7975 600  7975 700 
$Comp
L Device:C C254
U 1 1 5CDB3CE4
P 10550 1000
AR Path="/59140D2B/5CDB3CE4" Ref="C254"  Part="1" 
AR Path="/5E0256B5/5CDB3CE4" Ref="C354"  Part="1" 
AR Path="/5E108C88/5CDB3CE4" Ref="C454"  Part="1" 
AR Path="/5E130590/5CDB3CE4" Ref="C554"  Part="1" 
AR Path="/5E1C420C/5CDB3CE4" Ref="C654"  Part="1" 
F 0 "C254" H 10500 1100 50  0000 L CNN
F 1 "10u" H 10575 900 50  0000 L CNN
F 2 "Capacitor_SMD:C_0603_1608Metric" H 10588 850 50  0001 C CNN
F 3 "" H 10550 1000 50  0000 C CNN
	1    10550 1000
	1    0    0    -1  
$EndComp
$Comp
L power:GNDD #PWR0116
U 1 1 5CCDFF67
P 10550 1150
AR Path="/59140D2B/5CCDFF67" Ref="#PWR0116"  Part="1" 
AR Path="/5E0256B5/5CCDFF67" Ref="#PWR0137"  Part="1" 
AR Path="/5E108C88/5CCDFF67" Ref="#PWR0161"  Part="1" 
AR Path="/5E130590/5CCDFF67" Ref="#PWR0139"  Part="1" 
AR Path="/5E1C420C/5CCDFF67" Ref="#PWR0140"  Part="1" 
F 0 "#PWR0116" H 10550 900 50  0001 C CNN
F 1 "GNDD" H 10550 1025 50  0000 C CNN
F 2 "" H 10550 1150 50  0001 C CNN
F 3 "" H 10550 1150 50  0001 C CNN
	1    10550 1150
	1    0    0    -1  
$EndComp
Wire Wire Line
	10550 850  10550 800 
Wire Wire Line
	10550 800  10000 800 
Wire Wire Line
	10600 800  10550 800 
Connection ~ 10550 800 
Wire Wire Line
	10350 850  10350 700 
Connection ~ 10350 700 
Wire Wire Line
	10350 700  10150 700 
Wire Wire Line
	10925 700  10925 800 
Wire Wire Line
	10350 700  10925 700 
Wire Wire Line
	8950 1200 8950 700 
Wire Wire Line
	8950 700  9125 700 
Connection ~ 8950 1200
Connection ~ 9125 700 
$Comp
L MDJ_compo:V1P2A #PWR0141
U 1 1 5CCDFF5C
P 11100 700
AR Path="/59140D2B/5CCDFF5C" Ref="#PWR0141"  Part="1" 
AR Path="/5E0256B5/5CCDFF5C" Ref="#PWR0144"  Part="1" 
AR Path="/5E108C88/5CCDFF5C" Ref="#PWR0162"  Part="1" 
AR Path="/5E130590/5CCDFF5C" Ref="#PWR0150"  Part="1" 
AR Path="/5E1C420C/5CCDFF5C" Ref="#PWR0153"  Part="1" 
F 0 "#PWR0141" H 11100 550 50  0001 C CNN
F 1 "V1P2A" H 11100 840 50  0000 C CNN
F 2 "" H 11100 700 50  0000 C CNN
F 3 "" H 11100 700 50  0000 C CNN
	1    11100 700 
	1    0    0    -1  
$EndComp
Wire Wire Line
	10925 700  11100 700 
Connection ~ 10925 700 
Wire Wire Line
	8350 1075 8350 1500
Wire Wire Line
	8325 1200 8325 1550
Wire Wire Line
	8275 1350 8275 1800
Wire Wire Line
	8250 1475 8250 1850
Wire Wire Line
	8075 2450 8075 2500
Wire Wire Line
	8075 1700 8200 1700
Wire Wire Line
	8200 1700 8200 2000
Wire Wire Line
	8200 2000 8300 2000
Wire Wire Line
	8200 2000 8200 2050
Wire Wire Line
	8200 2050 8450 2050
Connection ~ 8200 2000
Wire Wire Line
	8075 2450 8300 2450
Wire Wire Line
	8450 2500 8075 2500
Connection ~ 8075 2500
$Comp
L power:GNDA #PWR0142
U 1 1 5CCDFF63
P 8325 3350
AR Path="/59140D2B/5CCDFF63" Ref="#PWR0142"  Part="1" 
AR Path="/5E0256B5/5CCDFF63" Ref="#PWR0145"  Part="1" 
AR Path="/5E108C88/5CCDFF63" Ref="#PWR0163"  Part="1" 
AR Path="/5E130590/5CCDFF63" Ref="#PWR0151"  Part="1" 
AR Path="/5E1C420C/5CCDFF63" Ref="#PWR0154"  Part="1" 
F 0 "#PWR0142" H 8325 3100 50  0001 C CNN
F 1 "GNDA" H 8325 3200 50  0000 C CNN
F 2 "" H 8325 3350 50  0000 C CNN
F 3 "" H 8325 3350 50  0000 C CNN
	1    8325 3350
	1    0    0    -1  
$EndComp
Connection ~ 8325 3350
Wire Wire Line
	7000 1700 7775 1700
$Comp
L MDJ_compo:V1P2A #PWR0143
U 1 1 5CCDFF64
P 7000 3050
AR Path="/59140D2B/5CCDFF64" Ref="#PWR0143"  Part="1" 
AR Path="/5E0256B5/5CCDFF64" Ref="#PWR0146"  Part="1" 
AR Path="/5E108C88/5CCDFF64" Ref="#PWR0164"  Part="1" 
AR Path="/5E130590/5CCDFF64" Ref="#PWR0152"  Part="1" 
AR Path="/5E1C420C/5CCDFF64" Ref="#PWR0155"  Part="1" 
F 0 "#PWR0143" H 7000 2900 50  0001 C CNN
F 1 "V1P2A" H 7000 3190 50  0000 C CNN
F 2 "" H 7000 3050 50  0000 C CNN
F 3 "" H 7000 3050 50  0000 C CNN
	1    7000 3050
	1    0    0    -1  
$EndComp
Wire Wire Line
	7775 3050 7000 3050
Wire Wire Line
	8075 2500 8075 3050
$Comp
L Device:C C256
U 1 1 5CC82C95
P 10150 1000
AR Path="/59140D2B/5CC82C95" Ref="C256"  Part="1" 
AR Path="/5E0256B5/5CC82C95" Ref="C356"  Part="1" 
AR Path="/5E108C88/5CC82C95" Ref="C456"  Part="1" 
AR Path="/5E130590/5CC82C95" Ref="C556"  Part="1" 
AR Path="/5E1C420C/5CC82C95" Ref="C656"  Part="1" 
F 0 "C256" H 10100 1100 50  0000 L CNN
F 1 "10u" H 10175 900 50  0000 L CNN
F 2 "Capacitor_SMD:C_0402_1005Metric" H 10188 850 50  0001 C CNN
F 3 "" H 10150 1000 50  0000 C CNN
	1    10150 1000
	1    0    0    -1  
$EndComp
Wire Wire Line
	10150 850  10150 700 
Connection ~ 10150 700 
Wire Wire Line
	10150 700  9900 700 
Wire Wire Line
	10150 1150 10350 1150
Connection ~ 10350 1150
Wire Wire Line
	5925 1875 6675 1875
Wire Wire Line
	6025 1975 6675 1975
Wire Wire Line
	5925 2450 6675 2450
Wire Wire Line
	6025 2550 6675 2550
Wire Wire Line
	9400 1250 10000 1250
Wire Wire Line
	10000 1250 10000 800 
Wire Wire Line
	9300 1200 9900 1200
Wire Wire Line
	9900 1200 9900 700 
Connection ~ 9300 1200
$Comp
L Device:C C255
U 1 1 5CCDFF6C
P 9325 850
AR Path="/59140D2B/5CCDFF6C" Ref="C255"  Part="1" 
AR Path="/5E0256B5/5CCDFF6C" Ref="C355"  Part="1" 
AR Path="/5E108C88/5CCDFF6C" Ref="C455"  Part="1" 
AR Path="/5E130590/5CCDFF6C" Ref="C555"  Part="1" 
AR Path="/5E1C420C/5CCDFF6C" Ref="C655"  Part="1" 
F 0 "C255" H 9275 950 50  0000 L CNN
F 1 "10u" H 9350 750 50  0000 L CNN
F 2 "Capacitor_SMD:C_0402_1005Metric" H 9363 700 50  0001 C CNN
F 3 "" H 9325 850 50  0000 C CNN
	1    9325 850 
	1    0    0    -1  
$EndComp
Wire Wire Line
	9325 1000 9125 1000
Connection ~ 9125 1000
Wire Wire Line
	9325 700  9125 700 
Text Label 8325 1800 1    39   ~ 0
Rsync_AC+
Text Label 8250 1475 3    39   ~ 0
Rsync_AC-
Wire Wire Line
	7550 1350 8275 1350
Wire Wire Line
	7550 1475 8250 1475
Text Label 3325 6825 0    39   ~ 0
I2C_SCL_CATIA
Text HLabel 2675 6825 0    39   Input ~ 0
I2C_SCL
$Comp
L MDJ_compo:NC7SV17 U?
U 1 1 5CE68C88
P 3050 6825
AR Path="/5CCDF17D/5E108C88/5CE68C88" Ref="U?"  Part="1" 
AR Path="/59140D2B/5CE68C88" Ref="U203"  Part="1" 
AR Path="/5E0256B5/5CE68C88" Ref="U303"  Part="1" 
AR Path="/5E108C88/5CE68C88" Ref="U403"  Part="1" 
AR Path="/5E130590/5CE68C88" Ref="U503"  Part="1" 
AR Path="/5E1C420C/5CE68C88" Ref="U603"  Part="1" 
F 0 "U203" H 2675 6975 39  0000 L CNN
F 1 "NC7SV17" H 2650 7050 39  0000 L CNN
F 2 "Package_TO_SOT_SMD:SOT-353_SC-70-5" H 3050 6825 50  0001 C CNN
F 3 "http://www.ti.com/lit/sg/scyt129e/scyt129e.pdf" H 3050 6825 50  0001 C CNN
	1    3050 6825
	1    0    0    -1  
$EndComp
$Comp
L power:GNDA #PWR0149
U 1 1 5CE68C9D
P 3000 6975
AR Path="/59140D2B/5CE68C9D" Ref="#PWR0149"  Part="1" 
AR Path="/5E0256B5/5CE68C9D" Ref="#PWR0157"  Part="1" 
AR Path="/5E108C88/5CE68C9D" Ref="#PWR0165"  Part="1" 
AR Path="/5E130590/5CE68C9D" Ref="#PWR0195"  Part="1" 
AR Path="/5E1C420C/5CE68C9D" Ref="#PWR0197"  Part="1" 
F 0 "#PWR0149" H 3000 6725 50  0001 C CNN
F 1 "GNDA" H 3075 6950 39  0000 C CNN
F 2 "" H 3000 6975 50  0000 C CNN
F 3 "" H 3000 6975 50  0000 C CNN
	1    3000 6975
	1    0    0    -1  
$EndComp
Wire Wire Line
	3300 6825 3725 6825
Wire Wire Line
	2675 6825 2750 6825
Text Label 6200 5775 0    39   ~ 0
I2C_SCL_CATIA
$Comp
L MDJ_compo:V1P2A #PWR0156
U 1 1 5D4D91FA
P 3050 6675
AR Path="/59140D2B/5D4D91FA" Ref="#PWR0156"  Part="1" 
AR Path="/5E0256B5/5D4D91FA" Ref="#PWR0158"  Part="1" 
AR Path="/5E108C88/5D4D91FA" Ref="#PWR0166"  Part="1" 
AR Path="/5E130590/5D4D91FA" Ref="#PWR0196"  Part="1" 
AR Path="/5E1C420C/5D4D91FA" Ref="#PWR0198"  Part="1" 
F 0 "#PWR0156" H 3050 6525 50  0001 C CNN
F 1 "V1P2A" H 3050 6815 50  0000 C CNN
F 2 "" H 3050 6675 50  0000 C CNN
F 3 "" H 3050 6675 50  0000 C CNN
	1    3050 6675
	1    0    0    -1  
$EndComp
$Comp
L power:PWR_FLAG #FLG0105
U 1 1 5CC5CDFC
P 8300 2000
AR Path="/59140D2B/5CC5CDFC" Ref="#FLG0105"  Part="1" 
AR Path="/5E0256B5/5CC5CDFC" Ref="#FLG0110"  Part="1" 
AR Path="/5E108C88/5CC5CDFC" Ref="#FLG0115"  Part="1" 
AR Path="/5E130590/5CC5CDFC" Ref="#FLG0120"  Part="1" 
AR Path="/5E1C420C/5CC5CDFC" Ref="#FLG0125"  Part="1" 
F 0 "#FLG0105" H 8300 2075 50  0001 C CNN
F 1 "PWR_FLAG" H 8500 2100 39  0000 C CNN
F 2 "" H 8300 2000 50  0001 C CNN
F 3 "~" H 8300 2000 50  0001 C CNN
	1    8300 2000
	1    0    0    -1  
$EndComp
Connection ~ 8300 2000
Wire Wire Line
	8300 2000 8450 2000
$Comp
L power:PWR_FLAG #FLG0106
U 1 1 5CC5D536
P 8300 2450
AR Path="/59140D2B/5CC5D536" Ref="#FLG0106"  Part="1" 
AR Path="/5E0256B5/5CC5D536" Ref="#FLG0111"  Part="1" 
AR Path="/5E108C88/5CC5D536" Ref="#FLG0116"  Part="1" 
AR Path="/5E130590/5CC5D536" Ref="#FLG0121"  Part="1" 
AR Path="/5E1C420C/5CC5D536" Ref="#FLG0126"  Part="1" 
F 0 "#FLG0106" H 8300 2525 50  0001 C CNN
F 1 "PWR_FLAG" H 8100 2500 39  0000 C CNN
F 2 "" H 8300 2450 50  0001 C CNN
F 3 "~" H 8300 2450 50  0001 C CNN
	1    8300 2450
	1    0    0    -1  
$EndComp
Connection ~ 8300 2450
Wire Wire Line
	8300 2450 8450 2450
$Comp
L power:PWR_FLAG #FLG0107
U 1 1 5CC5D601
P 8675 600
AR Path="/59140D2B/5CC5D601" Ref="#FLG0107"  Part="1" 
AR Path="/5E0256B5/5CC5D601" Ref="#FLG0112"  Part="1" 
AR Path="/5E108C88/5CC5D601" Ref="#FLG0117"  Part="1" 
AR Path="/5E130590/5CC5D601" Ref="#FLG0122"  Part="1" 
AR Path="/5E1C420C/5CC5D601" Ref="#FLG0127"  Part="1" 
F 0 "#FLG0107" H 8675 675 50  0001 C CNN
F 1 "PWR_FLAG" H 8500 675 39  0000 C CNN
F 2 "" H 8675 600 50  0001 C CNN
F 3 "~" H 8675 600 50  0001 C CNN
	1    8675 600 
	1    0    0    -1  
$EndComp
Connection ~ 8675 600 
Wire Wire Line
	8675 600  8850 600 
$Comp
L power:PWR_FLAG #FLG0108
U 1 1 5CC5D72B
P 8750 700
AR Path="/59140D2B/5CC5D72B" Ref="#FLG0108"  Part="1" 
AR Path="/5E0256B5/5CC5D72B" Ref="#FLG0113"  Part="1" 
AR Path="/5E108C88/5CC5D72B" Ref="#FLG0118"  Part="1" 
AR Path="/5E130590/5CC5D72B" Ref="#FLG0123"  Part="1" 
AR Path="/5E1C420C/5CC5D72B" Ref="#FLG0128"  Part="1" 
F 0 "#FLG0108" H 8750 775 50  0001 C CNN
F 1 "PWR_FLAG" H 8850 825 39  0000 C CNN
F 2 "" H 8750 700 50  0001 C CNN
F 3 "~" H 8750 700 50  0001 C CNN
	1    8750 700 
	1    0    0    -1  
$EndComp
Connection ~ 8750 700 
Wire Wire Line
	8750 700  8800 700 
$Comp
L power:PWR_FLAG #FLG0109
U 1 1 5CC5D91D
P 10000 800
AR Path="/59140D2B/5CC5D91D" Ref="#FLG0109"  Part="1" 
AR Path="/5E0256B5/5CC5D91D" Ref="#FLG0114"  Part="1" 
AR Path="/5E108C88/5CC5D91D" Ref="#FLG0119"  Part="1" 
AR Path="/5E130590/5CC5D91D" Ref="#FLG0124"  Part="1" 
AR Path="/5E1C420C/5CC5D91D" Ref="#FLG0129"  Part="1" 
F 0 "#FLG0109" H 10000 875 50  0001 C CNN
F 1 "PWR_FLAG" H 10100 925 39  0000 C CNN
F 2 "" H 10000 800 50  0001 C CNN
F 3 "~" H 10000 800 50  0001 C CNN
	1    10000 800 
	1    0    0    -1  
$EndComp
Connection ~ 10000 800 
$Comp
L Device:C C253
U 1 1 5CC8F393
P 4225 5425
AR Path="/59140D2B/5CC8F393" Ref="C253"  Part="1" 
AR Path="/5E0256B5/5CC8F393" Ref="C353"  Part="1" 
AR Path="/5E108C88/5CC8F393" Ref="C453"  Part="1" 
AR Path="/5E130590/5CC8F393" Ref="C553"  Part="1" 
AR Path="/5E1C420C/5CC8F393" Ref="C653"  Part="1" 
F 0 "C253" H 4175 5525 50  0000 L CNN
F 1 "100p" H 4250 5325 50  0000 L CNN
F 2 "Capacitor_SMD:C_0402_1005Metric" H 4263 5275 50  0001 C CNN
F 3 "" H 4225 5425 50  0000 C CNN
	1    4225 5425
	1    0    0    -1  
$EndComp
$Comp
L Device:C C251
U 1 1 5CC8F4B1
P 4025 5425
AR Path="/59140D2B/5CC8F4B1" Ref="C251"  Part="1" 
AR Path="/5E0256B5/5CC8F4B1" Ref="C351"  Part="1" 
AR Path="/5E108C88/5CC8F4B1" Ref="C451"  Part="1" 
AR Path="/5E130590/5CC8F4B1" Ref="C551"  Part="1" 
AR Path="/5E1C420C/5CC8F4B1" Ref="C651"  Part="1" 
F 0 "C251" H 3975 5525 50  0000 L CNN
F 1 "100p" H 3825 5325 50  0000 L CNN
F 2 "Capacitor_SMD:C_0402_1005Metric" H 4063 5275 50  0001 C CNN
F 3 "" H 4025 5425 50  0000 C CNN
	1    4025 5425
	1    0    0    -1  
$EndComp
Wire Wire Line
	4025 5275 4025 5200
Wire Wire Line
	4025 5200 4550 5200
Connection ~ 4550 5200
Wire Wire Line
	4550 5200 4550 5775
Wire Wire Line
	4225 5275 4450 5275
Connection ~ 4450 5275
Wire Wire Line
	4450 5275 4450 5875
$Comp
L power:GNDD #PWR0167
U 1 1 5CD4ABF2
P 4025 5575
AR Path="/59140D2B/5CD4ABF2" Ref="#PWR0167"  Part="1" 
AR Path="/5E0256B5/5CD4ABF2" Ref="#PWR0168"  Part="1" 
AR Path="/5E108C88/5CD4ABF2" Ref="#PWR0169"  Part="1" 
AR Path="/5E130590/5CD4ABF2" Ref="#PWR0170"  Part="1" 
AR Path="/5E1C420C/5CD4ABF2" Ref="#PWR0171"  Part="1" 
F 0 "#PWR0167" H 4025 5325 50  0001 C CNN
F 1 "GNDD" H 4025 5450 50  0000 C CNN
F 2 "" H 4025 5575 50  0001 C CNN
F 3 "" H 4025 5575 50  0001 C CNN
	1    4025 5575
	1    0    0    -1  
$EndComp
Wire Wire Line
	4025 5575 4225 5575
Connection ~ 4025 5575
Wire Wire Line
	8950 3250 8950 3300
Wire Wire Line
	8950 3300 8900 3300
Connection ~ 8900 3300
$Comp
L Device:Ferrite_Bead_Small FB401
U 1 1 5CF3ACBE
P 7875 1700
AR Path="/5E108C88/5CF3ACBE" Ref="FB401"  Part="1" 
AR Path="/59140D2B/5CF3ACBE" Ref="FB201"  Part="1" 
AR Path="/5E0256B5/5CF3ACBE" Ref="FB301"  Part="1" 
AR Path="/5E130590/5CF3ACBE" Ref="FB501"  Part="1" 
AR Path="/5E1C420C/5CF3ACBE" Ref="FB601"  Part="1" 
F 0 "FB201" V 7730 1700 39  0000 C CNN
F 1 "Ferrite_Bead_Small" H 7975 1655 50  0001 L CNN
F 2 "Inductor_SMD:L_0603_1608Metric" V 7805 1700 50  0001 C CNN
F 3 "~" H 7875 1700 50  0001 C CNN
	1    7875 1700
	0    1    1    0   
$EndComp
$Comp
L Device:Ferrite_Bead_Small FB404
U 1 1 5CF3B737
P 8175 700
AR Path="/5E108C88/5CF3B737" Ref="FB404"  Part="1" 
AR Path="/59140D2B/5CF3B737" Ref="FB204"  Part="1" 
AR Path="/5E0256B5/5CF3B737" Ref="FB304"  Part="1" 
AR Path="/5E130590/5CF3B737" Ref="FB504"  Part="1" 
AR Path="/5E1C420C/5CF3B737" Ref="FB604"  Part="1" 
F 0 "FB204" V 8250 575 39  0000 C CNN
F 1 "Ferrite_Bead_Small" H 8275 655 50  0001 L CNN
F 2 "Inductor_SMD:L_0603_1608Metric" V 8105 700 50  0001 C CNN
F 3 "~" H 8175 700 50  0001 C CNN
	1    8175 700 
	0    1    1    0   
$EndComp
$Comp
L Device:Ferrite_Bead_Small FB403
U 1 1 5CF3B859
P 8075 600
AR Path="/5E108C88/5CF3B859" Ref="FB403"  Part="1" 
AR Path="/59140D2B/5CF3B859" Ref="FB203"  Part="1" 
AR Path="/5E0256B5/5CF3B859" Ref="FB303"  Part="1" 
AR Path="/5E130590/5CF3B859" Ref="FB503"  Part="1" 
AR Path="/5E1C420C/5CF3B859" Ref="FB603"  Part="1" 
F 0 "FB203" V 8000 725 39  0000 C CNN
F 1 "Ferrite_Bead_Small" H 8175 555 50  0001 L CNN
F 2 "Inductor_SMD:L_0603_1608Metric" V 8005 600 50  0001 C CNN
F 3 "~" H 8075 600 50  0001 C CNN
	1    8075 600 
	0    1    1    0   
$EndComp
$Comp
L Device:Ferrite_Bead_Small FB405
U 1 1 5CF3B93B
P 10700 800
AR Path="/5E108C88/5CF3B93B" Ref="FB405"  Part="1" 
AR Path="/59140D2B/5CF3B93B" Ref="FB205"  Part="1" 
AR Path="/5E0256B5/5CF3B93B" Ref="FB305"  Part="1" 
AR Path="/5E130590/5CF3B93B" Ref="FB505"  Part="1" 
AR Path="/5E1C420C/5CF3B93B" Ref="FB605"  Part="1" 
F 0 "FB205" V 10750 900 39  0000 C CNN
F 1 "Ferrite_Bead_Small" H 10800 755 50  0001 L CNN
F 2 "Inductor_SMD:L_0603_1608Metric" V 10630 800 50  0001 C CNN
F 3 "~" H 10700 800 50  0001 C CNN
	1    10700 800 
	0    1    1    0   
$EndComp
$Comp
L Device:Ferrite_Bead_Small FB402
U 1 1 5CF3BA95
P 7875 3050
AR Path="/5E108C88/5CF3BA95" Ref="FB402"  Part="1" 
AR Path="/59140D2B/5CF3BA95" Ref="FB202"  Part="1" 
AR Path="/5E0256B5/5CF3BA95" Ref="FB302"  Part="1" 
AR Path="/5E130590/5CF3BA95" Ref="FB502"  Part="1" 
AR Path="/5E1C420C/5CF3BA95" Ref="FB602"  Part="1" 
F 0 "FB202" V 8000 2925 39  0000 C CNN
F 1 "Ferrite_Bead_Small" H 7975 3005 50  0001 L CNN
F 2 "Inductor_SMD:L_0603_1608Metric" V 7805 3050 50  0001 C CNN
F 3 "~" H 7875 3050 50  0001 C CNN
	1    7875 3050
	0    1    1    0   
$EndComp
Wire Wire Line
	8175 600  8550 600 
Wire Wire Line
	8075 700  7975 700 
Connection ~ 7975 700 
Wire Wire Line
	10800 800  10925 800 
Connection ~ 8075 3050
Wire Wire Line
	7975 3050 8075 3050
Wire Wire Line
	7975 1700 8075 1700
Connection ~ 8075 1700
Wire Wire Line
	6975 1875 7325 1875
Wire Wire Line
	6975 2175 7325 2175
Wire Wire Line
	6975 2325 7325 2325
Wire Wire Line
	6975 2625 7325 2625
$Comp
L Device:C C257
U 1 1 5D01E746
P 9525 850
AR Path="/59140D2B/5D01E746" Ref="C257"  Part="1" 
AR Path="/5E0256B5/5D01E746" Ref="C357"  Part="1" 
AR Path="/5E108C88/5D01E746" Ref="C457"  Part="1" 
AR Path="/5E130590/5D01E746" Ref="C557"  Part="1" 
AR Path="/5E1C420C/5D01E746" Ref="C657"  Part="1" 
F 0 "C257" H 9475 950 50  0000 L CNN
F 1 "10u" H 9550 750 50  0000 L CNN
F 2 "Capacitor_SMD:C_0402_1005Metric" H 9563 700 50  0001 C CNN
F 3 "" H 9525 850 50  0000 C CNN
	1    9525 850 
	1    0    0    -1  
$EndComp
$Comp
L Device:C C258
U 1 1 5D01E822
P 9725 850
AR Path="/59140D2B/5D01E822" Ref="C258"  Part="1" 
AR Path="/5E0256B5/5D01E822" Ref="C358"  Part="1" 
AR Path="/5E108C88/5D01E822" Ref="C458"  Part="1" 
AR Path="/5E130590/5D01E822" Ref="C558"  Part="1" 
AR Path="/5E1C420C/5D01E822" Ref="C658"  Part="1" 
F 0 "C258" H 9675 950 50  0000 L CNN
F 1 "10u" H 9750 750 50  0000 L CNN
F 2 "Capacitor_SMD:C_0402_1005Metric" H 9763 700 50  0001 C CNN
F 3 "" H 9725 850 50  0000 C CNN
	1    9725 850 
	1    0    0    -1  
$EndComp
Wire Wire Line
	9325 700  9525 700 
Connection ~ 9325 700 
Wire Wire Line
	9525 700  9725 700 
Connection ~ 9525 700 
Wire Wire Line
	9325 1000 9525 1000
Connection ~ 9325 1000
Wire Wire Line
	9525 1000 9725 1000
Connection ~ 9525 1000
$EndSCHEMATC
