EESchema Schematic File Version 4
LIBS:vfe_CATIA_LiteDTU-cache
LIBS:vfe_CATIA_LiteDTU_1C-cache
EELAYER 26 0
EELAYER END
$Descr A4 11693 8268
encoding utf-8
Sheet 1 6
Title ""
Date ""
Rev ""
Comp ""
Comment1 ""
Comment2 ""
Comment3 ""
Comment4 ""
$EndDescr
$Comp
L MDJ_compo:V2P5A #PWR0105
U 1 1 5CCDFEE3
P 3850 875
F 0 "#PWR0105" H 3850 725 50  0001 C CNN
F 1 "V2P5A" H 3850 1015 50  0000 C CNN
F 2 "" H 3850 875 50  0000 C CNN
F 3 "" H 3850 875 50  0000 C CNN
	1    3850 875 
	1    0    0    -1  
$EndComp
Text Label 4700 2875 0    60   ~ 0
B_Leak
Text Label 4700 2775 0    60   ~ 0
B_Ch
Text Label 4475 1975 0    60   ~ 0
Temp_APD
Text Label 4700 1575 0    60   ~ 0
D_Leak
Text Label 4700 1475 0    60   ~ 0
D_Ch
$Comp
L power:GNDA #PWR0104
U 1 1 5CCDFEE4
P 3750 3525
F 0 "#PWR0104" H 3750 3275 50  0001 C CNN
F 1 "GNDA" H 3750 3375 50  0000 C CNN
F 2 "" H 3750 3525 50  0000 C CNN
F 3 "" H 3750 3525 50  0000 C CNN
	1    3750 3525
	1    0    0    -1  
$EndComp
$Comp
L power:GNDA #PWR0106
U 1 1 5912B51F
P 4550 3525
F 0 "#PWR0106" H 4550 3275 50  0001 C CNN
F 1 "GNDA" H 4550 3375 50  0000 C CNN
F 2 "" H 4550 3525 50  0000 C CNN
F 3 "" H 4550 3525 50  0000 C CNN
	1    4550 3525
	1    0    0    -1  
$EndComp
Text Label 2750 1325 2    50   ~ 0
ReSync-
Text Label 2750 1225 2    50   ~ 0
ReSync+
$Comp
L MDJ_compo:ERNI-154765 J101
U 1 1 5913027C
P 1750 5675
F 0 "J101" H 1750 4225 60  0000 C CNN
F 1 "ERNI-154765" V 1750 5675 60  0000 C CNN
F 2 "MDJ_mod:ERNI-154765" H 1650 5675 60  0001 C CNN
F 3 "" H 1650 5675 60  0000 C CNN
	1    1750 5675
	-1   0    0    -1  
$EndComp
$Comp
L MDJ_compo:ERNI-154765 J102
U 1 1 5CCDFEE7
P 1750 2225
F 0 "J102" H 1750 775 60  0000 C CNN
F 1 "ERNI-154765" V 1750 2225 60  0000 C CNN
F 2 "MDJ_mod:ERNI-154765" H 1650 2225 60  0001 C CNN
F 3 "" H 1650 2225 60  0000 C CNN
	1    1750 2225
	-1   0    0    -1  
$EndComp
Text Label 950  1025 0    39   ~ 0
I2C_SCL_in
Text Label 950  1125 0    39   ~ 0
I2C_SDA_in
Text Label 2750 1925 2    50   ~ 0
A_D0-
Text Label 2750 1825 2    50   ~ 0
A_D0+
Text Label 2750 1625 2    50   ~ 0
A_Clk-
Text Label 750  2025 0    50   ~ 0
A_SEUA
Text Label 750  1725 0    50   ~ 0
A_SEUD
Text Label 2750 1525 2    50   ~ 0
A_Clk+
Text Label 2750 2125 2    50   ~ 0
A_CalBusy
Text Label 750  2125 0    50   ~ 0
A_OVF
Text Label 2750 6875 2    50   ~ 0
25B
Text Label 750  6675 0    50   ~ 0
23A
Text Label 750  6875 0    50   ~ 0
25A
$Sheet
S 6950 1800 1150 1850
U 59140D2B
F0 "channel_A" 60
F1 "channel.sch" 60
F2 "Clk+" I L 6950 2400 60 
F3 "Clk-" I L 6950 2500 60 
F4 "In" I L 6950 1900 60 
F5 "Leak" I L 6950 2000 60 
F6 "I2C_Add_0" I L 6950 2800 60 
F7 "I2C_Add_1" I L 6950 2900 60 
F8 "I2C_Add_2" I L 6950 3000 60 
F9 "I2C_SCL" I L 6950 2600 60 
F10 "I2C_SDA" I L 6950 2700 60 
F11 "Calib_trigger" I L 6950 2100 60 
F12 "Tsensor" I L 6950 2200 60 
F13 "Dout0-" O R 8100 2000 60 
F14 "Dout0+" O R 8100 1900 60 
F15 "ReSync+" I L 6950 3150 60 
F16 "ReSync-" I L 6950 3250 60 
F17 "OVF" O R 8100 2800 60 
F18 "CalBusy" O R 8100 2900 60 
F19 "SEUD" O R 8100 3000 60 
F20 "SEUA" O R 8100 3100 60 
F21 "PllLock" O R 8100 3200 60 
F22 "CalIbMode" I L 6950 3350 60 
F23 "TestMode" I L 6950 3450 60 
F24 "PwpRstb" I L 6950 3550 60 
$EndSheet
Text Label 6425 1900 0    60   ~ 0
A_Ch
Text Label 6425 2000 0    60   ~ 0
A_Leak
Text Label 6425 2400 0    60   ~ 0
A_Clk+
Text Label 6425 2500 0    60   ~ 0
A_Clk-
Text Label 6425 2600 0    60   ~ 0
I2C_SCL
Text Label 6425 2700 0    60   ~ 0
I2C_SDA
Text Label 6425 2100 0    60   ~ 0
TP_trigger
Text Label 8150 3200 0    60   ~ 0
A_PllLock
Text Label 8150 1900 0    60   ~ 0
A_D0+
Text Label 8150 2000 0    60   ~ 0
A_D0-
Text Label 8150 2800 0    60   ~ 0
A_OVF
Text Label 8150 2900 0    60   ~ 0
A_CalBusy
Text Label 8150 3000 0    60   ~ 0
A_SEUD
Text Label 8150 3100 0    60   ~ 0
A_SEUA
$Comp
L MDJ_compo:IPT125_R P101
U 1 1 5914B3B6
P 4200 2175
F 0 "P101" H 4200 3475 50  0000 C CNN
F 1 "CONN_IPT125" V 4200 2175 50  0000 C CNN
F 2 "MDJ_mod:Samtec_IPT125_R" H 4200 850 50  0000 C CNN
F 3 "" H 4200 1425 50  0000 C CNN
	1    4200 2175
	1    0    0    -1  
$EndComp
$Comp
L power:GNDD #PWR0113
U 1 1 594A9767
P 6150 7050
F 0 "#PWR0113" H 6150 6800 50  0001 C CNN
F 1 "GNDD" H 6150 6900 50  0000 C CNN
F 2 "" H 6150 7050 50  0000 C CNN
F 3 "" H 6150 7050 50  0000 C CNN
	1    6150 7050
	1    0    0    -1  
$EndComp
$Comp
L power:GNDA #PWR0114
U 1 1 594A9A8D
P 6350 7050
F 0 "#PWR0114" H 6350 6800 50  0001 C CNN
F 1 "GNDA" H 6350 6900 50  0000 C CNN
F 2 "" H 6350 7050 50  0000 C CNN
F 3 "" H 6350 7050 50  0000 C CNN
	1    6350 7050
	1    0    0    -1  
$EndComp
$Comp
L MDJ_compo:Hole W101
U 1 1 5CCDFEF4
P 8275 1175
F 0 "W101" H 8275 1445 50  0000 C CNN
F 1 "Hole" H 8275 1375 50  0000 C CNN
F 2 "MDJ_mod:1pin_2.7" H 8475 1175 50  0001 C CNN
F 3 "" H 8475 1175 50  0000 C CNN
	1    8275 1175
	1    0    0    -1  
$EndComp
$Comp
L MDJ_compo:Hole W102
U 1 1 59A684ED
P 8425 1175
F 0 "W102" H 8425 1445 50  0000 C CNN
F 1 "Hole" H 8425 1375 50  0000 C CNN
F 2 "MDJ_mod:1pin_2.7" H 8625 1175 50  0001 C CNN
F 3 "" H 8625 1175 50  0000 C CNN
	1    8425 1175
	1    0    0    -1  
$EndComp
$Comp
L MDJ_compo:Hole W103
U 1 1 59A68821
P 8575 1175
F 0 "W103" H 8575 1445 50  0000 C CNN
F 1 "Hole" H 8575 1375 50  0000 C CNN
F 2 "MDJ_mod:1pin_2.7" H 8775 1175 50  0001 C CNN
F 3 "" H 8775 1175 50  0000 C CNN
	1    8575 1175
	1    0    0    -1  
$EndComp
$Comp
L MDJ_compo:Hole W104
U 1 1 5CCDFEF7
P 8725 1175
F 0 "W104" H 8725 1445 50  0000 C CNN
F 1 "Hole" H 8725 1375 50  0000 C CNN
F 2 "MDJ_mod:1pin_2.7" H 8925 1175 50  0001 C CNN
F 3 "" H 8925 1175 50  0000 C CNN
	1    8725 1175
	1    0    0    -1  
$EndComp
$Comp
L MDJ_compo:Hole W105
U 1 1 59A68E96
P 8875 1175
F 0 "W105" H 8875 1445 50  0000 C CNN
F 1 "Hole" H 8875 1375 50  0000 C CNN
F 2 "MDJ_mod:1pin_2.7" H 9075 1175 50  0001 C CNN
F 3 "" H 9075 1175 50  0000 C CNN
	1    8875 1175
	1    0    0    -1  
$EndComp
$Comp
L MDJ_compo:Hole W109
U 1 1 59A691D2
P 9475 1175
F 0 "W109" H 9475 1445 50  0000 C CNN
F 1 "Hole" H 9475 1375 50  0000 C CNN
F 2 "MDJ_mod:1pin_2.7" H 9675 1175 50  0001 C CNN
F 3 "" H 9675 1175 50  0000 C CNN
	1    9475 1175
	1    0    0    -1  
$EndComp
$Comp
L MDJ_compo:Hole W106
U 1 1 59A694EA
P 9025 1175
F 0 "W106" H 9025 1445 50  0000 C CNN
F 1 "Hole" H 9025 1375 50  0000 C CNN
F 2 "MDJ_mod:1pin_2.7" H 9225 1175 50  0001 C CNN
F 3 "" H 9225 1175 50  0000 C CNN
	1    9025 1175
	1    0    0    -1  
$EndComp
$Comp
L MDJ_compo:Hole W110
U 1 1 59A69A1E
P 9625 1175
F 0 "W110" H 9625 1445 50  0000 C CNN
F 1 "Hole" H 9625 1375 50  0000 C CNN
F 2 "MDJ_mod:1pin_2.7" H 9825 1175 50  0001 C CNN
F 3 "" H 9825 1175 50  0000 C CNN
	1    9625 1175
	1    0    0    -1  
$EndComp
$Comp
L MDJ_compo:Hole W111
U 1 1 59A69D63
P 9775 1175
F 0 "W111" H 9775 1445 50  0000 C CNN
F 1 "Hole" H 9775 1375 50  0000 C CNN
F 2 "MDJ_mod:1pin_2.7" H 9975 1175 50  0001 C CNN
F 3 "" H 9975 1175 50  0000 C CNN
	1    9775 1175
	1    0    0    -1  
$EndComp
$Comp
L MDJ_compo:Hole W112
U 1 1 5CCDFEFD
P 9925 1175
F 0 "W112" H 9925 1445 50  0000 C CNN
F 1 "Hole" H 9925 1375 50  0000 C CNN
F 2 "MDJ_mod:1pin_2.7" H 10125 1175 50  0001 C CNN
F 3 "" H 10125 1175 50  0000 C CNN
	1    9925 1175
	1    0    0    -1  
$EndComp
$Comp
L MDJ_compo:Hole W113
U 1 1 5CCDFEFE
P 10075 1175
F 0 "W113" H 10075 1445 50  0000 C CNN
F 1 "Hole" H 10075 1375 50  0000 C CNN
F 2 "MDJ_mod:1pin_2.7" H 10275 1175 50  0001 C CNN
F 3 "" H 10275 1175 50  0000 C CNN
	1    10075 1175
	1    0    0    -1  
$EndComp
$Comp
L MDJ_compo:Hole W114
U 1 1 5CCDFEFF
P 10225 1175
F 0 "W114" H 10225 1445 50  0000 C CNN
F 1 "Hole" H 10225 1375 50  0000 C CNN
F 2 "MDJ_mod:1pin_2.7" H 10425 1175 50  0001 C CNN
F 3 "" H 10425 1175 50  0000 C CNN
	1    10225 1175
	1    0    0    -1  
$EndComp
$Comp
L power:GNDA #PWR0109
U 1 1 59A6D08C
P 10375 1175
F 0 "#PWR0109" H 10375 925 50  0001 C CNN
F 1 "GNDA" H 10375 1025 50  0000 C CNN
F 2 "" H 10375 1175 50  0000 C CNN
F 3 "" H 10375 1175 50  0000 C CNN
	1    10375 1175
	1    0    0    -1  
$EndComp
$Comp
L MDJ_compo:Hole_2.0 W107
U 1 1 59A6F5F3
P 9175 1175
F 0 "W107" H 9175 1445 50  0000 C CNN
F 1 "Hole_2.0" H 9175 1375 50  0000 C CNN
F 2 "MDJ_mod:1pin_2.0" H 9375 1175 50  0001 C CNN
F 3 "" H 9375 1175 50  0000 C CNN
	1    9175 1175
	1    0    0    -1  
$EndComp
$Comp
L MDJ_compo:Hole_2.0 W108
U 1 1 59A6F960
P 9325 1175
F 0 "W108" H 9325 1445 50  0000 C CNN
F 1 "Hole_2.0" H 9325 1375 50  0000 C CNN
F 2 "MDJ_mod:1pin_2.0" H 9525 1175 50  0001 C CNN
F 3 "" H 9525 1175 50  0000 C CNN
	1    9325 1175
	1    0    0    -1  
$EndComp
$Comp
L power:GNDD #PWR0126
U 1 1 5B542EAF
P 6350 2900
F 0 "#PWR0126" H 6350 2650 50  0001 C CNN
F 1 "GNDD" H 6350 2750 50  0000 C CNN
F 2 "" H 6350 2900 50  0000 C CNN
F 3 "" H 6350 2900 50  0000 C CNN
	1    6350 2900
	1    0    0    -1  
$EndComp
Text Label 2750 6675 2    50   ~ 0
PwpRstb
$Comp
L MDJ_compo:V1P2A #PWR0103
U 1 1 5CCDFF47
P 3600 875
F 0 "#PWR0103" H 3600 725 50  0001 C CNN
F 1 "V1P2A" H 3600 1015 50  0000 C CNN
F 2 "" H 3600 875 50  0000 C CNN
F 3 "" H 3600 875 50  0000 C CNN
	1    3600 875 
	1    0    0    -1  
$EndComp
$Comp
L power:PWR_FLAG #FLG0103
U 1 1 5CCDFF49
P 775 4475
F 0 "#FLG0103" H 775 4550 50  0001 C CNN
F 1 "PWR_FLAG" H 775 4625 50  0000 C CNN
F 2 "" H 775 4475 50  0001 C CNN
F 3 "" H 775 4475 50  0001 C CNN
	1    775  4475
	1    0    0    -1  
$EndComp
$Comp
L power:PWR_FLAG #FLG0101
U 1 1 5CCDFF4A
P 3525 1075
F 0 "#FLG0101" H 3525 1150 50  0001 C CNN
F 1 "PWR_FLAG" H 3525 1225 50  0000 C CNN
F 2 "" H 3525 1075 50  0001 C CNN
F 3 "" H 3525 1075 50  0001 C CNN
	1    3525 1075
	1    0    0    -1  
$EndComp
$Comp
L power:PWR_FLAG #FLG0102
U 1 1 5B533479
P 3775 1075
F 0 "#FLG0102" H 3775 1150 50  0001 C CNN
F 1 "PWR_FLAG" H 3775 1225 50  0000 C CNN
F 2 "" H 3775 1075 50  0001 C CNN
F 3 "" H 3775 1075 50  0001 C CNN
	1    3775 1075
	1    0    0    -1  
$EndComp
$Comp
L power:PWR_FLAG #FLG0104
U 1 1 5B53875A
P 6250 7050
F 0 "#FLG0104" H 6250 7125 50  0001 C CNN
F 1 "PWR_FLAG" H 6250 7200 50  0000 C CNN
F 2 "" H 6250 7050 50  0001 C CNN
F 3 "" H 6250 7050 50  0001 C CNN
	1    6250 7050
	1    0    0    -1  
$EndComp
Wire Wire Line
	3775 1075 3850 1075
Wire Wire Line
	3850 875  3850 1075
Wire Wire Line
	3600 875  3600 1075
Wire Wire Line
	3600 1175 3950 1175
Wire Wire Line
	3850 1475 3950 1475
Connection ~ 3850 1075
Wire Wire Line
	3850 2375 3950 2375
Connection ~ 3850 1475
Wire Wire Line
	3850 2775 3950 2775
Connection ~ 3850 2375
Wire Wire Line
	3850 3175 3950 3175
Connection ~ 3850 2775
Wire Wire Line
	3600 1575 3950 1575
Connection ~ 3600 1175
Wire Wire Line
	3600 2475 3950 2475
Connection ~ 3600 1575
Wire Wire Line
	3600 2875 3950 2875
Connection ~ 3600 2475
Wire Wire Line
	3600 3275 3950 3275
Connection ~ 3600 2875
Wire Wire Line
	3950 1275 3750 1275
Wire Wire Line
	3750 1275 3750 1375
Wire Wire Line
	3950 1375 3750 1375
Connection ~ 3750 1375
Wire Wire Line
	3950 1675 3750 1675
Connection ~ 3750 1675
Wire Wire Line
	3950 1775 3750 1775
Connection ~ 3750 1775
Wire Wire Line
	3950 1875 3750 1875
Connection ~ 3750 1875
Wire Wire Line
	3950 1975 3750 1975
Connection ~ 3750 1975
Wire Wire Line
	3750 2075 3950 2075
Connection ~ 3750 2075
Wire Wire Line
	3950 2175 3750 2175
Connection ~ 3750 2175
Wire Wire Line
	3950 2275 3750 2275
Connection ~ 3750 2275
Wire Wire Line
	3950 2575 3750 2575
Connection ~ 3750 2575
Wire Wire Line
	3950 2675 3750 2675
Connection ~ 3750 2675
Wire Wire Line
	3950 2975 3750 2975
Connection ~ 3750 2975
Wire Wire Line
	3950 3075 3750 3075
Connection ~ 3750 3075
Wire Wire Line
	3950 3375 3750 3375
Connection ~ 3750 3375
Wire Wire Line
	4450 2775 4900 2775
Wire Wire Line
	4450 2875 4900 2875
Wire Wire Line
	4450 1975 4650 1975
Wire Wire Line
	4450 2075 4650 2075
Wire Wire Line
	4450 1475 4900 1475
Wire Wire Line
	4450 1575 4900 1575
Wire Wire Line
	4450 975  4550 975 
Wire Wire Line
	4550 975  4550 1275
Wire Wire Line
	4450 1275 4550 1275
Connection ~ 4550 1275
Wire Wire Line
	4450 1375 4550 1375
Connection ~ 4550 1375
Wire Wire Line
	4450 1675 4550 1675
Connection ~ 4550 1675
Wire Wire Line
	4450 1775 4550 1775
Connection ~ 4550 1775
Wire Wire Line
	4450 1875 4550 1875
Connection ~ 4550 1875
Wire Wire Line
	4450 2175 4550 2175
Connection ~ 4550 2175
Wire Wire Line
	4450 2275 4550 2275
Connection ~ 4550 2275
Wire Wire Line
	4450 2575 4550 2575
Connection ~ 4550 2575
Wire Wire Line
	4450 2675 4550 2675
Connection ~ 4550 2675
Wire Wire Line
	4450 2975 4550 2975
Connection ~ 4550 2975
Wire Wire Line
	4450 3075 4550 3075
Connection ~ 4550 3075
Wire Wire Line
	4450 3375 4550 3375
Connection ~ 4550 3375
Wire Wire Line
	775  4475 900  4475
Wire Wire Line
	1000 4175 1000 4475
Wire Wire Line
	2500 4175 2500 4475
Wire Wire Line
	2500 4475 2300 4475
Connection ~ 1000 4475
Wire Wire Line
	900  4225 900  4475
Wire Wire Line
	1200 1425 750  1425
Wire Wire Line
	2300 2125 2750 2125
Wire Wire Line
	1200 2125 750  2125
Wire Wire Line
	1200 2025 750  2025
Wire Wire Line
	1200 1725 750  1725
Wire Wire Line
	2300 1325 2750 1325
Wire Wire Line
	2300 1525 2750 1525
Wire Wire Line
	2300 1625 2750 1625
Wire Wire Line
	2300 1825 2750 1825
Wire Wire Line
	2300 1925 2750 1925
Wire Wire Line
	1000 4175 2500 4175
Wire Wire Line
	1200 4375 1100 4375
Wire Wire Line
	2300 4375 2400 4375
Wire Wire Line
	1100 6975 1200 6975
Connection ~ 1100 6975
Wire Wire Line
	2300 6975 2400 6975
Connection ~ 2400 6975
Wire Wire Line
	1100 3525 1200 3525
Connection ~ 1100 3525
Wire Wire Line
	2400 3525 2300 3525
Connection ~ 2400 3525
Wire Wire Line
	2300 925  2400 925 
Wire Wire Line
	1200 925  1100 925 
Wire Wire Line
	2750 6875 2300 6875
Wire Wire Line
	750  6675 1200 6675
Wire Wire Line
	750  6875 1200 6875
Wire Wire Line
	1000 3425 1000 3625
Wire Wire Line
	1000 3625 2500 3625
Wire Wire Line
	2500 3625 2500 3425
Wire Wire Line
	2500 3425 2300 3425
Wire Wire Line
	6425 1900 6950 1900
Wire Wire Line
	6425 2000 6950 2000
Wire Wire Line
	6425 2400 6950 2400
Wire Wire Line
	6425 2500 6950 2500
Wire Wire Line
	6425 2600 6950 2600
Wire Wire Line
	6425 2700 6950 2700
Wire Wire Line
	6425 2100 6950 2100
Wire Wire Line
	8400 1900 8100 1900
Wire Wire Line
	8400 3200 8100 3200
Wire Wire Line
	8400 3100 8100 3100
Wire Wire Line
	8400 3000 8100 3000
Wire Wire Line
	8400 2900 8100 2900
Wire Wire Line
	8400 2800 8100 2800
Wire Wire Line
	8400 2000 8100 2000
Wire Wire Line
	6150 7050 6250 7050
Connection ~ 8425 1175
Connection ~ 8575 1175
Connection ~ 8725 1175
Connection ~ 8875 1175
Wire Wire Line
	8275 1175 8425 1175
Connection ~ 9025 1175
Connection ~ 10225 1175
Connection ~ 10075 1175
Connection ~ 9925 1175
Connection ~ 9775 1175
Connection ~ 9625 1175
Connection ~ 9175 1175
Wire Wire Line
	6425 3000 6950 3000
Wire Wire Line
	6350 2900 6425 2900
Wire Wire Line
	6425 2800 6950 2800
Connection ~ 9475 1175
Connection ~ 9325 1175
Wire Wire Line
	6425 2900 6425 3000
Connection ~ 6425 2900
Wire Wire Line
	6350 2850 6425 2850
Wire Wire Line
	6425 2850 6425 2800
Wire Wire Line
	6950 2200 6425 2200
Connection ~ 900  4475
Wire Wire Line
	3525 1075 3600 1075
Connection ~ 3600 1075
Connection ~ 6250 7050
Text Notes 7375 7500 0    60   ~ 0
VFE_CATIA_LiteDTU-v1
Text Notes 8150 7650 0    60   ~ 0
2019/02/06
$Comp
L Device:R R102
U 1 1 5B4F06B5
P 825 775
F 0 "R102" V 905 775 50  0000 C CNN
F 1 "1k" V 825 775 50  0000 C CNN
F 2 "Resistor_SMD:R_0402_1005Metric" V 755 775 50  0001 C CNN
F 3 "" H 825 775 50  0000 C CNN
	1    825  775 
	-1   0    0    1   
$EndComp
Wire Wire Line
	3850 1075 3950 1075
Wire Wire Line
	3850 1075 3850 1475
Wire Wire Line
	3850 1475 3850 2375
Wire Wire Line
	3850 2375 3850 2775
Wire Wire Line
	3850 2775 3850 3175
Wire Wire Line
	3600 1175 3600 1575
Wire Wire Line
	3600 1575 3600 2475
Wire Wire Line
	3600 2475 3600 2875
Wire Wire Line
	3600 2875 3600 3275
Wire Wire Line
	3750 1375 3750 1675
Wire Wire Line
	3750 1675 3750 1775
Wire Wire Line
	3750 1775 3750 1875
Wire Wire Line
	3750 1875 3750 1975
Wire Wire Line
	3750 1975 3750 2075
Wire Wire Line
	3750 2075 3750 2175
Wire Wire Line
	3750 2175 3750 2275
Wire Wire Line
	3750 2275 3750 2575
Wire Wire Line
	3750 2575 3750 2675
Wire Wire Line
	3750 2675 3750 2975
Wire Wire Line
	3750 2975 3750 3075
Wire Wire Line
	3750 3075 3750 3375
Wire Wire Line
	3750 3375 3750 3525
Wire Wire Line
	4550 1275 4550 1375
Wire Wire Line
	4550 1375 4550 1675
Wire Wire Line
	4550 1675 4550 1775
Wire Wire Line
	4550 1775 4550 1875
Wire Wire Line
	4550 1875 4550 2175
Wire Wire Line
	4550 2175 4550 2275
Wire Wire Line
	4550 2275 4550 2575
Wire Wire Line
	4550 2575 4550 2675
Wire Wire Line
	4550 2675 4550 2975
Wire Wire Line
	4550 2975 4550 3075
Wire Wire Line
	4550 3075 4550 3375
Wire Wire Line
	4550 3375 4550 3525
Wire Wire Line
	1000 4475 1200 4475
Wire Wire Line
	1100 6975 1100 7175
Wire Wire Line
	2400 6975 2400 7175
Wire Wire Line
	1100 3525 1100 3725
Wire Wire Line
	2400 3525 2400 3725
Wire Wire Line
	1000 3425 1200 3425
Wire Wire Line
	8425 1175 8575 1175
Wire Wire Line
	8575 1175 8725 1175
Wire Wire Line
	8725 1175 8875 1175
Wire Wire Line
	8875 1175 9025 1175
Wire Wire Line
	9025 1175 9175 1175
Wire Wire Line
	10225 1175 10375 1175
Wire Wire Line
	10075 1175 10225 1175
Wire Wire Line
	9925 1175 10075 1175
Wire Wire Line
	9775 1175 9925 1175
Wire Wire Line
	9625 1175 9775 1175
Wire Wire Line
	9175 1175 9325 1175
Wire Wire Line
	9475 1175 9625 1175
Wire Wire Line
	9325 1175 9475 1175
Wire Wire Line
	6425 2900 6950 2900
Wire Wire Line
	900  4475 1000 4475
Wire Wire Line
	3600 1075 3600 1175
Wire Wire Line
	6250 7050 6350 7050
$Comp
L Device:R R101
U 1 1 5CCDFF55
P 925 775
F 0 "R101" V 825 775 50  0000 C CNN
F 1 "1k" V 925 775 50  0000 C CNN
F 2 "Resistor_SMD:R_0402_1005Metric" V 855 775 50  0001 C CNN
F 3 "" H 925 775 50  0000 C CNN
	1    925  775 
	-1   0    0    -1  
$EndComp
$Comp
L MDJ_compo:V1P2D #PWR0108
U 1 1 5CCDFF7B
P 900 4225
F 0 "#PWR0108" H 900 4075 50  0001 C CNN
F 1 "V1P2D" H 725 4300 50  0000 C CNN
F 2 "" H 900 4225 50  0000 C CNN
F 3 "" H 900 4225 50  0000 C CNN
	1    900  4225
	1    0    0    -1  
$EndComp
$Comp
L MDJ_compo:V1P2D #PWR0122
U 1 1 5DA47D91
P 650 625
F 0 "#PWR0122" H 650 475 50  0001 C CNN
F 1 "V1P2D" H 650 750 50  0000 C CNN
F 2 "" H 650 625 50  0000 C CNN
F 3 "" H 650 625 50  0000 C CNN
	1    650  625 
	1    0    0    -1  
$EndComp
Text Label 6425 3150 0    60   ~ 0
ReSync+
Text Label 6425 3250 0    60   ~ 0
ReSync-
Wire Wire Line
	6425 3150 6950 3150
Wire Wire Line
	6425 3250 6950 3250
Text Label 6425 3350 0    60   ~ 0
CalibMode
Text Label 6425 3450 0    60   ~ 0
TestMode
Wire Wire Line
	6425 3350 6950 3350
Wire Wire Line
	6425 3450 6950 3450
Text Label 6425 3550 0    60   ~ 0
PwpRstb
Wire Wire Line
	6425 3550 6950 3550
Text Label 4700 2475 0    60   ~ 0
C_Leak
Text Label 4700 2375 0    60   ~ 0
C_Ch
Wire Wire Line
	4450 2375 4900 2375
Wire Wire Line
	4450 2475 4900 2475
Text Label 4700 3275 0    60   ~ 0
A_Leak
Text Label 4700 3175 0    60   ~ 0
A_Ch
Wire Wire Line
	4450 3175 4900 3175
Wire Wire Line
	4450 3275 4900 3275
Text Label 4700 1175 0    60   ~ 0
E_Leak
Text Label 4700 1075 0    60   ~ 0
E_Ch
Wire Wire Line
	4450 1075 4900 1075
Wire Wire Line
	4450 1175 4900 1175
Text Label 750  1425 0    50   ~ 0
A_PllLock
Wire Wire Line
	2750 6675 2300 6675
Text Label 2750 2625 2    50   ~ 0
B_D0+
Text Label 2750 2325 2    50   ~ 0
B_Clk+
Text Label 750  2925 0    50   ~ 0
B_OVF
Wire Wire Line
	2300 2325 2750 2325
Wire Wire Line
	2300 2425 2750 2425
Wire Wire Line
	2300 2625 2750 2625
Wire Wire Line
	2300 2725 2750 2725
Text Label 750  2225 0    50   ~ 0
B_PllLock
Text Label 2750 2925 2    50   ~ 0
B_CalBusy
Text Label 2750 2725 2    50   ~ 0
B_D0-
Text Label 2750 2425 2    50   ~ 0
B_Clk-
Text Label 750  2825 0    50   ~ 0
B_SEUA
Text Label 750  2525 0    50   ~ 0
B_SEUD
Wire Wire Line
	1200 2225 750  2225
Wire Wire Line
	2300 2925 2750 2925
Wire Wire Line
	1200 2925 750  2925
Wire Wire Line
	1200 2825 750  2825
Wire Wire Line
	1200 2525 750  2525
Text Label 2750 4675 2    50   ~ 0
C_D0+
Wire Wire Line
	2300 3125 2750 3125
Wire Wire Line
	2300 3225 2750 3225
Wire Wire Line
	2300 4675 2750 4675
Text Label 2750 4775 2    50   ~ 0
C_D0-
Wire Wire Line
	1200 3025 750  3025
Wire Wire Line
	2750 4975 2300 4975
Wire Wire Line
	1200 4975 750  4975
Wire Wire Line
	1200 4875 750  4875
Text Label 2750 3225 2    50   ~ 0
C_Clk-
Text Label 750  4875 0    50   ~ 0
C_SEUA
Text Label 750  3325 0    50   ~ 0
C_SEUD
Wire Wire Line
	1200 3325 750  3325
Text Label 2750 3125 2    50   ~ 0
C_Clk+
Text Label 750  4975 0    50   ~ 0
C_OVF
Wire Wire Line
	2300 4775 2750 4775
Text Label 750  3025 0    50   ~ 0
C_PllLock
Text Label 2750 4975 2    50   ~ 0
C_CalBusy
Text Label 2750 5475 2    50   ~ 0
D_D0+
Text Label 2750 5175 2    50   ~ 0
D_Clk+
Text Label 750  5775 0    50   ~ 0
D_OVF
Wire Wire Line
	2300 5175 2750 5175
Wire Wire Line
	2300 5275 2750 5275
Wire Wire Line
	2300 5475 2750 5475
Wire Wire Line
	2300 5575 2750 5575
Text Label 750  5075 0    50   ~ 0
D_PllLock
Text Label 2750 5775 2    50   ~ 0
D_CalBusy
Text Label 2750 6275 2    50   ~ 0
E_D0+
Text Label 2750 5975 2    50   ~ 0
E_Clk+
Text Label 750  6575 0    50   ~ 0
E_OVF
Wire Wire Line
	2300 5975 2750 5975
Wire Wire Line
	2300 6075 2750 6075
Wire Wire Line
	2300 6275 2750 6275
Wire Wire Line
	2300 6375 2750 6375
Text Label 750  5875 0    50   ~ 0
E_PllLock
Text Label 2750 6575 2    50   ~ 0
E_CalBusy
Text Label 2750 5575 2    50   ~ 0
D_D0-
Text Label 2750 5275 2    50   ~ 0
D_Clk-
Text Label 750  5375 0    50   ~ 0
D_SEUD
Wire Wire Line
	1200 5075 750  5075
Wire Wire Line
	2750 5775 2300 5775
Wire Wire Line
	1200 5775 750  5775
Wire Wire Line
	1200 5675 750  5675
Wire Wire Line
	1200 5375 750  5375
Text Label 2750 6375 2    50   ~ 0
E_D0-
Text Label 2750 6075 2    50   ~ 0
E_Clk-
Text Label 750  6475 0    50   ~ 0
E_SEUA
Text Label 750  6175 0    50   ~ 0
E_SEUD
Wire Wire Line
	1200 5875 750  5875
Wire Wire Line
	2750 6575 2300 6575
Wire Wire Line
	1200 6575 750  6575
Wire Wire Line
	1200 6475 750  6475
Wire Wire Line
	1200 6175 750  6175
Text Label 750  5675 0    50   ~ 0
D_SEUA
Text Label 2750 6775 2    50   ~ 0
24B
Wire Wire Line
	2750 6775 2300 6775
$Comp
L MDJ_compo:V1P2D #PWR0117
U 1 1 5CCDFF7D
P 775 3525
F 0 "#PWR0117" H 775 3375 50  0001 C CNN
F 1 "V1P2D" H 825 3675 50  0000 C CNN
F 2 "" H 775 3525 50  0000 C CNN
F 3 "" H 775 3525 50  0000 C CNN
	1    775  3525
	1    0    0    -1  
$EndComp
Wire Wire Line
	775  3525 775  3625
Wire Wire Line
	775  3625 1000 3625
Connection ~ 1000 3625
$Comp
L power:GNDD #PWR0110
U 1 1 5DF5C768
P 1100 7175
F 0 "#PWR0110" H 1100 6925 50  0001 C CNN
F 1 "GNDD" H 1100 7025 50  0000 C CNN
F 2 "" H 1100 7175 50  0000 C CNN
F 3 "" H 1100 7175 50  0000 C CNN
	1    1100 7175
	1    0    0    -1  
$EndComp
$Comp
L power:GNDD #PWR0115
U 1 1 5DF5C80B
P 2400 7175
F 0 "#PWR0115" H 2400 6925 50  0001 C CNN
F 1 "GNDD" H 2400 7025 50  0000 C CNN
F 2 "" H 2400 7175 50  0000 C CNN
F 3 "" H 2400 7175 50  0000 C CNN
	1    2400 7175
	1    0    0    -1  
$EndComp
$Comp
L power:GNDD #PWR0118
U 1 1 5DF5C84F
P 1100 3725
F 0 "#PWR0118" H 1100 3475 50  0001 C CNN
F 1 "GNDD" H 1100 3575 50  0000 C CNN
F 2 "" H 1100 3725 50  0000 C CNN
F 3 "" H 1100 3725 50  0000 C CNN
	1    1100 3725
	1    0    0    -1  
$EndComp
$Comp
L power:GNDD #PWR0121
U 1 1 5DF5C8A6
P 2400 3725
F 0 "#PWR0121" H 2400 3475 50  0001 C CNN
F 1 "GNDD" H 2400 3575 50  0000 C CNN
F 2 "" H 2400 3725 50  0000 C CNN
F 3 "" H 2400 3725 50  0000 C CNN
	1    2400 3725
	1    0    0    -1  
$EndComp
Text Label 6425 2200 0    60   ~ 0
Temp_CATIA
$Sheet
S 9400 1800 1150 1850
U 5E0256B5
F0 "channel_B" 60
F1 "channel.sch" 60
F2 "Clk+" I L 9400 2400 60 
F3 "Clk-" I L 9400 2500 60 
F4 "In" I L 9400 1900 60 
F5 "Leak" I L 9400 2000 60 
F6 "I2C_Add_0" I L 9400 2800 60 
F7 "I2C_Add_1" I L 9400 2900 60 
F8 "I2C_Add_2" I L 9400 3000 60 
F9 "I2C_SCL" I L 9400 2600 60 
F10 "I2C_SDA" I L 9400 2700 60 
F11 "Calib_trigger" I L 9400 2100 60 
F12 "Tsensor" I L 9400 2200 60 
F13 "Dout0-" O R 10550 2000 60 
F14 "Dout0+" O R 10550 1900 60 
F15 "ReSync+" I L 9400 3150 60 
F16 "ReSync-" I L 9400 3250 60 
F17 "OVF" O R 10550 2800 60 
F18 "CalBusy" O R 10550 2900 60 
F19 "SEUD" O R 10550 3000 60 
F20 "SEUA" O R 10550 3100 60 
F21 "PllLock" O R 10550 3200 60 
F22 "CalIbMode" I L 9400 3350 60 
F23 "TestMode" I L 9400 3450 60 
F24 "PwpRstb" I L 9400 3550 60 
$EndSheet
Text Label 8875 1900 0    60   ~ 0
B_Ch
Text Label 8875 2000 0    60   ~ 0
B_Leak
Text Label 8875 2400 0    60   ~ 0
B_Clk+
Text Label 8875 2500 0    60   ~ 0
B_Clk-
Text Label 8875 2600 0    60   ~ 0
I2C_SCL
Text Label 8875 2700 0    60   ~ 0
I2C_SDA
Text Label 8875 2100 0    60   ~ 0
TP_trigger
Text Label 10600 3200 0    60   ~ 0
B_PllLock
Text Label 10600 1900 0    60   ~ 0
B_D0+
Text Label 10600 2000 0    60   ~ 0
B_D0-
Text Label 10600 2800 0    60   ~ 0
B_OVF
Text Label 10600 2900 0    60   ~ 0
B_CalBusy
Text Label 10600 3000 0    60   ~ 0
B_SEUD
Text Label 10600 3100 0    60   ~ 0
B_SEUA
$Comp
L power:GNDD #PWR0102
U 1 1 5E0256D5
P 8800 2900
F 0 "#PWR0102" H 8800 2650 50  0001 C CNN
F 1 "GNDD" H 8800 2750 50  0000 C CNN
F 2 "" H 8800 2900 50  0000 C CNN
F 3 "" H 8800 2900 50  0000 C CNN
	1    8800 2900
	1    0    0    -1  
$EndComp
Wire Wire Line
	8875 1900 9400 1900
Wire Wire Line
	8875 2000 9400 2000
Wire Wire Line
	8875 2400 9400 2400
Wire Wire Line
	8875 2500 9400 2500
Wire Wire Line
	8875 2600 9400 2600
Wire Wire Line
	8875 2700 9400 2700
Wire Wire Line
	8875 2100 9400 2100
Wire Wire Line
	10850 1900 10550 1900
Wire Wire Line
	10850 3200 10550 3200
Wire Wire Line
	10850 3100 10550 3100
Wire Wire Line
	10850 3000 10550 3000
Wire Wire Line
	10850 2900 10550 2900
Wire Wire Line
	10850 2800 10550 2800
Wire Wire Line
	10850 2000 10550 2000
Wire Wire Line
	8875 3000 9400 3000
Wire Wire Line
	9400 2200 8875 2200
Wire Wire Line
	8925 2900 9400 2900
Text Label 8875 3150 0    60   ~ 0
ReSync+
Text Label 8875 3250 0    60   ~ 0
ReSync-
Wire Wire Line
	8875 3150 9400 3150
Wire Wire Line
	8875 3250 9400 3250
Text Label 8875 3350 0    60   ~ 0
CalibMode
Text Label 8875 3450 0    60   ~ 0
TestMode
Wire Wire Line
	8875 3350 9400 3350
Wire Wire Line
	8875 3450 9400 3450
Text Label 8875 3550 0    60   ~ 0
PwpRstb
Wire Wire Line
	8875 3550 9400 3550
Text Label 8875 2200 0    60   ~ 0
Temp_CATIA
Wire Wire Line
	8800 2850 8925 2850
Wire Wire Line
	8925 2850 8925 2900
Wire Wire Line
	8800 2900 8875 2900
Wire Wire Line
	8875 2900 8875 2800
Wire Wire Line
	8875 2800 9400 2800
Connection ~ 8875 2900
Wire Wire Line
	8875 2900 8875 3000
$Sheet
S 4550 4275 1150 1850
U 5CCDFF82
F0 "channel_C" 60
F1 "channel.sch" 60
F2 "Clk+" I L 4550 4875 60 
F3 "Clk-" I L 4550 4975 60 
F4 "In" I L 4550 4375 60 
F5 "Leak" I L 4550 4475 60 
F6 "I2C_Add_0" I L 4550 5275 60 
F7 "I2C_Add_1" I L 4550 5375 60 
F8 "I2C_Add_2" I L 4550 5475 60 
F9 "I2C_SCL" I L 4550 5075 60 
F10 "I2C_SDA" I L 4550 5175 60 
F11 "Calib_trigger" I L 4550 4575 60 
F12 "Tsensor" I L 4550 4675 60 
F13 "Dout0-" O R 5700 4475 60 
F14 "Dout0+" O R 5700 4375 60 
F15 "ReSync+" I L 4550 5625 60 
F16 "ReSync-" I L 4550 5725 60 
F17 "OVF" O R 5700 5275 60 
F18 "CalBusy" O R 5700 5375 60 
F19 "SEUD" O R 5700 5475 60 
F20 "SEUA" O R 5700 5575 60 
F21 "PllLock" O R 5700 5675 60 
F22 "CalIbMode" I L 4550 5825 60 
F23 "TestMode" I L 4550 5925 60 
F24 "PwpRstb" I L 4550 6025 60 
$EndSheet
Text Label 4025 4375 0    60   ~ 0
C_Ch
Text Label 4025 4475 0    60   ~ 0
C_Leak
Text Label 4025 4875 0    60   ~ 0
C_Clk+
Text Label 4025 4975 0    60   ~ 0
C_Clk-
Text Label 4025 5075 0    60   ~ 0
I2C_SCL
Text Label 4025 5175 0    60   ~ 0
I2C_SDA
Text Label 4025 4575 0    60   ~ 0
TP_trigger
Text Label 5750 5675 0    60   ~ 0
C_PllLock
Text Label 5750 4375 0    60   ~ 0
C_D0+
Text Label 5750 4475 0    60   ~ 0
C_D0-
Text Label 5750 5275 0    60   ~ 0
C_OVF
Text Label 5750 5375 0    60   ~ 0
C_CalBusy
Text Label 5750 5475 0    60   ~ 0
C_SEUD
Text Label 5750 5575 0    60   ~ 0
C_SEUA
$Comp
L power:GNDD #PWR0112
U 1 1 5CCDFF83
P 3950 5375
F 0 "#PWR0112" H 3950 5125 50  0001 C CNN
F 1 "GNDD" H 3950 5225 50  0000 C CNN
F 2 "" H 3950 5375 50  0000 C CNN
F 3 "" H 3950 5375 50  0000 C CNN
	1    3950 5375
	1    0    0    -1  
$EndComp
Wire Wire Line
	4025 4375 4550 4375
Wire Wire Line
	4025 4475 4550 4475
Wire Wire Line
	4025 4875 4550 4875
Wire Wire Line
	4025 4975 4550 4975
Wire Wire Line
	4025 5075 4550 5075
Wire Wire Line
	4025 5175 4550 5175
Wire Wire Line
	4025 4575 4550 4575
Wire Wire Line
	6000 4375 5700 4375
Wire Wire Line
	6000 5675 5700 5675
Wire Wire Line
	6000 5575 5700 5575
Wire Wire Line
	6000 5475 5700 5475
Wire Wire Line
	6000 5375 5700 5375
Wire Wire Line
	6000 5275 5700 5275
Wire Wire Line
	6000 4475 5700 4475
Wire Wire Line
	4025 5475 4550 5475
Wire Wire Line
	4550 4675 4025 4675
Wire Wire Line
	4075 5375 4550 5375
Text Label 4025 5625 0    60   ~ 0
ReSync+
Text Label 4025 5725 0    60   ~ 0
ReSync-
Wire Wire Line
	4025 5625 4550 5625
Wire Wire Line
	4025 5725 4550 5725
Text Label 4025 5825 0    60   ~ 0
CalibMode
Text Label 4025 5925 0    60   ~ 0
TestMode
Wire Wire Line
	4025 5825 4550 5825
Wire Wire Line
	4025 5925 4550 5925
Text Label 4025 6025 0    60   ~ 0
PwpRstb
Wire Wire Line
	4025 6025 4550 6025
Text Label 4025 4675 0    60   ~ 0
Temp_CATIA
Wire Wire Line
	4025 5275 4075 5275
$Sheet
S 6950 4275 1150 1850
U 5E130590
F0 "channel_D" 60
F1 "channel.sch" 60
F2 "Clk+" I L 6950 4875 60 
F3 "Clk-" I L 6950 4975 60 
F4 "In" I L 6950 4375 60 
F5 "Leak" I L 6950 4475 60 
F6 "I2C_Add_0" I L 6950 5275 60 
F7 "I2C_Add_1" I L 6950 5375 60 
F8 "I2C_Add_2" I L 6950 5475 60 
F9 "I2C_SCL" I L 6950 5075 60 
F10 "I2C_SDA" I L 6950 5175 60 
F11 "Calib_trigger" I L 6950 4575 60 
F12 "Tsensor" I L 6950 4675 60 
F13 "Dout0-" O R 8100 4475 60 
F14 "Dout0+" O R 8100 4375 60 
F15 "ReSync+" I L 6950 5625 60 
F16 "ReSync-" I L 6950 5725 60 
F17 "OVF" O R 8100 5275 60 
F18 "CalBusy" O R 8100 5375 60 
F19 "SEUD" O R 8100 5475 60 
F20 "SEUA" O R 8100 5575 60 
F21 "PllLock" O R 8100 5675 60 
F22 "CalIbMode" I L 6950 5825 60 
F23 "TestMode" I L 6950 5925 60 
F24 "PwpRstb" I L 6950 6025 60 
$EndSheet
Text Label 6425 4375 0    60   ~ 0
D_Ch
Text Label 6425 4475 0    60   ~ 0
D_Leak
Text Label 6425 4875 0    60   ~ 0
D_Clk+
Text Label 6425 4975 0    60   ~ 0
D_Clk-
Text Label 6425 5075 0    60   ~ 0
I2C_SCL
Text Label 6425 5175 0    60   ~ 0
I2C_SDA
Text Label 6425 4575 0    60   ~ 0
TP_trigger
Text Label 8150 5675 0    60   ~ 0
D_PllLock
Text Label 8150 4375 0    60   ~ 0
D_D0+
Text Label 8150 4475 0    60   ~ 0
D_D0-
Text Label 8150 5275 0    60   ~ 0
D_OVF
Text Label 8150 5375 0    60   ~ 0
D_CalBusy
Text Label 8150 5475 0    60   ~ 0
D_SEUD
Text Label 8150 5575 0    60   ~ 0
D_SEUA
$Comp
L power:GNDD #PWR0120
U 1 1 5E1305B0
P 6350 5375
F 0 "#PWR0120" H 6350 5125 50  0001 C CNN
F 1 "GNDD" H 6350 5225 50  0000 C CNN
F 2 "" H 6350 5375 50  0000 C CNN
F 3 "" H 6350 5375 50  0000 C CNN
	1    6350 5375
	1    0    0    -1  
$EndComp
Wire Wire Line
	6425 4375 6950 4375
Wire Wire Line
	6425 4475 6950 4475
Wire Wire Line
	6425 4875 6950 4875
Wire Wire Line
	6425 4975 6950 4975
Wire Wire Line
	6425 5075 6950 5075
Wire Wire Line
	6425 5175 6950 5175
Wire Wire Line
	6425 4575 6950 4575
Wire Wire Line
	8400 4375 8100 4375
Wire Wire Line
	8400 5675 8100 5675
Wire Wire Line
	8400 5575 8100 5575
Wire Wire Line
	8400 5475 8100 5475
Wire Wire Line
	8400 5375 8100 5375
Wire Wire Line
	8400 5275 8100 5275
Wire Wire Line
	8400 4475 8100 4475
Wire Wire Line
	6425 5475 6950 5475
Wire Wire Line
	6950 4675 6425 4675
Text Label 6425 5625 0    60   ~ 0
ReSync+
Text Label 6425 5725 0    60   ~ 0
ReSync-
Wire Wire Line
	6425 5625 6950 5625
Wire Wire Line
	6425 5725 6950 5725
Text Label 6425 5825 0    60   ~ 0
CalibMode
Text Label 6425 5925 0    60   ~ 0
TestMode
Wire Wire Line
	6425 5825 6950 5825
Wire Wire Line
	6425 5925 6950 5925
Text Label 6425 6025 0    60   ~ 0
PwpRstb
Wire Wire Line
	6425 6025 6950 6025
Text Label 6425 4675 0    60   ~ 0
Temp_CATIA
Wire Wire Line
	6475 5275 6950 5275
$Sheet
S 9400 4275 1150 1850
U 5E1C420C
F0 "channel_E" 60
F1 "channel.sch" 60
F2 "Clk+" I L 9400 4875 60 
F3 "Clk-" I L 9400 4975 60 
F4 "In" I L 9400 4375 60 
F5 "Leak" I L 9400 4475 60 
F6 "I2C_Add_0" I L 9400 5275 60 
F7 "I2C_Add_1" I L 9400 5375 60 
F8 "I2C_Add_2" I L 9400 5475 60 
F9 "I2C_SCL" I L 9400 5075 60 
F10 "I2C_SDA" I L 9400 5175 60 
F11 "Calib_trigger" I L 9400 4575 60 
F12 "Tsensor" I L 9400 4675 60 
F13 "Dout0-" O R 10550 4475 60 
F14 "Dout0+" O R 10550 4375 60 
F15 "ReSync+" I L 9400 5625 60 
F16 "ReSync-" I L 9400 5725 60 
F17 "OVF" O R 10550 5275 60 
F18 "CalBusy" O R 10550 5375 60 
F19 "SEUD" O R 10550 5475 60 
F20 "SEUA" O R 10550 5575 60 
F21 "PllLock" O R 10550 5675 60 
F22 "CalIbMode" I L 9400 5825 60 
F23 "TestMode" I L 9400 5925 60 
F24 "PwpRstb" I L 9400 6025 60 
$EndSheet
Text Label 8875 4375 0    60   ~ 0
E_Ch
Text Label 8875 4475 0    60   ~ 0
E_Leak
Text Label 8875 4875 0    60   ~ 0
E_Clk+
Text Label 8875 4975 0    60   ~ 0
E_Clk-
Text Label 8875 5075 0    60   ~ 0
I2C_SCL
Text Label 8875 5175 0    60   ~ 0
I2C_SDA
Text Label 8875 4575 0    60   ~ 0
TP_trigger
Text Label 10600 5675 0    60   ~ 0
E_PllLock
Text Label 10600 4375 0    60   ~ 0
E_D0+
Text Label 10600 4475 0    60   ~ 0
E_D0-
Text Label 10600 5275 0    60   ~ 0
E_OVF
Text Label 10600 5375 0    60   ~ 0
E_CalBusy
Text Label 10600 5475 0    60   ~ 0
E_SEUD
Text Label 10600 5575 0    60   ~ 0
E_SEUA
$Comp
L power:GNDD #PWR0124
U 1 1 5E1C422C
P 8800 5375
F 0 "#PWR0124" H 8800 5125 50  0001 C CNN
F 1 "GNDD" H 8800 5225 50  0000 C CNN
F 2 "" H 8800 5375 50  0000 C CNN
F 3 "" H 8800 5375 50  0000 C CNN
	1    8800 5375
	1    0    0    -1  
$EndComp
Wire Wire Line
	8875 4375 9400 4375
Wire Wire Line
	8875 4475 9400 4475
Wire Wire Line
	8875 4875 9400 4875
Wire Wire Line
	8875 4975 9400 4975
Wire Wire Line
	8875 5075 9400 5075
Wire Wire Line
	8875 5175 9400 5175
Wire Wire Line
	8875 4575 9400 4575
Wire Wire Line
	10850 4375 10550 4375
Wire Wire Line
	10850 5675 10550 5675
Wire Wire Line
	10850 5575 10550 5575
Wire Wire Line
	10850 5475 10550 5475
Wire Wire Line
	10850 5375 10550 5375
Wire Wire Line
	10850 5275 10550 5275
Wire Wire Line
	10850 4475 10550 4475
Wire Wire Line
	8875 5475 9400 5475
Wire Wire Line
	9400 4675 8875 4675
Text Label 8875 5625 0    60   ~ 0
ReSync+
Text Label 8875 5725 0    60   ~ 0
ReSync-
Wire Wire Line
	8875 5625 9400 5625
Wire Wire Line
	8875 5725 9400 5725
Text Label 8875 5825 0    60   ~ 0
CalibMode
Text Label 8875 5925 0    60   ~ 0
TestMode
Wire Wire Line
	8875 5825 9400 5825
Wire Wire Line
	8875 5925 9400 5925
Text Label 8875 6025 0    60   ~ 0
PwpRstb
Wire Wire Line
	8875 6025 9400 6025
Text Label 8875 4675 0    60   ~ 0
Temp_CATIA
Wire Wire Line
	8875 5275 9400 5275
Wire Wire Line
	3950 5375 4025 5375
Wire Wire Line
	4025 5375 4025 5475
Wire Wire Line
	4075 5275 4075 5375
Connection ~ 4075 5275
Wire Wire Line
	4075 5275 4550 5275
Wire Wire Line
	3950 5325 4025 5325
Wire Wire Line
	4025 5325 4025 5275
Wire Wire Line
	6350 5375 6475 5375
Wire Wire Line
	6475 5375 6475 5275
Connection ~ 6475 5375
Wire Wire Line
	6475 5375 6950 5375
Wire Wire Line
	6350 5325 6425 5325
Wire Wire Line
	6425 5325 6425 5475
Wire Wire Line
	8800 5325 8875 5325
Wire Wire Line
	8875 5325 8875 5475
Wire Wire Line
	8875 5325 8875 5275
Connection ~ 8875 5325
Wire Wire Line
	8800 5375 9400 5375
$Comp
L MDJ_compo:V1P2D #PWR0125
U 1 1 5E463553
P 6350 2850
F 0 "#PWR0125" H 6350 2700 50  0001 C CNN
F 1 "V1P2D" H 6350 3000 50  0000 C CNN
F 2 "" H 6350 2850 50  0000 C CNN
F 3 "" H 6350 2850 50  0000 C CNN
	1    6350 2850
	1    0    0    -1  
$EndComp
$Comp
L MDJ_compo:V1P2D #PWR0123
U 1 1 5E4635D0
P 8800 5325
F 0 "#PWR0123" H 8800 5175 50  0001 C CNN
F 1 "V1P2D" H 8800 5475 50  0000 C CNN
F 2 "" H 8800 5325 50  0000 C CNN
F 3 "" H 8800 5325 50  0000 C CNN
	1    8800 5325
	1    0    0    -1  
$EndComp
$Comp
L MDJ_compo:V1P2D #PWR0119
U 1 1 5E4636D2
P 6350 5325
F 0 "#PWR0119" H 6350 5175 50  0001 C CNN
F 1 "V1P2D" H 6350 5475 50  0000 C CNN
F 2 "" H 6350 5325 50  0000 C CNN
F 3 "" H 6350 5325 50  0000 C CNN
	1    6350 5325
	1    0    0    -1  
$EndComp
$Comp
L MDJ_compo:V1P2D #PWR0111
U 1 1 5E463729
P 3950 5325
F 0 "#PWR0111" H 3950 5175 50  0001 C CNN
F 1 "V1P2D" H 3950 5475 50  0000 C CNN
F 2 "" H 3950 5325 50  0000 C CNN
F 3 "" H 3950 5325 50  0000 C CNN
	1    3950 5325
	1    0    0    -1  
$EndComp
$Comp
L MDJ_compo:V1P2D #PWR0101
U 1 1 5E463793
P 8800 2850
F 0 "#PWR0101" H 8800 2700 50  0001 C CNN
F 1 "V1P2D" H 8800 3000 50  0000 C CNN
F 2 "" H 8800 2850 50  0000 C CNN
F 3 "" H 8800 2850 50  0000 C CNN
	1    8800 2850
	1    0    0    -1  
$EndComp
$Comp
L power:GNDA #PWR0107
U 1 1 5E4DDE73
P 4650 2075
F 0 "#PWR0107" H 4650 1825 50  0001 C CNN
F 1 "GNDA" H 4650 1925 50  0000 C CNN
F 2 "" H 4650 2075 50  0000 C CNN
F 3 "" H 4650 2075 50  0000 C CNN
	1    4650 2075
	1    0    0    -1  
$EndComp
Text Label 750  6775 0    50   ~ 0
24A
Wire Wire Line
	1200 6775 750  6775
Wire Wire Line
	2300 1225 2750 1225
NoConn ~ 14800 2150
Wire Wire Line
	1100 925  1100 1225
Wire Wire Line
	825  1125 1200 1125
Wire Wire Line
	1100 4375 1100 4575
Wire Wire Line
	2400 4375 2400 4575
Wire Wire Line
	2400 925  2400 1025
Wire Wire Line
	925  925  925  1025
Wire Wire Line
	925  1025 1200 1025
Wire Wire Line
	825  925  825  1125
Wire Wire Line
	2300 6475 2400 6475
Connection ~ 2400 6475
Wire Wire Line
	2400 6475 2400 6975
Wire Wire Line
	2300 6175 2400 6175
Connection ~ 2400 6175
Wire Wire Line
	2400 6175 2400 6475
Wire Wire Line
	2300 5875 2400 5875
Connection ~ 2400 5875
Wire Wire Line
	2400 5875 2400 6175
Wire Wire Line
	1200 5975 1100 5975
Connection ~ 1100 5975
Wire Wire Line
	1100 5975 1100 6075
Wire Wire Line
	1200 6075 1100 6075
Connection ~ 1100 6075
Wire Wire Line
	1200 6375 1100 6375
Wire Wire Line
	1100 6075 1100 6275
Connection ~ 1100 6375
Wire Wire Line
	1100 6375 1100 6975
Wire Wire Line
	1200 6275 1100 6275
Connection ~ 1100 6275
Wire Wire Line
	1100 6275 1100 6375
Wire Wire Line
	1200 5575 1100 5575
Connection ~ 1100 5575
Wire Wire Line
	1100 5575 1100 5975
Wire Wire Line
	1200 5475 1100 5475
Connection ~ 1100 5475
Wire Wire Line
	1100 5475 1100 5575
Wire Wire Line
	2300 5375 2400 5375
Connection ~ 2400 5375
Wire Wire Line
	2300 5675 2400 5675
Wire Wire Line
	2400 5375 2400 5675
Connection ~ 2400 5675
Wire Wire Line
	2400 5675 2400 5875
Wire Wire Line
	2300 5075 2400 5075
Connection ~ 2400 5075
Wire Wire Line
	2400 5075 2400 5375
Wire Wire Line
	2300 4875 2400 4875
Connection ~ 2400 4875
Wire Wire Line
	2400 4875 2400 5075
Wire Wire Line
	2300 4575 2400 4575
Connection ~ 2400 4575
Wire Wire Line
	2400 4575 2400 4875
Wire Wire Line
	1200 4575 1100 4575
Connection ~ 1100 4575
Wire Wire Line
	1100 4575 1100 4675
Wire Wire Line
	1200 4675 1100 4675
Connection ~ 1100 4675
Wire Wire Line
	1100 4675 1100 4775
Wire Wire Line
	1200 4775 1100 4775
Connection ~ 1100 4775
Wire Wire Line
	1100 4775 1100 5175
Wire Wire Line
	2300 3325 2400 3325
Connection ~ 2400 3325
Wire Wire Line
	2400 3325 2400 3525
Wire Wire Line
	2300 3025 2400 3025
Connection ~ 2400 3025
Wire Wire Line
	2400 3025 2400 3325
Wire Wire Line
	2300 2825 2400 2825
Connection ~ 2400 2825
Wire Wire Line
	2400 2825 2400 3025
Wire Wire Line
	2300 2525 2400 2525
Connection ~ 2400 2525
Wire Wire Line
	2400 2525 2400 2825
Wire Wire Line
	2300 2225 2400 2225
Connection ~ 2400 2225
Wire Wire Line
	2400 2225 2400 2525
Wire Wire Line
	2300 2025 2400 2025
Connection ~ 2400 2025
Wire Wire Line
	2400 2025 2400 2225
Wire Wire Line
	1200 2325 1100 2325
Connection ~ 1100 2325
Wire Wire Line
	1100 2325 1100 2425
Wire Wire Line
	1200 2425 1100 2425
Connection ~ 1100 2425
Wire Wire Line
	1100 2425 1100 2625
Wire Wire Line
	1200 2625 1100 2625
Connection ~ 1100 2625
Wire Wire Line
	1100 2625 1100 2725
Wire Wire Line
	1200 2725 1100 2725
Connection ~ 1100 2725
Wire Wire Line
	1100 2725 1100 3125
Wire Wire Line
	1200 3125 1100 3125
Connection ~ 1100 3125
Wire Wire Line
	1100 3125 1100 3225
Wire Wire Line
	1200 3225 1100 3225
Connection ~ 1100 3225
Wire Wire Line
	1100 3225 1100 3525
Wire Wire Line
	1200 1925 1100 1925
Connection ~ 1100 1925
Wire Wire Line
	1100 1925 1100 2325
Wire Wire Line
	1200 1825 1100 1825
Connection ~ 1100 1825
Wire Wire Line
	1100 1825 1100 1925
Wire Wire Line
	1200 1625 1100 1625
Connection ~ 1100 1625
Wire Wire Line
	1100 1625 1100 1825
Wire Wire Line
	1200 1525 1100 1525
Connection ~ 1100 1525
Wire Wire Line
	1100 1525 1100 1625
Wire Wire Line
	1200 1325 1100 1325
Connection ~ 1100 1325
Wire Wire Line
	1100 1325 1100 1525
Wire Wire Line
	1200 1225 1100 1225
Connection ~ 1100 1225
Wire Wire Line
	1100 1225 1100 1325
Wire Wire Line
	2300 1025 2400 1025
Connection ~ 2400 1025
Wire Wire Line
	2400 1025 2400 1125
Wire Wire Line
	2300 1125 2400 1125
Connection ~ 2400 1125
Wire Wire Line
	2400 1125 2400 1425
Wire Wire Line
	2300 1425 2400 1425
Connection ~ 2400 1425
Wire Wire Line
	2400 1425 2400 1725
Wire Wire Line
	2300 1725 2400 1725
Connection ~ 2400 1725
Wire Wire Line
	2400 1725 2400 2025
Wire Wire Line
	1200 5175 1100 5175
Connection ~ 1100 5175
Wire Wire Line
	1100 5175 1100 5275
Wire Wire Line
	1200 5275 1100 5275
Connection ~ 1100 5275
Wire Wire Line
	1100 5275 1100 5475
$Comp
L Device:R R103
U 1 1 5CCDFF5B
P 2925 1275
F 0 "R103" V 3005 1275 50  0000 C CNN
F 1 "100" V 2925 1275 50  0000 C CNN
F 2 "Resistor_SMD:R_0402_1005Metric" V 2855 1275 50  0001 C CNN
F 3 "" H 2925 1275 50  0000 C CNN
	1    2925 1275
	-1   0    0    -1  
$EndComp
Wire Wire Line
	2750 1225 2750 1125
Wire Wire Line
	2750 1125 2925 1125
Wire Wire Line
	2750 1325 2750 1425
Wire Wire Line
	2750 1425 2925 1425
Text Label 2925 7500 0    50   ~ 0
Temp_APD
Text Label 2925 7225 0    50   ~ 0
TP_trigger
Wire Wire Line
	2925 7225 3325 7225
$Comp
L Device:R R?
U 1 1 5CD1AC36
P 3475 7225
AR Path="/59140D2B/5CD1AC36" Ref="R?"  Part="1" 
AR Path="/5B5208C5/5CD1AC36" Ref="R?"  Part="1" 
AR Path="/5E0256B5/5CD1AC36" Ref="R?"  Part="1" 
AR Path="/5E108C88/5CD1AC36" Ref="R?"  Part="1" 
AR Path="/5E130590/5CD1AC36" Ref="R?"  Part="1" 
AR Path="/5E1C420C/5CD1AC36" Ref="R?"  Part="1" 
AR Path="/5CD1AC36" Ref="R106"  Part="1" 
F 0 "R106" V 3555 7225 50  0000 C CNN
F 1 "0" V 3475 7225 39  0000 C CNN
F 2 "Resistor_SMD:R_0402_1005Metric" V 3405 7225 50  0001 C CNN
F 3 "" H 3475 7225 50  0000 C CNN
	1    3475 7225
	0    -1   -1   0   
$EndComp
Wire Wire Line
	3625 7225 3925 7225
Text Label 3750 7225 0    60   ~ 0
24A
Wire Wire Line
	2925 7325 3325 7325
$Comp
L Device:R R?
U 1 1 5CD1AC40
P 3475 7325
AR Path="/59140D2B/5CD1AC40" Ref="R?"  Part="1" 
AR Path="/5B5208C5/5CD1AC40" Ref="R?"  Part="1" 
AR Path="/5E0256B5/5CD1AC40" Ref="R?"  Part="1" 
AR Path="/5E108C88/5CD1AC40" Ref="R?"  Part="1" 
AR Path="/5E130590/5CD1AC40" Ref="R?"  Part="1" 
AR Path="/5E1C420C/5CD1AC40" Ref="R?"  Part="1" 
AR Path="/5CD1AC40" Ref="R107"  Part="1" 
F 0 "R107" V 3450 7125 50  0000 C CNN
F 1 "0" V 3475 7325 39  0000 C CNN
F 2 "Resistor_SMD:R_0402_1005Metric" V 3405 7325 50  0001 C CNN
F 3 "" H 3475 7325 50  0000 C CNN
	1    3475 7325
	0    -1   -1   0   
$EndComp
Wire Wire Line
	3625 7325 3625 7225
Connection ~ 3625 7225
Wire Wire Line
	2925 7500 3325 7500
$Comp
L Device:R R?
U 1 1 5CD1AC4A
P 3475 7500
AR Path="/59140D2B/5CD1AC4A" Ref="R?"  Part="1" 
AR Path="/5B5208C5/5CD1AC4A" Ref="R?"  Part="1" 
AR Path="/5E0256B5/5CD1AC4A" Ref="R?"  Part="1" 
AR Path="/5E108C88/5CD1AC4A" Ref="R?"  Part="1" 
AR Path="/5E130590/5CD1AC4A" Ref="R?"  Part="1" 
AR Path="/5E1C420C/5CD1AC4A" Ref="R?"  Part="1" 
AR Path="/5CD1AC4A" Ref="R108"  Part="1" 
F 0 "R108" V 3555 7500 50  0000 C CNN
F 1 "0" V 3475 7500 39  0000 C CNN
F 2 "Resistor_SMD:R_0402_1005Metric" V 3405 7500 50  0001 C CNN
F 3 "" H 3475 7500 50  0000 C CNN
	1    3475 7500
	0    -1   -1   0   
$EndComp
Wire Wire Line
	3625 7500 3925 7500
Text Label 3750 7500 0    60   ~ 0
24B
Wire Wire Line
	2925 7600 3325 7600
$Comp
L Device:R R?
U 1 1 5CD1AC54
P 3475 7600
AR Path="/59140D2B/5CD1AC54" Ref="R?"  Part="1" 
AR Path="/5B5208C5/5CD1AC54" Ref="R?"  Part="1" 
AR Path="/5E0256B5/5CD1AC54" Ref="R?"  Part="1" 
AR Path="/5E108C88/5CD1AC54" Ref="R?"  Part="1" 
AR Path="/5E130590/5CD1AC54" Ref="R?"  Part="1" 
AR Path="/5E1C420C/5CD1AC54" Ref="R?"  Part="1" 
AR Path="/5CD1AC54" Ref="R109"  Part="1" 
F 0 "R109" V 3450 7400 50  0000 C CNN
F 1 "0" V 3475 7600 39  0000 C CNN
F 2 "Resistor_SMD:R_0402_1005Metric" V 3405 7600 50  0001 C CNN
F 3 "" H 3475 7600 50  0000 C CNN
	1    3475 7600
	0    -1   -1   0   
$EndComp
Wire Wire Line
	3625 7600 3625 7500
Connection ~ 3625 7500
Wire Wire Line
	2925 6950 3325 6950
$Comp
L Device:R R?
U 1 1 5CD1AC5E
P 3475 6950
AR Path="/59140D2B/5CD1AC5E" Ref="R?"  Part="1" 
AR Path="/5B5208C5/5CD1AC5E" Ref="R?"  Part="1" 
AR Path="/5E0256B5/5CD1AC5E" Ref="R?"  Part="1" 
AR Path="/5E108C88/5CD1AC5E" Ref="R?"  Part="1" 
AR Path="/5E130590/5CD1AC5E" Ref="R?"  Part="1" 
AR Path="/5E1C420C/5CD1AC5E" Ref="R?"  Part="1" 
AR Path="/5CD1AC5E" Ref="R104"  Part="1" 
F 0 "R104" V 3555 6950 50  0000 C CNN
F 1 "0" V 3475 6950 39  0000 C CNN
F 2 "Resistor_SMD:R_0402_1005Metric" V 3405 6950 50  0001 C CNN
F 3 "" H 3475 6950 50  0000 C CNN
	1    3475 6950
	0    -1   -1   0   
$EndComp
Wire Wire Line
	3625 6950 3925 6950
Text Label 3750 6950 0    60   ~ 0
23A
Text Label 2925 6950 0    50   ~ 0
TestMode
Wire Wire Line
	2925 7050 3325 7050
$Comp
L Device:R R?
U 1 1 5CD1AC69
P 3475 7050
AR Path="/59140D2B/5CD1AC69" Ref="R?"  Part="1" 
AR Path="/5B5208C5/5CD1AC69" Ref="R?"  Part="1" 
AR Path="/5E0256B5/5CD1AC69" Ref="R?"  Part="1" 
AR Path="/5E108C88/5CD1AC69" Ref="R?"  Part="1" 
AR Path="/5E130590/5CD1AC69" Ref="R?"  Part="1" 
AR Path="/5E1C420C/5CD1AC69" Ref="R?"  Part="1" 
AR Path="/5CD1AC69" Ref="R105"  Part="1" 
F 0 "R105" V 3450 6850 50  0000 C CNN
F 1 "0" V 3475 7050 39  0000 C CNN
F 2 "Resistor_SMD:R_0402_1005Metric" V 3405 7050 50  0001 C CNN
F 3 "" H 3475 7050 50  0000 C CNN
	1    3475 7050
	0    -1   -1   0   
$EndComp
Text Label 2925 7050 0    50   ~ 0
Temp_APD
Wire Wire Line
	3625 7050 3625 6950
Connection ~ 3625 6950
Text Label 2925 7325 0    50   ~ 0
Temp_CATIA
Text Label 2925 7600 0    50   ~ 0
TP_trigger
Text Label 4125 7225 0    50   ~ 0
Temp_CATIA
Text Label 4125 6950 0    50   ~ 0
CalibMode
Wire Wire Line
	4125 6950 4525 6950
$Comp
L Device:R R?
U 1 1 5CD58543
P 4675 6950
AR Path="/59140D2B/5CD58543" Ref="R?"  Part="1" 
AR Path="/5B5208C5/5CD58543" Ref="R?"  Part="1" 
AR Path="/5E0256B5/5CD58543" Ref="R?"  Part="1" 
AR Path="/5E108C88/5CD58543" Ref="R?"  Part="1" 
AR Path="/5E130590/5CD58543" Ref="R?"  Part="1" 
AR Path="/5E1C420C/5CD58543" Ref="R?"  Part="1" 
AR Path="/5CD58543" Ref="R110"  Part="1" 
AR Path="/5CCDF17D/5CD58543" Ref="R?"  Part="1" 
F 0 "R110" V 4755 6950 50  0000 C CNN
F 1 "0" V 4675 6950 39  0000 C CNN
F 2 "Resistor_SMD:R_0402_1005Metric" V 4605 6950 50  0001 C CNN
F 3 "" H 4675 6950 50  0000 C CNN
	1    4675 6950
	0    -1   -1   0   
$EndComp
Wire Wire Line
	4825 6950 5125 6950
Text Label 4950 6950 0    60   ~ 0
25A
Wire Wire Line
	4125 7050 4525 7050
$Comp
L Device:R R?
U 1 1 5CD5854D
P 4675 7050
AR Path="/59140D2B/5CD5854D" Ref="R?"  Part="1" 
AR Path="/5B5208C5/5CD5854D" Ref="R?"  Part="1" 
AR Path="/5E0256B5/5CD5854D" Ref="R?"  Part="1" 
AR Path="/5E108C88/5CD5854D" Ref="R?"  Part="1" 
AR Path="/5E130590/5CD5854D" Ref="R?"  Part="1" 
AR Path="/5E1C420C/5CD5854D" Ref="R?"  Part="1" 
AR Path="/5CD5854D" Ref="R111"  Part="1" 
AR Path="/5CCDF17D/5CD5854D" Ref="R?"  Part="1" 
F 0 "R111" V 4650 6850 50  0000 C CNN
F 1 "0" V 4675 7050 39  0000 C CNN
F 2 "Resistor_SMD:R_0402_1005Metric" V 4605 7050 50  0001 C CNN
F 3 "" H 4675 7050 50  0000 C CNN
	1    4675 7050
	0    -1   -1   0   
$EndComp
Wire Wire Line
	4825 7050 4825 6950
Connection ~ 4825 6950
Wire Wire Line
	4125 7225 4525 7225
$Comp
L Device:R R?
U 1 1 5CD58557
P 4675 7225
AR Path="/59140D2B/5CD58557" Ref="R?"  Part="1" 
AR Path="/5B5208C5/5CD58557" Ref="R?"  Part="1" 
AR Path="/5E0256B5/5CD58557" Ref="R?"  Part="1" 
AR Path="/5E108C88/5CD58557" Ref="R?"  Part="1" 
AR Path="/5E130590/5CD58557" Ref="R?"  Part="1" 
AR Path="/5E1C420C/5CD58557" Ref="R?"  Part="1" 
AR Path="/5CD58557" Ref="R112"  Part="1" 
AR Path="/5CCDF17D/5CD58557" Ref="R?"  Part="1" 
F 0 "R112" V 4755 7225 50  0000 C CNN
F 1 "0" V 4675 7225 39  0000 C CNN
F 2 "Resistor_SMD:R_0402_1005Metric" V 4605 7225 50  0001 C CNN
F 3 "" H 4675 7225 50  0000 C CNN
	1    4675 7225
	0    -1   -1   0   
$EndComp
Wire Wire Line
	4825 7225 5125 7225
Text Label 4950 7225 0    60   ~ 0
25B
Wire Wire Line
	4125 7325 4525 7325
$Comp
L Device:R R?
U 1 1 5CD58561
P 4675 7325
AR Path="/59140D2B/5CD58561" Ref="R?"  Part="1" 
AR Path="/5B5208C5/5CD58561" Ref="R?"  Part="1" 
AR Path="/5E0256B5/5CD58561" Ref="R?"  Part="1" 
AR Path="/5E108C88/5CD58561" Ref="R?"  Part="1" 
AR Path="/5E130590/5CD58561" Ref="R?"  Part="1" 
AR Path="/5E1C420C/5CD58561" Ref="R?"  Part="1" 
AR Path="/5CD58561" Ref="R113"  Part="1" 
AR Path="/5CCDF17D/5CD58561" Ref="R?"  Part="1" 
F 0 "R113" V 4650 7125 50  0000 C CNN
F 1 "0" V 4675 7325 39  0000 C CNN
F 2 "Resistor_SMD:R_0402_1005Metric" V 4605 7325 50  0001 C CNN
F 3 "" H 4675 7325 50  0000 C CNN
	1    4675 7325
	0    -1   -1   0   
$EndComp
Wire Wire Line
	4825 7325 4825 7225
Connection ~ 4825 7225
Text Label 4125 7050 0    50   ~ 0
TestMode
Text Label 4125 7325 0    50   ~ 0
CalibMode
Wire Wire Line
	6300 1050 6400 1050
$Comp
L Device:R R?
U 1 1 5CD98387
P 6550 1050
AR Path="/59140D2B/5CD98387" Ref="R?"  Part="1" 
AR Path="/5B5208C5/5CD98387" Ref="R?"  Part="1" 
AR Path="/5E0256B5/5CD98387" Ref="R?"  Part="1" 
AR Path="/5E108C88/5CD98387" Ref="R?"  Part="1" 
AR Path="/5E130590/5CD98387" Ref="R?"  Part="1" 
AR Path="/5E1C420C/5CD98387" Ref="R?"  Part="1" 
AR Path="/5CD98387" Ref="R116"  Part="1" 
AR Path="/5CCDF17D/5CD98387" Ref="R?"  Part="1" 
F 0 "R116" V 6630 1050 50  0000 C CNN
F 1 "100" V 6550 1050 39  0000 C CNN
F 2 "Resistor_SMD:R_0402_1005Metric" V 6480 1050 50  0001 C CNN
F 3 "" H 6550 1050 50  0000 C CNN
	1    6550 1050
	0    -1   -1   0   
$EndComp
Wire Wire Line
	6300 1200 6300 1050
Wire Wire Line
	6500 1200 6500 1150
Wire Wire Line
	6500 1150 6625 1150
$Comp
L power:GNDD #PWR?
U 1 1 5CD98391
P 6300 1500
AR Path="/59140D2B/5CD98391" Ref="#PWR?"  Part="1" 
AR Path="/5B5208C5/5CD98391" Ref="#PWR?"  Part="1" 
AR Path="/5E0256B5/5CD98391" Ref="#PWR?"  Part="1" 
AR Path="/5E108C88/5CD98391" Ref="#PWR?"  Part="1" 
AR Path="/5E130590/5CD98391" Ref="#PWR?"  Part="1" 
AR Path="/5E1C420C/5CD98391" Ref="#PWR?"  Part="1" 
AR Path="/5CD98391" Ref="#PWR0131"  Part="1" 
AR Path="/5CCDF17D/5CD98391" Ref="#PWR?"  Part="1" 
F 0 "#PWR0131" H 6300 1250 50  0001 C CNN
F 1 "GNDD" H 6300 1375 39  0000 C CNN
F 2 "" H 6300 1500 50  0001 C CNN
F 3 "" H 6300 1500 50  0001 C CNN
	1    6300 1500
	1    0    0    -1  
$EndComp
$Comp
L power:GNDD #PWR?
U 1 1 5CD98397
P 6500 1500
AR Path="/59140D2B/5CD98397" Ref="#PWR?"  Part="1" 
AR Path="/5B5208C5/5CD98397" Ref="#PWR?"  Part="1" 
AR Path="/5E0256B5/5CD98397" Ref="#PWR?"  Part="1" 
AR Path="/5E108C88/5CD98397" Ref="#PWR?"  Part="1" 
AR Path="/5E130590/5CD98397" Ref="#PWR?"  Part="1" 
AR Path="/5E1C420C/5CD98397" Ref="#PWR?"  Part="1" 
AR Path="/5CD98397" Ref="#PWR0132"  Part="1" 
AR Path="/5CCDF17D/5CD98397" Ref="#PWR?"  Part="1" 
F 0 "#PWR0132" H 6500 1250 50  0001 C CNN
F 1 "GNDD" H 6500 1375 39  0000 C CNN
F 2 "" H 6500 1500 50  0001 C CNN
F 3 "" H 6500 1500 50  0001 C CNN
	1    6500 1500
	1    0    0    -1  
$EndComp
$Comp
L Device:R R?
U 1 1 5CD9839D
P 6775 1150
AR Path="/59140D2B/5CD9839D" Ref="R?"  Part="1" 
AR Path="/5B5208C5/5CD9839D" Ref="R?"  Part="1" 
AR Path="/5E0256B5/5CD9839D" Ref="R?"  Part="1" 
AR Path="/5E108C88/5CD9839D" Ref="R?"  Part="1" 
AR Path="/5E130590/5CD9839D" Ref="R?"  Part="1" 
AR Path="/5E1C420C/5CD9839D" Ref="R?"  Part="1" 
AR Path="/5CD9839D" Ref="R117"  Part="1" 
AR Path="/5CCDF17D/5CD9839D" Ref="R?"  Part="1" 
F 0 "R117" V 6855 1150 50  0000 C CNN
F 1 "100" V 6775 1150 39  0000 C CNN
F 2 "Resistor_SMD:R_0402_1005Metric" V 6705 1150 50  0001 C CNN
F 3 "" H 6775 1150 50  0000 C CNN
	1    6775 1150
	0    -1   -1   0   
$EndComp
$Comp
L Device:C C?
U 1 1 5CD983A4
P 6500 1350
AR Path="/59140D2B/5CD983A4" Ref="C?"  Part="1" 
AR Path="/5B5208C5/5CD983A4" Ref="C?"  Part="1" 
AR Path="/5E0256B5/5CD983A4" Ref="C?"  Part="1" 
AR Path="/5E108C88/5CD983A4" Ref="C?"  Part="1" 
AR Path="/5E130590/5CD983A4" Ref="C?"  Part="1" 
AR Path="/5E1C420C/5CD983A4" Ref="C?"  Part="1" 
AR Path="/5CD983A4" Ref="C103"  Part="1" 
AR Path="/5CCDF17D/5CD983A4" Ref="C?"  Part="1" 
F 0 "C103" H 6450 1450 50  0000 L CNN
F 1 "100p" H 6525 1250 39  0000 L CNN
F 2 "Capacitor_SMD:C_0402_1005Metric" H 6538 1200 50  0001 C CNN
F 3 "" H 6500 1350 50  0000 C CNN
	1    6500 1350
	1    0    0    -1  
$EndComp
$Comp
L Device:C C?
U 1 1 5CD983AB
P 6300 1350
AR Path="/59140D2B/5CD983AB" Ref="C?"  Part="1" 
AR Path="/5B5208C5/5CD983AB" Ref="C?"  Part="1" 
AR Path="/5E0256B5/5CD983AB" Ref="C?"  Part="1" 
AR Path="/5E108C88/5CD983AB" Ref="C?"  Part="1" 
AR Path="/5E130590/5CD983AB" Ref="C?"  Part="1" 
AR Path="/5E1C420C/5CD983AB" Ref="C?"  Part="1" 
AR Path="/5CD983AB" Ref="C102"  Part="1" 
AR Path="/5CCDF17D/5CD983AB" Ref="C?"  Part="1" 
F 0 "C102" H 6250 1450 50  0000 L CNN
F 1 "100p" H 6325 1250 39  0000 L CNN
F 2 "Capacitor_SMD:C_0402_1005Metric" H 6338 1200 50  0001 C CNN
F 3 "" H 6300 1350 50  0000 C CNN
	1    6300 1350
	1    0    0    -1  
$EndComp
$Comp
L Device:R R?
U 1 1 5CD983B2
P 6075 1050
AR Path="/59140D2B/5CD983B2" Ref="R?"  Part="1" 
AR Path="/5B5208C5/5CD983B2" Ref="R?"  Part="1" 
AR Path="/5E0256B5/5CD983B2" Ref="R?"  Part="1" 
AR Path="/5E108C88/5CD983B2" Ref="R?"  Part="1" 
AR Path="/5E130590/5CD983B2" Ref="R?"  Part="1" 
AR Path="/5E1C420C/5CD983B2" Ref="R?"  Part="1" 
AR Path="/5CD983B2" Ref="R115"  Part="1" 
AR Path="/5CCDF17D/5CD983B2" Ref="R?"  Part="1" 
F 0 "R115" V 6155 1050 50  0000 C CNN
F 1 "100" V 6075 1050 39  0000 C CNN
F 2 "Resistor_SMD:R_0402_1005Metric" V 6005 1050 50  0001 C CNN
F 3 "" H 6075 1050 50  0000 C CNN
	1    6075 1050
	0    -1   -1   0   
$EndComp
$Comp
L Device:R R?
U 1 1 5CD983B9
P 5850 1150
AR Path="/59140D2B/5CD983B9" Ref="R?"  Part="1" 
AR Path="/5B5208C5/5CD983B9" Ref="R?"  Part="1" 
AR Path="/5E0256B5/5CD983B9" Ref="R?"  Part="1" 
AR Path="/5E108C88/5CD983B9" Ref="R?"  Part="1" 
AR Path="/5E130590/5CD983B9" Ref="R?"  Part="1" 
AR Path="/5E1C420C/5CD983B9" Ref="R?"  Part="1" 
AR Path="/5CD983B9" Ref="R114"  Part="1" 
AR Path="/5CCDF17D/5CD983B9" Ref="R?"  Part="1" 
F 0 "R114" V 5930 1150 50  0000 C CNN
F 1 "100" V 5850 1150 39  0000 C CNN
F 2 "Resistor_SMD:R_0402_1005Metric" V 5780 1150 50  0001 C CNN
F 3 "" H 5850 1150 50  0000 C CNN
	1    5850 1150
	0    -1   -1   0   
$EndComp
Wire Wire Line
	6225 1050 6300 1050
Connection ~ 6300 1050
Wire Wire Line
	6000 1150 6500 1150
Connection ~ 6500 1150
Wire Wire Line
	5925 1050 5375 1050
Wire Wire Line
	5700 1150 5375 1150
Text Label 5375 1050 0    39   ~ 0
I2C_SCL_in
Text Label 5375 1150 0    39   ~ 0
I2C_SDA_in
Text Label 7025 1050 0    39   ~ 0
I2C_SCL
Text Label 7025 1150 0    39   ~ 0
I2C_SDA
$Comp
L Device:R R?
U 1 1 5CD983CA
P 7275 850
AR Path="/5CCDF17D/5CD983CA" Ref="R?"  Part="1" 
AR Path="/5CD983CA" Ref="R118"  Part="1" 
F 0 "R118" V 7355 850 50  0000 C CNN
F 1 "1k" V 7275 850 50  0000 C CNN
F 2 "Resistor_SMD:R_0402_1005Metric" V 7205 850 50  0001 C CNN
F 3 "" H 7275 850 50  0000 C CNN
	1    7275 850 
	-1   0    0    1   
$EndComp
$Comp
L Device:R R?
U 1 1 5CD983D1
P 7425 850
AR Path="/5CCDF17D/5CD983D1" Ref="R?"  Part="1" 
AR Path="/5CD983D1" Ref="R119"  Part="1" 
F 0 "R119" V 7505 850 50  0000 C CNN
F 1 "1k" V 7425 850 50  0000 C CNN
F 2 "Resistor_SMD:R_0402_1005Metric" V 7355 850 50  0001 C CNN
F 3 "" H 7425 850 50  0000 C CNN
	1    7425 850 
	-1   0    0    -1  
$EndComp
$Comp
L MDJ_compo:V1P2D #PWR?
U 1 1 5CD983D8
P 7275 700
AR Path="/5CCDF17D/5CD983D8" Ref="#PWR?"  Part="1" 
AR Path="/5CD983D8" Ref="#PWR0138"  Part="1" 
F 0 "#PWR0138" H 7275 550 50  0001 C CNN
F 1 "V1P2D" H 7275 825 50  0000 C CNN
F 2 "" H 7275 700 50  0000 C CNN
F 3 "" H 7275 700 50  0000 C CNN
	1    7275 700 
	1    0    0    -1  
$EndComp
Wire Wire Line
	7425 700  7275 700 
Connection ~ 7275 700 
Wire Wire Line
	7275 1050 7275 1000
Wire Wire Line
	6700 1050 7275 1050
Wire Wire Line
	7425 1150 7425 1000
Wire Wire Line
	6925 1150 7425 1150
$Comp
L Device:C C?
U 1 1 5CD983E4
P 7600 850
AR Path="/59140D2B/5CD983E4" Ref="C?"  Part="1" 
AR Path="/5B5208C5/5CD983E4" Ref="C?"  Part="1" 
AR Path="/5E0256B5/5CD983E4" Ref="C?"  Part="1" 
AR Path="/5E108C88/5CD983E4" Ref="C?"  Part="1" 
AR Path="/5E130590/5CD983E4" Ref="C?"  Part="1" 
AR Path="/5E1C420C/5CD983E4" Ref="C?"  Part="1" 
AR Path="/5CD983E4" Ref="C104"  Part="1" 
AR Path="/5CCDF17D/5CD983E4" Ref="C?"  Part="1" 
F 0 "C104" H 7550 950 50  0000 L CNN
F 1 "10u" H 7625 750 39  0000 L CNN
F 2 "Capacitor_SMD:C_0402_1005Metric" H 7638 700 50  0001 C CNN
F 3 "" H 7600 850 50  0000 C CNN
	1    7600 850 
	1    0    0    -1  
$EndComp
Wire Wire Line
	7425 700  7600 700 
Connection ~ 7425 700 
$Comp
L power:GNDD #PWR?
U 1 1 5CD983ED
P 7600 1000
AR Path="/59140D2B/5CD983ED" Ref="#PWR?"  Part="1" 
AR Path="/5B5208C5/5CD983ED" Ref="#PWR?"  Part="1" 
AR Path="/5E0256B5/5CD983ED" Ref="#PWR?"  Part="1" 
AR Path="/5E108C88/5CD983ED" Ref="#PWR?"  Part="1" 
AR Path="/5E130590/5CD983ED" Ref="#PWR?"  Part="1" 
AR Path="/5E1C420C/5CD983ED" Ref="#PWR?"  Part="1" 
AR Path="/5CD983ED" Ref="#PWR0147"  Part="1" 
AR Path="/5CCDF17D/5CD983ED" Ref="#PWR?"  Part="1" 
F 0 "#PWR0147" H 7600 750 50  0001 C CNN
F 1 "GNDD" H 7600 875 39  0000 C CNN
F 2 "" H 7600 1000 50  0001 C CNN
F 3 "" H 7600 1000 50  0001 C CNN
	1    7600 1000
	1    0    0    -1  
$EndComp
$Comp
L Device:C C?
U 1 1 5D142BF7
P 575 775
AR Path="/59140D2B/5D142BF7" Ref="C?"  Part="1" 
AR Path="/5B5208C5/5D142BF7" Ref="C?"  Part="1" 
AR Path="/5E0256B5/5D142BF7" Ref="C?"  Part="1" 
AR Path="/5E108C88/5D142BF7" Ref="C?"  Part="1" 
AR Path="/5E130590/5D142BF7" Ref="C?"  Part="1" 
AR Path="/5E1C420C/5D142BF7" Ref="C?"  Part="1" 
AR Path="/5D142BF7" Ref="C101"  Part="1" 
AR Path="/5CCDF17D/5D142BF7" Ref="C?"  Part="1" 
F 0 "C101" H 525 875 50  0000 L CNN
F 1 "10u" H 600 675 39  0000 L CNN
F 2 "Capacitor_SMD:C_0402_1005Metric" H 613 625 50  0001 C CNN
F 3 "" H 575 775 50  0000 C CNN
	1    575  775 
	1    0    0    -1  
$EndComp
Connection ~ 825  625 
Wire Wire Line
	825  625  925  625 
Wire Wire Line
	650  625  825  625 
Wire Wire Line
	650  625  575  625 
Connection ~ 650  625 
$Comp
L power:GNDD #PWR?
U 1 1 5D2DF71B
P 575 925
AR Path="/59140D2B/5D2DF71B" Ref="#PWR?"  Part="1" 
AR Path="/5B5208C5/5D2DF71B" Ref="#PWR?"  Part="1" 
AR Path="/5E0256B5/5D2DF71B" Ref="#PWR?"  Part="1" 
AR Path="/5E108C88/5D2DF71B" Ref="#PWR?"  Part="1" 
AR Path="/5E130590/5D2DF71B" Ref="#PWR?"  Part="1" 
AR Path="/5E1C420C/5D2DF71B" Ref="#PWR?"  Part="1" 
AR Path="/5D2DF71B" Ref="#PWR0148"  Part="1" 
AR Path="/5CCDF17D/5D2DF71B" Ref="#PWR?"  Part="1" 
F 0 "#PWR0148" H 575 675 50  0001 C CNN
F 1 "GNDD" H 575 800 39  0000 C CNN
F 2 "" H 575 925 50  0001 C CNN
F 3 "" H 575 925 50  0001 C CNN
	1    575  925 
	1    0    0    -1  
$EndComp
$EndSCHEMATC
