%FSLAX45Y45*%
G04 Gerber Fmt 4.5, Leading zero omitted, Abs format (unit mm)*
G04 Created by KiCad (PCBNEW 5.0.2-5.fc29) date mar. 04 juin 2019 12:09:47 CEST*
%MOMM*%
%LPD*%
G01*
G04 APERTURE LIST*
%ADD10C,0.150000*%
%ADD11C,0.200000*%
%ADD12C,0.300000*%
G04 APERTURE END LIST*
D10*
X7300000Y-4700400D02*
X6000000Y-4700400D01*
X7300000Y-4000400D02*
X7300000Y-4700400D01*
X11099800Y-4000500D02*
X7300000Y-4000400D01*
X11100000Y-4700400D02*
X11100000Y-4000400D01*
X12300000Y-4700400D02*
X11100000Y-4700400D01*
X12300000Y-4000400D02*
X12300000Y-4700400D01*
X16100000Y-4000400D02*
X12300000Y-4000400D01*
X16100000Y-4700400D02*
X16100000Y-4000400D01*
X17400000Y-4700400D02*
X16100000Y-4700400D01*
X17400000Y-12200400D02*
X17400000Y-4700400D01*
X15600000Y-12200400D02*
X17400000Y-12200400D01*
X15600000Y-13030400D02*
X15600000Y-12200400D01*
X7800000Y-13030400D02*
X15600000Y-13030400D01*
X7800000Y-12200400D02*
X7800000Y-13030400D01*
X6000000Y-12200400D02*
X7800000Y-12200400D01*
X6000000Y-4700400D02*
X6000000Y-12200400D01*
D11*
X7375000Y-4390400D02*
X7535000Y-4550400D01*
X7535000Y-4390400D02*
X7375000Y-4550400D01*
X10865000Y-4390400D02*
X11025000Y-4550400D01*
X11025000Y-4390400D02*
X10865000Y-4550400D01*
X12375000Y-4390400D02*
X12535000Y-4550400D01*
X12535000Y-4390400D02*
X12375000Y-4550400D01*
X15865000Y-4390400D02*
X16025000Y-4550400D01*
X16025000Y-4390400D02*
X15865000Y-4550400D01*
D12*
X6278928Y-13503614D02*
X6278928Y-13203614D01*
X6350357Y-13203614D01*
X6393214Y-13217900D01*
X6421786Y-13246471D01*
X6436071Y-13275043D01*
X6450357Y-13332186D01*
X6450357Y-13375043D01*
X6436071Y-13432186D01*
X6421786Y-13460757D01*
X6393214Y-13489329D01*
X6350357Y-13503614D01*
X6278928Y-13503614D01*
X6578928Y-13503614D02*
X6578928Y-13303614D01*
X6578928Y-13360757D02*
X6593214Y-13332186D01*
X6607500Y-13317900D01*
X6636071Y-13303614D01*
X6664643Y-13303614D01*
X6764643Y-13503614D02*
X6764643Y-13303614D01*
X6764643Y-13203614D02*
X6750357Y-13217900D01*
X6764643Y-13232186D01*
X6778928Y-13217900D01*
X6764643Y-13203614D01*
X6764643Y-13232186D01*
X6950357Y-13503614D02*
X6921786Y-13489329D01*
X6907500Y-13460757D01*
X6907500Y-13203614D01*
X7107500Y-13503614D02*
X7078928Y-13489329D01*
X7064643Y-13460757D01*
X7064643Y-13203614D01*
X7450357Y-13503614D02*
X7450357Y-13203614D01*
X7550357Y-13417900D01*
X7650357Y-13203614D01*
X7650357Y-13503614D01*
X7921786Y-13503614D02*
X7921786Y-13346471D01*
X7907500Y-13317900D01*
X7878928Y-13303614D01*
X7821786Y-13303614D01*
X7793214Y-13317900D01*
X7921786Y-13489329D02*
X7893214Y-13503614D01*
X7821786Y-13503614D01*
X7793214Y-13489329D01*
X7778928Y-13460757D01*
X7778928Y-13432186D01*
X7793214Y-13403614D01*
X7821786Y-13389329D01*
X7893214Y-13389329D01*
X7921786Y-13375043D01*
X8064643Y-13303614D02*
X8064643Y-13603614D01*
X8064643Y-13317900D02*
X8093214Y-13303614D01*
X8150357Y-13303614D01*
X8178928Y-13317900D01*
X8193214Y-13332186D01*
X8207500Y-13360757D01*
X8207500Y-13446471D01*
X8193214Y-13475043D01*
X8178928Y-13489329D01*
X8150357Y-13503614D01*
X8093214Y-13503614D01*
X8064643Y-13489329D01*
X8336071Y-13475043D02*
X8350357Y-13489329D01*
X8336071Y-13503614D01*
X8321786Y-13489329D01*
X8336071Y-13475043D01*
X8336071Y-13503614D01*
X8336071Y-13317900D02*
X8350357Y-13332186D01*
X8336071Y-13346471D01*
X8321786Y-13332186D01*
X8336071Y-13317900D01*
X8336071Y-13346471D01*
X5832500Y-13917900D02*
X5992500Y-14077900D01*
X5992500Y-13917900D02*
X5832500Y-14077900D01*
X6436071Y-14133614D02*
X6264643Y-14133614D01*
X6350357Y-14133614D02*
X6350357Y-13833614D01*
X6321786Y-13876471D01*
X6293214Y-13905043D01*
X6264643Y-13919329D01*
X6564643Y-14105043D02*
X6578928Y-14119329D01*
X6564643Y-14133614D01*
X6550357Y-14119329D01*
X6564643Y-14105043D01*
X6564643Y-14133614D01*
X6836071Y-13833614D02*
X6778928Y-13833614D01*
X6750357Y-13847900D01*
X6736071Y-13862186D01*
X6707500Y-13905043D01*
X6693214Y-13962186D01*
X6693214Y-14076471D01*
X6707500Y-14105043D01*
X6721786Y-14119329D01*
X6750357Y-14133614D01*
X6807500Y-14133614D01*
X6836071Y-14119329D01*
X6850357Y-14105043D01*
X6864643Y-14076471D01*
X6864643Y-14005043D01*
X6850357Y-13976471D01*
X6836071Y-13962186D01*
X6807500Y-13947900D01*
X6750357Y-13947900D01*
X6721786Y-13962186D01*
X6707500Y-13976471D01*
X6693214Y-14005043D01*
X7050357Y-13833614D02*
X7078928Y-13833614D01*
X7107500Y-13847900D01*
X7121786Y-13862186D01*
X7136071Y-13890757D01*
X7150357Y-13947900D01*
X7150357Y-14019329D01*
X7136071Y-14076471D01*
X7121786Y-14105043D01*
X7107500Y-14119329D01*
X7078928Y-14133614D01*
X7050357Y-14133614D01*
X7021786Y-14119329D01*
X7007500Y-14105043D01*
X6993214Y-14076471D01*
X6978928Y-14019329D01*
X6978928Y-13947900D01*
X6993214Y-13890757D01*
X7007500Y-13862186D01*
X7021786Y-13847900D01*
X7050357Y-13833614D01*
X7278928Y-14133614D02*
X7278928Y-13933614D01*
X7278928Y-13962186D02*
X7293214Y-13947900D01*
X7321786Y-13933614D01*
X7364643Y-13933614D01*
X7393214Y-13947900D01*
X7407500Y-13976471D01*
X7407500Y-14133614D01*
X7407500Y-13976471D02*
X7421786Y-13947900D01*
X7450357Y-13933614D01*
X7493214Y-13933614D01*
X7521786Y-13947900D01*
X7536071Y-13976471D01*
X7536071Y-14133614D01*
X7678928Y-14133614D02*
X7678928Y-13933614D01*
X7678928Y-13962186D02*
X7693214Y-13947900D01*
X7721786Y-13933614D01*
X7764643Y-13933614D01*
X7793214Y-13947900D01*
X7807500Y-13976471D01*
X7807500Y-14133614D01*
X7807500Y-13976471D02*
X7821786Y-13947900D01*
X7850357Y-13933614D01*
X7893214Y-13933614D01*
X7921786Y-13947900D01*
X7936071Y-13976471D01*
X7936071Y-14133614D01*
X8521786Y-13819329D02*
X8264643Y-14205043D01*
X8907500Y-13833614D02*
X8936071Y-13833614D01*
X8964643Y-13847900D01*
X8978928Y-13862186D01*
X8993214Y-13890757D01*
X9007500Y-13947900D01*
X9007500Y-14019329D01*
X8993214Y-14076471D01*
X8978928Y-14105043D01*
X8964643Y-14119329D01*
X8936071Y-14133614D01*
X8907500Y-14133614D01*
X8878928Y-14119329D01*
X8864643Y-14105043D01*
X8850357Y-14076471D01*
X8836071Y-14019329D01*
X8836071Y-13947900D01*
X8850357Y-13890757D01*
X8864643Y-13862186D01*
X8878928Y-13847900D01*
X8907500Y-13833614D01*
X9136071Y-14105043D02*
X9150357Y-14119329D01*
X9136071Y-14133614D01*
X9121786Y-14119329D01*
X9136071Y-14105043D01*
X9136071Y-14133614D01*
X9336071Y-13833614D02*
X9364643Y-13833614D01*
X9393214Y-13847900D01*
X9407500Y-13862186D01*
X9421786Y-13890757D01*
X9436071Y-13947900D01*
X9436071Y-14019329D01*
X9421786Y-14076471D01*
X9407500Y-14105043D01*
X9393214Y-14119329D01*
X9364643Y-14133614D01*
X9336071Y-14133614D01*
X9307500Y-14119329D01*
X9293214Y-14105043D01*
X9278928Y-14076471D01*
X9264643Y-14019329D01*
X9264643Y-13947900D01*
X9278928Y-13890757D01*
X9293214Y-13862186D01*
X9307500Y-13847900D01*
X9336071Y-13833614D01*
X9693214Y-13833614D02*
X9636071Y-13833614D01*
X9607500Y-13847900D01*
X9593214Y-13862186D01*
X9564643Y-13905043D01*
X9550357Y-13962186D01*
X9550357Y-14076471D01*
X9564643Y-14105043D01*
X9578928Y-14119329D01*
X9607500Y-14133614D01*
X9664643Y-14133614D01*
X9693214Y-14119329D01*
X9707500Y-14105043D01*
X9721786Y-14076471D01*
X9721786Y-14005043D01*
X9707500Y-13976471D01*
X9693214Y-13962186D01*
X9664643Y-13947900D01*
X9607500Y-13947900D01*
X9578928Y-13962186D01*
X9564643Y-13976471D01*
X9550357Y-14005043D01*
X9821786Y-13833614D02*
X10007500Y-13833614D01*
X9907500Y-13947900D01*
X9950357Y-13947900D01*
X9978928Y-13962186D01*
X9993214Y-13976471D01*
X10007500Y-14005043D01*
X10007500Y-14076471D01*
X9993214Y-14105043D01*
X9978928Y-14119329D01*
X9950357Y-14133614D01*
X9864643Y-14133614D01*
X9836071Y-14119329D01*
X9821786Y-14105043D01*
X10121786Y-13833614D02*
X10121786Y-13890757D01*
X10236071Y-13833614D02*
X10236071Y-13890757D01*
X10678928Y-14247900D02*
X10664643Y-14233614D01*
X10636071Y-14190757D01*
X10621786Y-14162186D01*
X10607500Y-14119329D01*
X10593214Y-14047900D01*
X10593214Y-13990757D01*
X10607500Y-13919329D01*
X10621786Y-13876471D01*
X10636071Y-13847900D01*
X10664643Y-13805043D01*
X10678928Y-13790757D01*
X10921786Y-13933614D02*
X10921786Y-14133614D01*
X10850357Y-13819329D02*
X10778928Y-14033614D01*
X10964643Y-14033614D01*
X11307500Y-14133614D02*
X11307500Y-13833614D01*
X11436071Y-14133614D02*
X11436071Y-13976471D01*
X11421786Y-13947900D01*
X11393214Y-13933614D01*
X11350357Y-13933614D01*
X11321786Y-13947900D01*
X11307500Y-13962186D01*
X11621786Y-14133614D02*
X11593214Y-14119329D01*
X11578928Y-14105043D01*
X11564643Y-14076471D01*
X11564643Y-13990757D01*
X11578928Y-13962186D01*
X11593214Y-13947900D01*
X11621786Y-13933614D01*
X11664643Y-13933614D01*
X11693214Y-13947900D01*
X11707500Y-13962186D01*
X11721786Y-13990757D01*
X11721786Y-14076471D01*
X11707500Y-14105043D01*
X11693214Y-14119329D01*
X11664643Y-14133614D01*
X11621786Y-14133614D01*
X11893214Y-14133614D02*
X11864643Y-14119329D01*
X11850357Y-14090757D01*
X11850357Y-13833614D01*
X12121786Y-14119329D02*
X12093214Y-14133614D01*
X12036071Y-14133614D01*
X12007500Y-14119329D01*
X11993214Y-14090757D01*
X11993214Y-13976471D01*
X12007500Y-13947900D01*
X12036071Y-13933614D01*
X12093214Y-13933614D01*
X12121786Y-13947900D01*
X12136071Y-13976471D01*
X12136071Y-14005043D01*
X11993214Y-14033614D01*
X12250357Y-14119329D02*
X12278928Y-14133614D01*
X12336071Y-14133614D01*
X12364643Y-14119329D01*
X12378928Y-14090757D01*
X12378928Y-14076471D01*
X12364643Y-14047900D01*
X12336071Y-14033614D01*
X12293214Y-14033614D01*
X12264643Y-14019329D01*
X12250357Y-13990757D01*
X12250357Y-13976471D01*
X12264643Y-13947900D01*
X12293214Y-13933614D01*
X12336071Y-13933614D01*
X12364643Y-13947900D01*
X12478928Y-14247900D02*
X12493214Y-14233614D01*
X12521786Y-14190757D01*
X12536071Y-14162186D01*
X12550357Y-14119329D01*
X12564643Y-14047900D01*
X12564643Y-13990757D01*
X12550357Y-13919329D01*
X12536071Y-13876471D01*
X12521786Y-13847900D01*
X12493214Y-13805043D01*
X12478928Y-13790757D01*
X13021786Y-14247900D02*
X13007500Y-14233614D01*
X12978928Y-14190757D01*
X12964643Y-14162186D01*
X12950357Y-14119329D01*
X12936071Y-14047900D01*
X12936071Y-13990757D01*
X12950357Y-13919329D01*
X12964643Y-13876471D01*
X12978928Y-13847900D01*
X13007500Y-13805043D01*
X13021786Y-13790757D01*
X13136071Y-13933614D02*
X13136071Y-14133614D01*
X13136071Y-13962186D02*
X13150357Y-13947900D01*
X13178928Y-13933614D01*
X13221786Y-13933614D01*
X13250357Y-13947900D01*
X13264643Y-13976471D01*
X13264643Y-14133614D01*
X13450357Y-14133614D02*
X13421786Y-14119329D01*
X13407500Y-14105043D01*
X13393214Y-14076471D01*
X13393214Y-13990757D01*
X13407500Y-13962186D01*
X13421786Y-13947900D01*
X13450357Y-13933614D01*
X13493214Y-13933614D01*
X13521786Y-13947900D01*
X13536071Y-13962186D01*
X13550357Y-13990757D01*
X13550357Y-14076471D01*
X13536071Y-14105043D01*
X13521786Y-14119329D01*
X13493214Y-14133614D01*
X13450357Y-14133614D01*
X13636071Y-13933614D02*
X13750357Y-13933614D01*
X13678928Y-13833614D02*
X13678928Y-14090757D01*
X13693214Y-14119329D01*
X13721786Y-14133614D01*
X13750357Y-14133614D01*
X14078928Y-13933614D02*
X14078928Y-14233614D01*
X14078928Y-13947900D02*
X14107500Y-13933614D01*
X14164643Y-13933614D01*
X14193214Y-13947900D01*
X14207500Y-13962186D01*
X14221786Y-13990757D01*
X14221786Y-14076471D01*
X14207500Y-14105043D01*
X14193214Y-14119329D01*
X14164643Y-14133614D01*
X14107500Y-14133614D01*
X14078928Y-14119329D01*
X14393214Y-14133614D02*
X14364643Y-14119329D01*
X14350357Y-14090757D01*
X14350357Y-13833614D01*
X14636071Y-14133614D02*
X14636071Y-13976471D01*
X14621786Y-13947900D01*
X14593214Y-13933614D01*
X14536071Y-13933614D01*
X14507500Y-13947900D01*
X14636071Y-14119329D02*
X14607500Y-14133614D01*
X14536071Y-14133614D01*
X14507500Y-14119329D01*
X14493214Y-14090757D01*
X14493214Y-14062186D01*
X14507500Y-14033614D01*
X14536071Y-14019329D01*
X14607500Y-14019329D01*
X14636071Y-14005043D01*
X14736071Y-13933614D02*
X14850357Y-13933614D01*
X14778928Y-13833614D02*
X14778928Y-14090757D01*
X14793214Y-14119329D01*
X14821786Y-14133614D01*
X14850357Y-14133614D01*
X15064643Y-14119329D02*
X15036071Y-14133614D01*
X14978928Y-14133614D01*
X14950357Y-14119329D01*
X14936071Y-14090757D01*
X14936071Y-13976471D01*
X14950357Y-13947900D01*
X14978928Y-13933614D01*
X15036071Y-13933614D01*
X15064643Y-13947900D01*
X15078928Y-13976471D01*
X15078928Y-14005043D01*
X14936071Y-14033614D01*
X15336071Y-14133614D02*
X15336071Y-13833614D01*
X15336071Y-14119329D02*
X15307500Y-14133614D01*
X15250357Y-14133614D01*
X15221786Y-14119329D01*
X15207500Y-14105043D01*
X15193214Y-14076471D01*
X15193214Y-13990757D01*
X15207500Y-13962186D01*
X15221786Y-13947900D01*
X15250357Y-13933614D01*
X15307500Y-13933614D01*
X15336071Y-13947900D01*
X15450357Y-14247900D02*
X15464643Y-14233614D01*
X15493214Y-14190757D01*
X15507500Y-14162186D01*
X15521786Y-14119329D01*
X15536071Y-14047900D01*
X15536071Y-13990757D01*
X15521786Y-13919329D01*
X15507500Y-13876471D01*
X15493214Y-13847900D01*
X15464643Y-13805043D01*
X15450357Y-13790757D01*
M02*
